{
  "request": {
    "method": "GET",
    "urlPath": "/api/getmeasure",
    "headers": {
      "Accept": {
        "contains": "application/json"
      },
      "Authorization": {
        "equalTo": "Bearer a-valid-access-token"
      }
    },

    "queryParameters": {
      "device_id": {
        "matches": "([0-9A-Fa-f]{2}:){5}([0-9A-Fa-f]{2})"
      },
      "module_id": {
        "matches": "([0-9A-Fa-f]{2}:){5}([0-9A-Fa-f]{2})"
      },
      "scale": {
        "equalTo": "max"
      },
      "optimize": {
        "equalTo": "true"
      },
      "real_time": {
        "equalTo": "true"
      },
      "limit": {
        "equalTo": "1024"
      }
    }
  },
  "response": {
    "status": 200,
    "headers": {
      "Content-Type": "application/json"
    },
    "bodyFileName": "{{ replace request.query.device_id ':' '-' }}_{{ replace request.query.module_id ':' '-' }}_{{request.query.date_begin}}_measure.json"
  }
}
