{
  "body": [
    {
      "beg_time": 1586570249,
      "step_time": 307,
      "value": [
        [
          11.8,
          73
        ],
        [
          11.7,
          73
        ]
      ]
    },
    {
      "beg_time": 1586570864,
      "step_time": 308,
      "value": [
        [
          11.7,
          73
        ],
        [
          11.7,
          73
        ]
      ]
    },
    {
      "beg_time": 1586571479,
      "step_time": 257,
      "value": [
        [
          11.7,
          73
        ],
        [
          11.7,
          73
        ]
      ]
    },
    {
      "beg_time": 1586572043,
      "step_time": 308,
      "value": [
        [
          11.7,
          73
        ],
        [
          11.6,
          73
        ]
      ]
    },
    {
      "beg_time": 1586572658,
      "step_time": 308,
      "value": [
        [
          11.6,
          73
        ],
        [
          11.5,
          73
        ],
        [
          11.5,
          73
        ]
      ]
    },
    {
      "beg_time": 1586573581,
      "step_time": 308,
      "value": [
        [
          11.5,
          73
        ],
        [
          11.5,
          73
        ],
        [
          11.4,
          73
        ]
      ]
    },
    {
      "beg_time": 1586574504,
      "step_time": 256,
      "value": [
        [
          11.4,
          73
        ],
        [
          11.4,
          74
        ]
      ]
    },
    {
      "beg_time": 1586575068,
      "step_time": 308,
      "value": [
        [
          11.4,
          74
        ],
        [
          11.4,
          74
        ]
      ]
    },
    {
      "beg_time": 1586575683,
      "step_time": 308,
      "value": [
        [
          11.3,
          74
        ],
        [
          11.3,
          74
        ],
        [
          11.3,
          74
        ]
      ]
    },
    {
      "beg_time": 1586576606,
      "step_time": 308,
      "value": [
        [
          11.3,
          74
        ],
        [
          11.2,
          74
        ],
        [
          11.2,
          74
        ],
        [
          11.2,
          75
        ]
      ]
    },
    {
      "beg_time": 1586577837,
      "step_time": 256,
      "value": [
        [
          11.2,
          75
        ],
        [
          11.2,
          74
        ]
      ]
    },
    {
      "beg_time": 1586578401,
      "step_time": 307,
      "value": [
        [
          11.2,
          75
        ],
        [
          11.2,
          75
        ]
      ]
    },
    {
      "beg_time": 1586579017,
      "step_time": 307,
      "value": [
        [
          11.2,
          75
        ],
        [
          11.2,
          74
        ],
        [
          11.2,
          75
        ]
      ]
    },
    {
      "beg_time": 1586579939,
      "step_time": 307,
      "value": [
        [
          11.2,
          75
        ],
        [
          11.2,
          74
        ]
      ]
    },
    {
      "beg_time": 1586580554,
      "step_time": 308,
      "value": [
        [
          11.1,
          74
        ],
        [
          11.1,
          75
        ]
      ]
    },
    {
      "beg_time": 1586581169,
      "step_time": 308,
      "value": [
        [
          11.1,
          75
        ],
        [
          11.1,
          75
        ]
      ]
    },
    {
      "beg_time": 1586581733,
      "step_time": 308,
      "value": [
        [
          11,
          75
        ],
        [
          11,
          75
        ]
      ]
    },
    {
      "beg_time": 1586582348,
      "step_time": 308,
      "value": [
        [
          11,
          75
        ],
        [
          11,
          75
        ],
        [
          10.9,
          75
        ]
      ]
    },
    {
      "beg_time": 1586583271,
      "step_time": 308,
      "value": [
        [
          10.9,
          76
        ],
        [
          10.9,
          76
        ]
      ]
    },
    {
      "beg_time": 1586583886,
      "step_time": 308,
      "value": [
        [
          10.9,
          76
        ],
        [
          10.9,
          76
        ],
        [
          11,
          76
        ]
      ]
    },
    {
      "beg_time": 1586584758,
      "step_time": 308,
      "value": [
        [
          11,
          76
        ],
        [
          11,
          76
        ]
      ]
    },
    {
      "beg_time": 1586585373,
      "step_time": 308,
      "value": [
        [
          11.1,
          76
        ],
        [
          11.2,
          76
        ],
        [
          11.3,
          76
        ]
      ]
    },
    {
      "beg_time": 1586586296,
      "step_time": 308,
      "value": [
        [
          11.4,
          76
        ],
        [
          11.5,
          75
        ]
      ]
    },
    {
      "beg_time": 1586586911,
      "step_time": 308,
      "value": [
        [
          11.5,
          75
        ],
        [
          11.7,
          75
        ]
      ]
    },
    {
      "beg_time": 1586587528,
      "step_time": 307,
      "value": [
        [
          11.8,
          75
        ],
        [
          11.9,
          74
        ]
      ]
    },
    {
      "beg_time": 1586588092,
      "step_time": 307,
      "value": [
        [
          12.1,
          74
        ],
        [
          12.2,
          73
        ],
        [
          12.3,
          73
        ],
        [
          12.4,
          73
        ]
      ]
    },
    {
      "beg_time": 1586589321,
      "step_time": 308,
      "value": [
        [
          12.6,
          72
        ],
        [
          12.8,
          72
        ]
      ]
    },
    {
      "beg_time": 1586589936,
      "step_time": 308,
      "value": [
        [
          13,
          71
        ],
        [
          13.2,
          70
        ],
        [
          13.4,
          70
        ]
      ]
    },
    {
      "beg_time": 1586590859,
      "step_time": 256,
      "value": [
        [
          13.6,
          69
        ],
        [
          13.8,
          68
        ]
      ]
    },
    {
      "beg_time": 1586591423,
      "step_time": 308,
      "value": [
        [
          14,
          67
        ],
        [
          14.3,
          67
        ]
      ]
    },
    {
      "beg_time": 1586592038,
      "step_time": 308,
      "value": [
        [
          14.4,
          65
        ],
        [
          14.6,
          65
        ],
        [
          14.9,
          64
        ]
      ]
    },
    {
      "beg_time": 1586592961,
      "step_time": 308,
      "value": [
        [
          15.1,
          63
        ],
        [
          15.3,
          62
        ],
        [
          15.5,
          61
        ],
        [
          15.8,
          61
        ]
      ]
    },
    {
      "beg_time": 1586594192,
      "step_time": 256,
      "value": [
        [
          16.1,
          60
        ],
        [
          16.2,
          59
        ]
      ]
    },
    {
      "beg_time": 1586594756,
      "step_time": 307,
      "value": [
        [
          16.5,
          58
        ],
        [
          16.8,
          58
        ]
      ]
    },
    {
      "beg_time": 1586595371,
      "step_time": 307,
      "value": [
        [
          17.1,
          56
        ],
        [
          17.3,
          56
        ]
      ]
    },
    {
      "beg_time": 1586595986,
      "step_time": 308,
      "value": [
        [
          17.6,
          55
        ],
        [
          17.8,
          54
        ]
      ]
    },
    {
      "beg_time": 1586596601,
      "step_time": 308,
      "value": [
        [
          18.1,
          54
        ],
        [
          18.4,
          52
        ]
      ]
    },
    {
      "beg_time": 1586597218,
      "step_time": 307,
      "value": [
        [
          18.6,
          52
        ],
        [
          19,
          51
        ]
      ]
    },
    {
      "beg_time": 1586597781,
      "step_time": 307,
      "value": [
        [
          19.2,
          51
        ],
        [
          19.6,
          49
        ]
      ]
    },
    {
      "beg_time": 1586598397,
      "step_time": 307,
      "value": [
        [
          19.8,
          48
        ],
        [
          19.9,
          49
        ]
      ]
    },
    {
      "beg_time": 1586599012,
      "step_time": 308,
      "value": [
        [
          20.2,
          48
        ],
        [
          20.4,
          47
        ]
      ]
    },
    {
      "beg_time": 1586599626,
      "step_time": 308,
      "value": [
        [
          20.7,
          47
        ],
        [
          20.9,
          46
        ],
        [
          21,
          46
        ],
        [
          21.2,
          45
        ]
      ]
    },
    {
      "beg_time": 1586600857,
      "step_time": 256,
      "value": [
        [
          21.4,
          45
        ],
        [
          21.6,
          43
        ]
      ]
    },
    {
      "beg_time": 1586601421,
      "step_time": 307,
      "value": [
        [
          21.7,
          44
        ],
        [
          21.9,
          44
        ]
      ]
    },
    {
      "beg_time": 1586602037,
      "step_time": 308,
      "value": [
        [
          22.1,
          43
        ],
        [
          22.1,
          44
        ]
      ]
    },
    {
      "beg_time": 1586602651,
      "step_time": 308,
      "value": [
        [
          22.3,
          42
        ],
        [
          22.6,
          43
        ],
        [
          22.8,
          42
        ],
        [
          23,
          41
        ],
        [
          23.1,
          42
        ]
      ]
    },
    {
      "beg_time": 1586604190,
      "step_time": 257,
      "value": [
        [
          23.3,
          40
        ],
        [
          23.5,
          41
        ]
      ]
    },
    {
      "beg_time": 1586604754,
      "step_time": 308,
      "value": [
        [
          23.7,
          39
        ],
        [
          24,
          38
        ]
      ]
    },
    {
      "beg_time": 1586605369,
      "step_time": 308,
      "value": [
        [
          24.2,
          39
        ],
        [
          24.5,
          36
        ],
        [
          24.8,
          35
        ]
      ]
    },
    {
      "beg_time": 1586606291,
      "step_time": 308,
      "value": [
        [
          25.1,
          33
        ],
        [
          25.3,
          31
        ]
      ]
    },
    {
      "beg_time": 1586606906,
      "step_time": 308,
      "value": [
        [
          25.4,
          31
        ],
        [
          25.6,
          32
        ]
      ]
    },
    {
      "beg_time": 1586607523,
      "step_time": 307,
      "value": [
        [
          25.8,
          31
        ],
        [
          25.9,
          31
        ]
      ]
    },
    {
      "beg_time": 1586608138,
      "step_time": 256,
      "value": [
        [
          25.9,
          31
        ],
        [
          26,
          31
        ]
      ]
    },
    {
      "beg_time": 1586608702,
      "step_time": 308,
      "value": [
        [
          26.1,
          30
        ],
        [
          26.3,
          29
        ]
      ]
    },
    {
      "beg_time": 1586609316,
      "step_time": 308,
      "value": [
        [
          26.6,
          29
        ],
        [
          26.8,
          29
        ]
      ]
    },
    {
      "beg_time": 1586609931,
      "step_time": 308,
      "value": [
        [
          26.8,
          29
        ],
        [
          26.7,
          29
        ]
      ]
    },
    {
      "beg_time": 1586610548,
      "step_time": 307,
      "value": [
        [
          26.6,
          30
        ],
        [
          26.7,
          29
        ]
      ]
    },
    {
      "beg_time": 1586611163,
      "step_time": 307,
      "value": [
        [
          27,
          30
        ],
        [
          27.6,
          30
        ]
      ]
    },
    {
      "beg_time": 1586611727,
      "step_time": 307,
      "value": [
        [
          27.7,
          29
        ],
        [
          27.1,
          29
        ]
      ]
    },
    {
      "beg_time": 1586612342,
      "step_time": 308,
      "value": [
        [
          26.7,
          30
        ],
        [
          26.4,
          30
        ]
      ]
    },
    {
      "beg_time": 1586612956,
      "step_time": 308,
      "value": [
        [
          26.1,
          31
        ],
        [
          25.8,
          31
        ],
        [
          25.7,
          32
        ]
      ]
    },
    {
      "beg_time": 1586613879,
      "step_time": 308,
      "value": [
        [
          26.4,
          31
        ],
        [
          27.3,
          31
        ]
      ]
    },
    {
      "beg_time": 1586614494,
      "step_time": 309,
      "value": [
        [
          28,
          29
        ],
        [
          27.8,
          30
        ]
      ]
    },
    {
      "beg_time": 1586615059,
      "step_time": 308,
      "value": [
        [
          28.5,
          29
        ],
        [
          29.4,
          27
        ],
        [
          29.8,
          26
        ]
      ]
    },
    {
      "beg_time": 1586615982,
      "step_time": 308,
      "value": [
        [
          30.6,
          25
        ],
        [
          31.3,
          24
        ]
      ]
    },
    {
      "beg_time": 1586616597,
      "step_time": 308,
      "value": [
        [
          31.6,
          24
        ],
        [
          31,
          24
        ],
        [
          30.1,
          26
        ]
      ]
    },
    {
      "beg_time": 1586617520,
      "step_time": 308,
      "value": [
        [
          30.6,
          26
        ],
        [
          30.9,
          25
        ]
      ]
    },
    {
      "beg_time": 1586618084,
      "step_time": 308,
      "value": [
        [
          30.2,
          25
        ],
        [
          29.3,
          26
        ]
      ]
    },
    {
      "beg_time": 1586618699,
      "step_time": 307,
      "value": [
        [
          28.6,
          27
        ],
        [
          28.8,
          28
        ]
      ]
    },
    {
      "beg_time": 1586619314,
      "step_time": 308,
      "value": [
        [
          28.5,
          28
        ],
        [
          28.2,
          28
        ],
        [
          28,
          29
        ],
        [
          27.6,
          28
        ]
      ]
    },
    {
      "beg_time": 1586620545,
      "step_time": 307,
      "value": [
        [
          27.2,
          28
        ],
        [
          27,
          27
        ]
      ]
    },
    {
      "beg_time": 1586621108,
      "step_time": 309,
      "value": [
        [
          26.8,
          27
        ],
        [
          26.5,
          28
        ]
      ]
    },
    {
      "beg_time": 1586621724,
      "step_time": 308,
      "value": [
        [
          26.3,
          27
        ],
        [
          26.1,
          27
        ],
        [
          25.8,
          28
        ]
      ]
    },
    {
      "beg_time": 1586622647,
      "step_time": 308,
      "value": [
        [
          25.6,
          28
        ],
        [
          25.4,
          28
        ]
      ]
    },
    {
      "beg_time": 1586623261,
      "step_time": 308,
      "value": [
        [
          25.2,
          29
        ],
        [
          25.1,
          29
        ],
        [
          24.9,
          30
        ]
      ]
    },
    {
      "beg_time": 1586624184,
      "step_time": 309,
      "value": [
        [
          24.7,
          30
        ],
        [
          24.6,
          31
        ]
      ]
    },
    {
      "beg_time": 1586624749,
      "step_time": 308,
      "value": [
        [
          24.5,
          31
        ],
        [
          24.4,
          31
        ],
        [
          24.3,
          31
        ]
      ]
    },
    {
      "beg_time": 1586625671,
      "step_time": 308,
      "value": [
        [
          24.2,
          32
        ],
        [
          24.1,
          32
        ],
        [
          23.9,
          32
        ],
        [
          23.8,
          32
        ],
        [
          23.7,
          32
        ]
      ]
    },
    {
      "beg_time": 1586627210,
      "step_time": 308,
      "value": [
        [
          23.5,
          33
        ],
        [
          23.4,
          33
        ]
      ]
    },
    {
      "beg_time": 1586627825,
      "step_time": 257,
      "value": [
        [
          23.2,
          33
        ],
        [
          23.1,
          34
        ]
      ]
    },
    {
      "beg_time": 1586628389,
      "step_time": 307,
      "value": [
        [
          22.9,
          33
        ],
        [
          22.8,
          33
        ]
      ]
    },
    {
      "beg_time": 1586629004,
      "step_time": 307,
      "value": [
        [
          22.7,
          34
        ],
        [
          22.6,
          34
        ]
      ]
    },
    {
      "beg_time": 1586629619,
      "step_time": 309,
      "value": [
        [
          22.4,
          35
        ],
        [
          22.3,
          36
        ]
      ]
    },
    {
      "beg_time": 1586630235,
      "step_time": 308,
      "value": [
        [
          22.2,
          36
        ],
        [
          22,
          37
        ]
      ]
    },
    {
      "beg_time": 1586630850,
      "step_time": 308,
      "value": [
        [
          21.9,
          38
        ],
        [
          21.7,
          39
        ]
      ]
    },
    {
      "beg_time": 1586631414,
      "step_time": 308,
      "value": [
        [
          21.5,
          40
        ],
        [
          21.4,
          41
        ],
        [
          21.1,
          42
        ]
      ]
    },
    {
      "beg_time": 1586632337,
      "step_time": 308,
      "value": [
        [
          21,
          42
        ],
        [
          20.9,
          42
        ]
      ]
    },
    {
      "beg_time": 1586632952,
      "step_time": 308,
      "value": [
        [
          20.7,
          42
        ],
        [
          20.6,
          41
        ],
        [
          20.6,
          42
        ]
      ]
    },
    {
      "beg_time": 1586633875,
      "step_time": 308,
      "value": [
        [
          20.4,
          43
        ],
        [
          20.3,
          42
        ]
      ]
    },
    {
      "beg_time": 1586634439,
      "step_time": 308,
      "value": [
        [
          20.2,
          42
        ],
        [
          20.1,
          43
        ]
      ]
    },
    {
      "beg_time": 1586635054,
      "step_time": 307,
      "value": [
        [
          19.9,
          43
        ],
        [
          19.8,
          43
        ]
      ]
    },
    {
      "beg_time": 1586635669,
      "step_time": 308,
      "value": [
        [
          19.8,
          44
        ],
        [
          19.7,
          44
        ],
        [
          19.6,
          45
        ]
      ]
    },
    {
      "beg_time": 1586636592,
      "step_time": 307,
      "value": [
        [
          19.4,
          45
        ],
        [
          19.3,
          46
        ]
      ]
    },
    {
      "beg_time": 1586637208,
      "step_time": 256,
      "value": [
        [
          19.2,
          46
        ],
        [
          19.1,
          46
        ]
      ]
    },
    {
      "beg_time": 1586637772,
      "step_time": 307,
      "value": [
        [
          19,
          46
        ],
        [
          19,
          47
        ]
      ]
    },
    {
      "beg_time": 1586638387,
      "step_time": 308,
      "value": [
        [
          18.9,
          48
        ],
        [
          18.8,
          48
        ]
      ]
    },
    {
      "beg_time": 1586639002,
      "step_time": 308,
      "value": [
        [
          18.7,
          46
        ],
        [
          18.6,
          47
        ]
      ]
    },
    {
      "beg_time": 1586639617,
      "step_time": 308,
      "value": [
        [
          18.6,
          47
        ],
        [
          18.5,
          48
        ],
        [
          18.4,
          48
        ]
      ]
    },
    {
      "beg_time": 1586640540,
      "step_time": 257,
      "value": [
        [
          18.3,
          49
        ],
        [
          18.2,
          49
        ]
      ]
    },
    {
      "beg_time": 1586641104,
      "step_time": 307,
      "value": [
        [
          18.1,
          48
        ],
        [
          18.1,
          49
        ]
      ]
    },
    {
      "beg_time": 1586641719,
      "step_time": 308,
      "value": [
        [
          18,
          50
        ],
        [
          17.9,
          50
        ],
        [
          17.8,
          51
        ]
      ]
    },
    {
      "beg_time": 1586642642,
      "step_time": 308,
      "value": [
        [
          17.7,
          50
        ],
        [
          17.7,
          51
        ],
        [
          17.6,
          51
        ]
      ]
    },
    {
      "beg_time": 1586643565,
      "step_time": 308,
      "value": [
        [
          17.5,
          52
        ],
        [
          17.4,
          52
        ]
      ]
    },
    {
      "beg_time": 1586644129,
      "step_time": 308,
      "value": [
        [
          17.4,
          52
        ],
        [
          17.3,
          52
        ]
      ]
    },
    {
      "beg_time": 1586644744,
      "step_time": 308,
      "value": [
        [
          17.2,
          53
        ],
        [
          17.2,
          53
        ],
        [
          17.1,
          53
        ]
      ]
    },
    {
      "beg_time": 1586645667,
      "step_time": 308,
      "value": [
        [
          17,
          54
        ],
        [
          17,
          53
        ]
      ]
    },
    {
      "beg_time": 1586646282,
      "step_time": 308,
      "value": [
        [
          17,
          54
        ],
        [
          17,
          53
        ],
        [
          16.9,
          54
        ]
      ]
    },
    {
      "beg_time": 1586647154,
      "step_time": 308,
      "value": [
        [
          16.9,
          54
        ],
        [
          16.9,
          54
        ]
      ]
    },
    {
      "beg_time": 1586647769,
      "step_time": 308,
      "value": [
        [
          16.9,
          54
        ],
        [
          16.9,
          53
        ],
        [
          16.9,
          53
        ]
      ]
    },
    {
      "beg_time": 1586648692,
      "step_time": 308,
      "value": [
        [
          16.9,
          54
        ],
        [
          16.9,
          53
        ]
      ]
    },
    {
      "beg_time": 1586649307,
      "step_time": 308,
      "value": [
        [
          16.8,
          53
        ],
        [
          16.8,
          53
        ],
        [
          16.8,
          53
        ]
      ]
    },
    {
      "beg_time": 1586650230,
      "step_time": 257,
      "value": [
        [
          16.7,
          53
        ],
        [
          16.6,
          54
        ]
      ]
    },
    {
      "beg_time": 1586650794,
      "step_time": 308,
      "value": [
        [
          16.5,
          54
        ],
        [
          16.4,
          54
        ]
      ]
    },
    {
      "beg_time": 1586651409,
      "step_time": 308,
      "value": [
        [
          16.4,
          55
        ],
        [
          16.3,
          55
        ],
        [
          16.3,
          55
        ]
      ]
    },
    {
      "beg_time": 1586652332,
      "step_time": 308,
      "value": [
        [
          16.2,
          55
        ],
        [
          16.1,
          55
        ],
        [
          16.1,
          55
        ]
      ]
    },
    {
      "beg_time": 1586653255,
      "step_time": 308,
      "value": [
        [
          16,
          56
        ],
        [
          15.9,
          55
        ]
      ]
    },
    {
      "beg_time": 1586653819,
      "step_time": 308,
      "value": [
        [
          15.9,
          56
        ],
        [
          15.8,
          56
        ]
      ]
    },
    {
      "beg_time": 1586654434,
      "step_time": 308,
      "value": [
        [
          15.7,
          56
        ],
        [
          15.7,
          56
        ],
        [
          15.6,
          57
        ]
      ]
    },
    {
      "beg_time": 1586655357,
      "step_time": 308,
      "value": [
        [
          15.5,
          57
        ],
        [
          15.5,
          57
        ]
      ]
    },
    {
      "beg_time": 1586655972,
      "step_time": 308,
      "value": [
        [
          15.5,
          57
        ],
        [
          15.4,
          57
        ],
        [
          15.4,
          57
        ]
      ]
    },
    {
      "beg_time": 1586656895,
      "step_time": 257,
      "value": [
        [
          15.3,
          58
        ],
        [
          15.3,
          58
        ]
      ]
    },
    {
      "beg_time": 1586657459,
      "step_time": 308,
      "value": [
        [
          15.2,
          58
        ],
        [
          15.2,
          58
        ]
      ]
    },
    {
      "beg_time": 1586658074,
      "step_time": 308,
      "value": [
        [
          15.2,
          58
        ],
        [
          15.1,
          58
        ],
        [
          15.1,
          59
        ]
      ]
    },
    {
      "beg_time": 1586658997,
      "step_time": 308,
      "value": [
        [
          15,
          59
        ],
        [
          15,
          59
        ],
        [
          14.9,
          59
        ]
      ]
    },
    {
      "beg_time": 1586659920,
      "step_time": 308,
      "value": [
        [
          14.9,
          59
        ],
        [
          14.8,
          59
        ]
      ]
    },
    {
      "beg_time": 1586660484,
      "step_time": 308,
      "value": [
        [
          14.7,
          60
        ],
        [
          14.7,
          61
        ]
      ]
    },
    {
      "beg_time": 1586661099,
      "step_time": 308,
      "value": [
        [
          14.7,
          61
        ],
        [
          14.6,
          61
        ],
        [
          14.6,
          61
        ]
      ]
    },
    {
      "beg_time": 1586662022,
      "step_time": 308,
      "value": [
        [
          14.5,
          61
        ],
        [
          14.4,
          60
        ],
        [
          14.4,
          62
        ],
        [
          14.3,
          62
        ]
      ]
    },
    {
      "beg_time": 1586663253,
      "step_time": 256,
      "value": [
        [
          14.3,
          62
        ],
        [
          14.2,
          62
        ]
      ]
    },
    {
      "beg_time": 1586663817,
      "step_time": 307,
      "value": [
        [
          14.2,
          62
        ],
        [
          14.1,
          63
        ]
      ]
    },
    {
      "beg_time": 1586664432,
      "step_time": 308,
      "value": [
        [
          14.1,
          64
        ],
        [
          14,
          63
        ]
      ]
    },
    {
      "beg_time": 1586665047,
      "step_time": 308,
      "value": [
        [
          14,
          63
        ],
        [
          13.9,
          64
        ]
      ]
    },
    {
      "beg_time": 1586665662,
      "step_time": 308,
      "value": [
        [
          13.9,
          62
        ],
        [
          13.8,
          63
        ],
        [
          13.8,
          64
        ]
      ]
    },
    {
      "beg_time": 1586666585,
      "step_time": 257,
      "value": [
        [
          13.8,
          63
        ],
        [
          13.7,
          64
        ]
      ]
    },
    {
      "beg_time": 1586667149,
      "step_time": 309,
      "value": [
        [
          13.6,
          65
        ],
        [
          13.6,
          64
        ]
      ]
    },
    {
      "beg_time": 1586667765,
      "step_time": 307,
      "value": [
        [
          13.6,
          65
        ],
        [
          13.5,
          64
        ]
      ]
    },
    {
      "beg_time": 1586668380,
      "step_time": 307,
      "value": [
        [
          13.5,
          64
        ],
        [
          13.5,
          63
        ]
      ]
    },
    {
      "beg_time": 1586668995,
      "step_time": 309,
      "value": [
        [
          13.4,
          64
        ],
        [
          13.4,
          63
        ]
      ]
    },
    {
      "beg_time": 1586669611,
      "step_time": 307,
      "value": [
        [
          13.4,
          63
        ],
        [
          13.4,
          63
        ]
      ]
    },
    {
      "beg_time": 1586670174,
      "step_time": 308,
      "value": [
        [
          13.4,
          63
        ],
        [
          13.4,
          62
        ]
      ]
    },
    {
      "beg_time": 1586670789,
      "step_time": 308,
      "value": [
        [
          13.5,
          62
        ],
        [
          13.5,
          62
        ],
        [
          13.5,
          62
        ]
      ]
    },
    {
      "beg_time": 1586671712,
      "step_time": 308,
      "value": [
        [
          13.5,
          63
        ],
        [
          13.4,
          62
        ],
        [
          13.4,
          63
        ],
        [
          13.4,
          63
        ],
        [
          13.5,
          65
        ]
      ]
    },
    {
      "beg_time": 1586673200,
      "step_time": 307,
      "value": [
        [
          13.5,
          65
        ],
        [
          13.5,
          64
        ],
        [
          13.5,
          64
        ]
      ]
    },
    {
      "beg_time": 1586674123,
      "step_time": 307,
      "value": [
        [
          13.5,
          64
        ],
        [
          13.5,
          65
        ],
        [
          13.5,
          65
        ]
      ]
    },
    {
      "beg_time": 1586675045,
      "step_time": 307,
      "value": [
        [
          13.6,
          64
        ],
        [
          13.7,
          64
        ]
      ]
    },
    {
      "beg_time": 1586675660,
      "step_time": 308,
      "value": [
        [
          13.8,
          64
        ],
        [
          14,
          63
        ]
      ]
    },
    {
      "beg_time": 1586676275,
      "step_time": 308,
      "value": [
        [
          14.1,
          62
        ],
        [
          14.3,
          61
        ]
      ]
    },
    {
      "beg_time": 1586676890,
      "step_time": 309,
      "value": [
        [
          14.4,
          60
        ],
        [
          14.6,
          60
        ]
      ]
    },
    {
      "beg_time": 1586677455,
      "step_time": 307,
      "value": [
        [
          14.8,
          60
        ],
        [
          15.1,
          59
        ]
      ]
    },
    {
      "beg_time": 1586678070,
      "step_time": 308,
      "value": [
        [
          15.3,
          58
        ],
        [
          15.6,
          57
        ],
        [
          15.8,
          57
        ]
      ]
    },
    {
      "beg_time": 1586678993,
      "step_time": 322,
      "value": [
        [
          16.1,
          56
        ],
        [
          16.3,
          56
        ]
      ]
    },
    {
      "beg_time": 1586679571,
      "step_time": 308,
      "value": [
        [
          16.6,
          55
        ],
        [
          16.8,
          54
        ]
      ]
    },
    {
      "beg_time": 1586680098,
      "step_time": 256,
      "value": [
        [
          17,
          53
        ],
        [
          17.2,
          52
        ]
      ]
    },
    {
      "beg_time": 1586680663,
      "step_time": 307,
      "value": [
        [
          17.3,
          52
        ],
        [
          17.5,
          51
        ]
      ]
    },
    {
      "beg_time": 1586681278,
      "step_time": 307,
      "value": [
        [
          17.7,
          52
        ],
        [
          18,
          51
        ]
      ]
    },
    {
      "beg_time": 1586681893,
      "step_time": 308,
      "value": [
        [
          18.4,
          50
        ],
        [
          18.7,
          49
        ]
      ]
    },
    {
      "beg_time": 1586682508,
      "step_time": 307,
      "value": [
        [
          19.1,
          48
        ],
        [
          19.4,
          46
        ]
      ]
    },
    {
      "beg_time": 1586683072,
      "step_time": 308,
      "value": [
        [
          19.7,
          46
        ],
        [
          20,
          45
        ],
        [
          20.3,
          44
        ]
      ]
    },
    {
      "beg_time": 1586683995,
      "step_time": 307,
      "value": [
        [
          20.6,
          44
        ],
        [
          20.8,
          43
        ]
      ]
    },
    {
      "beg_time": 1586684610,
      "step_time": 307,
      "value": [
        [
          21,
          42
        ],
        [
          21,
          43
        ]
      ]
    },
    {
      "beg_time": 1586685225,
      "step_time": 308,
      "value": [
        [
          21,
          42
        ],
        [
          21,
          42
        ]
      ]
    },
    {
      "beg_time": 1586685790,
      "step_time": 307,
      "value": [
        [
          21,
          43
        ],
        [
          21.1,
          43
        ]
      ]
    },
    {
      "beg_time": 1586686405,
      "step_time": 308,
      "value": [
        [
          21.3,
          43
        ],
        [
          21.5,
          44
        ]
      ]
    },
    {
      "beg_time": 1586687020,
      "step_time": 307,
      "value": [
        [
          21.7,
          43
        ],
        [
          21.9,
          42
        ],
        [
          22.1,
          42
        ]
      ]
    },
    {
      "beg_time": 1586687943,
      "step_time": 308,
      "value": [
        [
          22.4,
          40
        ],
        [
          22.7,
          39
        ]
      ]
    },
    {
      "beg_time": 1586688558,
      "step_time": 257,
      "value": [
        [
          22.9,
          38
        ],
        [
          23.3,
          38
        ]
      ]
    },
    {
      "beg_time": 1586689122,
      "step_time": 308,
      "value": [
        [
          23.7,
          37
        ],
        [
          24,
          35
        ]
      ]
    },
    {
      "beg_time": 1586689737,
      "step_time": 308,
      "value": [
        [
          24.2,
          35
        ],
        [
          24.6,
          34
        ],
        [
          25,
          34
        ]
      ]
    },
    {
      "beg_time": 1586690660,
      "step_time": 308,
      "value": [
        [
          25.1,
          34
        ],
        [
          25.3,
          34
        ],
        [
          25.3,
          34
        ]
      ]
    },
    {
      "beg_time": 1586691583,
      "step_time": 308,
      "value": [
        [
          25.4,
          34
        ],
        [
          25.5,
          34
        ]
      ]
    },
    {
      "beg_time": 1586692146,
      "step_time": 308,
      "value": [
        [
          25.6,
          34
        ],
        [
          25.7,
          34
        ],
        [
          25.7,
          34
        ],
        [
          25.8,
          34
        ],
        [
          26,
          33
        ]
      ]
    },
    {
      "beg_time": 1586693685,
      "step_time": 308,
      "value": [
        [
          26.1,
          33
        ],
        [
          26,
          32
        ]
      ]
    },
    {
      "beg_time": 1586694300,
      "step_time": 308,
      "value": [
        [
          25.9,
          30
        ],
        [
          25.9,
          30
        ]
      ]
    },
    {
      "beg_time": 1586695001,
      "step_time": 256,
      "value": [
        [
          25.7,
          29
        ],
        [
          25.7,
          29
        ]
      ]
    },
    {
      "beg_time": 1586695564,
      "step_time": 307,
      "value": [
        [
          25.8,
          28
        ],
        [
          26,
          29
        ]
      ]
    },
    {
      "beg_time": 1586696180,
      "step_time": 306,
      "value": [
        [
          26,
          27
        ],
        [
          25.9,
          28
        ]
      ]
    },
    {
      "beg_time": 1586696795,
      "step_time": 308,
      "value": [
        [
          25.7,
          27
        ],
        [
          25.5,
          29
        ]
      ]
    },
    {
      "beg_time": 1586697410,
      "step_time": 308,
      "value": [
        [
          25.4,
          27
        ],
        [
          25.3,
          29
        ]
      ]
    },
    {
      "beg_time": 1586697973,
      "step_time": 309,
      "value": [
        [
          25.3,
          28
        ],
        [
          25.2,
          28
        ]
      ]
    },
    {
      "beg_time": 1586698589,
      "step_time": 308,
      "value": [
        [
          25.3,
          28
        ],
        [
          26.2,
          26
        ]
      ]
    },
    {
      "beg_time": 1586699152,
      "step_time": 359,
      "value": [
        [
          27.1,
          27
        ],
        [
          28.3,
          24
        ]
      ]
    },
    {
      "beg_time": 1586699820,
      "step_time": 308,
      "value": [
        [
          28.7,
          23
        ],
        [
          29.2,
          23
        ]
      ]
    },
    {
      "beg_time": 1586700384,
      "step_time": 307,
      "value": [
        [
          29.2,
          23
        ],
        [
          29.6,
          23
        ]
      ]
    },
    {
      "beg_time": 1586700999,
      "step_time": 307,
      "value": [
        [
          29.7,
          24
        ],
        [
          29.1,
          24
        ]
      ]
    },
    {
      "beg_time": 1586701614,
      "step_time": 308,
      "value": [
        [
          28.7,
          24
        ],
        [
          29.1,
          25
        ]
      ]
    },
    {
      "beg_time": 1586702229,
      "step_time": 307,
      "value": [
        [
          29,
          25
        ],
        [
          29,
          25
        ]
      ]
    },
    {
      "beg_time": 1586702845,
      "step_time": 256,
      "value": [
        [
          28.8,
          25
        ],
        [
          29.3,
          25
        ]
      ]
    },
    {
      "beg_time": 1586703409,
      "step_time": 307,
      "value": [
        [
          29.6,
          25
        ],
        [
          29.7,
          24
        ]
      ]
    },
    {
      "beg_time": 1586704024,
      "step_time": 308,
      "value": [
        [
          30.2,
          25
        ],
        [
          30.4,
          24
        ]
      ]
    },
    {
      "beg_time": 1586704639,
      "step_time": 308,
      "value": [
        [
          30.8,
          25
        ],
        [
          31.2,
          24
        ]
      ]
    },
    {
      "beg_time": 1586705254,
      "step_time": 307,
      "value": [
        [
          31.3,
          23
        ],
        [
          30.4,
          24
        ]
      ]
    },
    {
      "beg_time": 1586705869,
      "step_time": 256,
      "value": [
        [
          29.5,
          24
        ],
        [
          28.8,
          26
        ]
      ]
    },
    {
      "beg_time": 1586706434,
      "step_time": 307,
      "value": [
        [
          27.9,
          27
        ],
        [
          27.2,
          27
        ],
        [
          26.7,
          28
        ]
      ]
    },
    {
      "beg_time": 1586707356,
      "step_time": 308,
      "value": [
        [
          26.2,
          29
        ],
        [
          25.7,
          29
        ],
        [
          25.2,
          30
        ]
      ]
    },
    {
      "beg_time": 1586708279,
      "step_time": 308,
      "value": [
        [
          24.8,
          30
        ],
        [
          24.5,
          31
        ]
      ]
    },
    {
      "beg_time": 1586708843,
      "step_time": 359,
      "value": [
        [
          24.4,
          32
        ],
        [
          24.1,
          32
        ]
      ]
    },
    {
      "beg_time": 1586709510,
      "step_time": 450,
      "value": [
        [
          23.8,
          32
        ],
        [
          23.5,
          32
        ]
      ]
    },
    {
      "beg_time": 1586710268,
      "step_time": 308,
      "value": [
        [
          23.3,
          32
        ],
        [
          23.2,
          33
        ]
      ]
    },
    {
      "beg_time": 1586710883,
      "step_time": 308,
      "value": [
        [
          23.1,
          33
        ],
        [
          23,
          33
        ]
      ]
    },
    {
      "beg_time": 1586711498,
      "step_time": 308,
      "value": [
        [
          22.9,
          33
        ],
        [
          22.8,
          33
        ]
      ]
    },
    {
      "beg_time": 1586712062,
      "step_time": 308,
      "value": [
        [
          22.7,
          33
        ],
        [
          22.6,
          33
        ],
        [
          22.6,
          33
        ]
      ]
    },
    {
      "beg_time": 1586712985,
      "step_time": 308,
      "value": [
        [
          22.5,
          34
        ],
        [
          22.4,
          34
        ]
      ]
    },
    {
      "beg_time": 1586713600,
      "step_time": 308,
      "value": [
        [
          22.3,
          35
        ],
        [
          22.1,
          35
        ]
      ]
    },
    {
      "beg_time": 1586714164,
      "step_time": 308,
      "value": [
        [
          22,
          35
        ],
        [
          21.9,
          37
        ],
        [
          21.7,
          37
        ]
      ]
    },
    {
      "beg_time": 1586715087,
      "step_time": 308,
      "value": [
        [
          21.6,
          38
        ],
        [
          21.4,
          38
        ]
      ]
    },
    {
      "beg_time": 1586715702,
      "step_time": 257,
      "value": [
        [
          21.2,
          38
        ],
        [
          21.1,
          38
        ]
      ]
    },
    {
      "beg_time": 1586716266,
      "step_time": 308,
      "value": [
        [
          21,
          38
        ],
        [
          20.9,
          39
        ],
        [
          20.7,
          39
        ]
      ]
    },
    {
      "beg_time": 1586717189,
      "step_time": 308,
      "value": [
        [
          20.6,
          39
        ],
        [
          20.5,
          40
        ],
        [
          20.4,
          40
        ]
      ]
    },
    {
      "beg_time": 1586718112,
      "step_time": 308,
      "value": [
        [
          20.3,
          41
        ],
        [
          20.2,
          41
        ]
      ]
    },
    {
      "beg_time": 1586718727,
      "step_time": 257,
      "value": [
        [
          20.1,
          42
        ],
        [
          20,
          42
        ]
      ]
    },
    {
      "beg_time": 1586719291,
      "step_time": 308,
      "value": [
        [
          19.9,
          42
        ],
        [
          19.8,
          42
        ],
        [
          19.7,
          42
        ]
      ]
    },
    {
      "beg_time": 1586720214,
      "step_time": 308,
      "value": [
        [
          19.6,
          43
        ],
        [
          19.5,
          42
        ]
      ]
    },
    {
      "beg_time": 1586720829,
      "step_time": 308,
      "value": [
        [
          19.4,
          43
        ],
        [
          19.3,
          43
        ],
        [
          19.2,
          43
        ]
      ]
    },
    {
      "beg_time": 1586721752,
      "step_time": 308,
      "value": [
        [
          19.1,
          44
        ],
        [
          19,
          44
        ]
      ]
    },
    {
      "beg_time": 1586722316,
      "step_time": 308,
      "value": [
        [
          18.9,
          44
        ],
        [
          18.8,
          44
        ]
      ]
    },
    {
      "beg_time": 1586722931,
      "step_time": 308,
      "value": [
        [
          18.7,
          44
        ],
        [
          18.6,
          44
        ],
        [
          18.5,
          44
        ]
      ]
    },
    {
      "beg_time": 1586723854,
      "step_time": 308,
      "value": [
        [
          18.4,
          45
        ],
        [
          18.3,
          44
        ],
        [
          18.2,
          45
        ]
      ]
    },
    {
      "beg_time": 1586724777,
      "step_time": 308,
      "value": [
        [
          18.2,
          45
        ],
        [
          18.1,
          45
        ]
      ]
    },
    {
      "beg_time": 1586725341,
      "step_time": 308,
      "value": [
        [
          18.1,
          45
        ],
        [
          18,
          46
        ]
      ]
    },
    {
      "beg_time": 1586725956,
      "step_time": 308,
      "value": [
        [
          18,
          46
        ],
        [
          17.9,
          47
        ],
        [
          17.8,
          46
        ]
      ]
    },
    {
      "beg_time": 1586726879,
      "step_time": 308,
      "value": [
        [
          17.8,
          47
        ],
        [
          17.7,
          47
        ]
      ]
    },
    {
      "beg_time": 1586727494,
      "step_time": 308,
      "value": [
        [
          17.7,
          47
        ],
        [
          17.6,
          49
        ],
        [
          17.5,
          50
        ]
      ]
    },
    {
      "beg_time": 1586728417,
      "step_time": 257,
      "value": [
        [
          17.4,
          53
        ],
        [
          17.3,
          54
        ]
      ]
    },
    {
      "beg_time": 1586728981,
      "step_time": 308,
      "value": [
        [
          17.1,
          56
        ],
        [
          16.9,
          58
        ],
        [
          16.7,
          59
        ]
      ]
    },
    {
      "beg_time": 1586729904,
      "step_time": 308,
      "value": [
        [
          16.5,
          61
        ],
        [
          16.4,
          61
        ]
      ]
    },
    {
      "beg_time": 1586730519,
      "step_time": 309,
      "value": [
        [
          16.2,
          61
        ],
        [
          16.1,
          61
        ]
      ]
    },
    {
      "beg_time": 1586731136,
      "step_time": 306,
      "value": [
        [
          16.1,
          62
        ],
        [
          16,
          62
        ]
      ]
    },
    {
      "beg_time": 1586731750,
      "step_time": 256,
      "value": [
        [
          15.9,
          63
        ],
        [
          15.8,
          63
        ]
      ]
    },
    {
      "beg_time": 1586732314,
      "step_time": 307,
      "value": [
        [
          15.8,
          64
        ],
        [
          15.6,
          64
        ]
      ]
    },
    {
      "beg_time": 1586732929,
      "step_time": 308,
      "value": [
        [
          15.5,
          64
        ],
        [
          15.4,
          64
        ]
      ]
    },
    {
      "beg_time": 1586733544,
      "step_time": 309,
      "value": [
        [
          15.2,
          65
        ],
        [
          15,
          65
        ]
      ]
    },
    {
      "beg_time": 1586734161,
      "step_time": 306,
      "value": [
        [
          14.9,
          64
        ],
        [
          14.7,
          64
        ]
      ]
    },
    {
      "beg_time": 1586734775,
      "step_time": 307,
      "value": [
        [
          14.6,
          64
        ],
        [
          14.4,
          64
        ]
      ]
    },
    {
      "beg_time": 1586735339,
      "step_time": 307,
      "value": [
        [
          14.3,
          64
        ],
        [
          14.1,
          64
        ]
      ]
    },
    {
      "beg_time": 1586735954,
      "step_time": 308,
      "value": [
        [
          14,
          63
        ],
        [
          13.9,
          61
        ]
      ]
    },
    {
      "beg_time": 1586736569,
      "step_time": 308,
      "value": [
        [
          13.8,
          61
        ],
        [
          13.7,
          61
        ]
      ]
    },
    {
      "beg_time": 1586737184,
      "step_time": 308,
      "value": [
        [
          13.7,
          61
        ],
        [
          13.6,
          61
        ],
        [
          13.5,
          61
        ]
      ]
    },
    {
      "beg_time": 1586738107,
      "step_time": 257,
      "value": [
        [
          13.4,
          61
        ],
        [
          13.4,
          61
        ]
      ]
    },
    {
      "beg_time": 1586738672,
      "step_time": 308,
      "value": [
        [
          13.4,
          61
        ],
        [
          13.3,
          61
        ]
      ]
    },
    {
      "beg_time": 1586739286,
      "step_time": 308,
      "value": [
        [
          13.3,
          61
        ],
        [
          13.2,
          62
        ],
        [
          13.1,
          61
        ]
      ]
    },
    {
      "beg_time": 1586740167,
      "step_time": 256,
      "value": [
        [
          13,
          62
        ],
        [
          12.9,
          62
        ]
      ]
    },
    {
      "beg_time": 1586740730,
      "step_time": 307,
      "value": [
        [
          12.8,
          62
        ],
        [
          12.8,
          62
        ]
      ]
    },
    {
      "beg_time": 1586741346,
      "step_time": 307,
      "value": [
        [
          12.7,
          62
        ],
        [
          12.6,
          62
        ],
        [
          12.5,
          63
        ]
      ]
    },
    {
      "beg_time": 1586742268,
      "step_time": 308,
      "value": [
        [
          12.5,
          63
        ],
        [
          12.4,
          62
        ]
      ]
    },
    {
      "beg_time": 1586742833,
      "step_time": 307,
      "value": [
        [
          12.4,
          61
        ],
        [
          12.3,
          61
        ],
        [
          12.2,
          60
        ]
      ]
    },
    {
      "beg_time": 1586743755,
      "step_time": 308,
      "value": [
        [
          12.1,
          60
        ],
        [
          12,
          61
        ],
        [
          12,
          62
        ]
      ]
    },
    {
      "beg_time": 1586744678,
      "step_time": 307,
      "value": [
        [
          11.9,
          61
        ],
        [
          11.7,
          60
        ]
      ]
    },
    {
      "beg_time": 1586745241,
      "step_time": 309,
      "value": [
        [
          11.6,
          60
        ],
        [
          11.5,
          59
        ]
      ]
    },
    {
      "beg_time": 1586745858,
      "step_time": 307,
      "value": [
        [
          11.4,
          59
        ],
        [
          11.3,
          60
        ]
      ]
    },
    {
      "beg_time": 1586746473,
      "step_time": 307,
      "value": [
        [
          11.2,
          61
        ],
        [
          11.1,
          61
        ]
      ]
    },
    {
      "beg_time": 1586747088,
      "step_time": 307,
      "value": [
        [
          11,
          62
        ],
        [
          10.9,
          63
        ],
        [
          10.9,
          63
        ]
      ]
    },
    {
      "beg_time": 1586748011,
      "step_time": 256,
      "value": [
        [
          10.9,
          63
        ],
        [
          10.9,
          64
        ]
      ]
    },
    {
      "beg_time": 1586748575,
      "step_time": 307,
      "value": [
        [
          10.9,
          64
        ],
        [
          10.9,
          64
        ]
      ]
    },
    {
      "beg_time": 1586749190,
      "step_time": 308,
      "value": [
        [
          10.8,
          64
        ],
        [
          10.8,
          64
        ]
      ]
    },
    {
      "beg_time": 1586749805,
      "step_time": 308,
      "value": [
        [
          10.9,
          64
        ],
        [
          10.9,
          65
        ]
      ]
    },
    {
      "beg_time": 1586750420,
      "step_time": 307,
      "value": [
        [
          10.8,
          65
        ],
        [
          10.8,
          65
        ]
      ]
    },
    {
      "beg_time": 1586751036,
      "step_time": 256,
      "value": [
        [
          10.7,
          64
        ],
        [
          10.6,
          64
        ]
      ]
    },
    {
      "beg_time": 1586751600,
      "step_time": 307,
      "value": [
        [
          10.6,
          64
        ],
        [
          10.6,
          65
        ],
        [
          10.5,
          65
        ]
      ]
    },
    {
      "beg_time": 1586752522,
      "step_time": 308,
      "value": [
        [
          10.4,
          65
        ],
        [
          10.4,
          65
        ],
        [
          10.3,
          66
        ]
      ]
    },
    {
      "beg_time": 1586753445,
      "step_time": 308,
      "value": [
        [
          10.3,
          66
        ],
        [
          10.2,
          67
        ]
      ]
    },
    {
      "beg_time": 1586754060,
      "step_time": 307,
      "value": [
        [
          10.2,
          67
        ],
        [
          10.2,
          66
        ]
      ]
    },
    {
      "beg_time": 1586754676,
      "step_time": 256,
      "value": [
        [
          10.2,
          65
        ],
        [
          10.2,
          64
        ]
      ]
    },
    {
      "beg_time": 1586755239,
      "step_time": 307,
      "value": [
        [
          10.1,
          62
        ],
        [
          10,
          62
        ]
      ]
    },
    {
      "beg_time": 1586755855,
      "step_time": 308,
      "value": [
        [
          10,
          62
        ],
        [
          9.9,
          61
        ]
      ]
    },
    {
      "beg_time": 1586756470,
      "step_time": 308,
      "value": [
        [
          9.9,
          62
        ],
        [
          9.9,
          61
        ]
      ]
    },
    {
      "beg_time": 1586757085,
      "step_time": 307,
      "value": [
        [
          9.8,
          61
        ],
        [
          9.8,
          61
        ]
      ]
    },
    {
      "beg_time": 1586757701,
      "step_time": 256,
      "value": [
        [
          9.7,
          61
        ],
        [
          9.7,
          61
        ]
      ]
    },
    {
      "beg_time": 1586758265,
      "step_time": 307,
      "value": [
        [
          9.7,
          62
        ],
        [
          9.7,
          61
        ],
        [
          9.6,
          62
        ]
      ]
    },
    {
      "beg_time": 1586759187,
      "step_time": 308,
      "value": [
        [
          9.6,
          62
        ],
        [
          9.6,
          61
        ],
        [
          9.6,
          59
        ]
      ]
    },
    {
      "beg_time": 1586760110,
      "step_time": 308,
      "value": [
        [
          9.6,
          59
        ],
        [
          9.6,
          58
        ],
        [
          9.6,
          58
        ]
      ]
    },
    {
      "beg_time": 1586761033,
      "step_time": 257,
      "value": [
        [
          9.5,
          58
        ],
        [
          9.5,
          58
        ]
      ]
    },
    {
      "beg_time": 1586761597,
      "step_time": 307,
      "value": [
        [
          9.5,
          58
        ],
        [
          9.5,
          58
        ]
      ]
    },
    {
      "beg_time": 1586762212,
      "step_time": 308,
      "value": [
        [
          9.4,
          59
        ],
        [
          9.4,
          60
        ],
        [
          9.4,
          59
        ]
      ]
    },
    {
      "beg_time": 1586763135,
      "step_time": 308,
      "value": [
        [
          9.3,
          59
        ],
        [
          9.3,
          59
        ],
        [
          9.2,
          59
        ]
      ]
    },
    {
      "beg_time": 1586764058,
      "step_time": 257,
      "value": [
        [
          9.2,
          59
        ],
        [
          9.2,
          59
        ]
      ]
    },
    {
      "beg_time": 1586764622,
      "step_time": 308,
      "value": [
        [
          9.1,
          58
        ],
        [
          9.2,
          57
        ]
      ]
    },
    {
      "beg_time": 1586765237,
      "step_time": 308,
      "value": [
        [
          9.2,
          55
        ],
        [
          9.3,
          54
        ],
        [
          9.4,
          53
        ]
      ]
    },
    {
      "beg_time": 1586766160,
      "step_time": 308,
      "value": [
        [
          9.5,
          53
        ],
        [
          9.5,
          53
        ],
        [
          9.5,
          54
        ]
      ]
    },
    {
      "beg_time": 1586767083,
      "step_time": 256,
      "value": [
        [
          9.5,
          54
        ],
        [
          9.5,
          55
        ]
      ]
    },
    {
      "beg_time": 1586767647,
      "step_time": 308,
      "value": [
        [
          9.5,
          55
        ],
        [
          9.5,
          55
        ]
      ]
    },
    {
      "beg_time": 1586768262,
      "step_time": 308,
      "value": [
        [
          9.6,
          55
        ],
        [
          9.6,
          54
        ],
        [
          9.6,
          54
        ]
      ]
    },
    {
      "beg_time": 1586769185,
      "step_time": 308,
      "value": [
        [
          9.5,
          54
        ],
        [
          9.6,
          53
        ]
      ]
    },
    {
      "beg_time": 1586769800,
      "step_time": 308,
      "value": [
        [
          9.6,
          52
        ],
        [
          9.6,
          52
        ],
        [
          9.7,
          52
        ]
      ]
    },
    {
      "beg_time": 1586770672,
      "step_time": 308,
      "value": [
        [
          9.8,
          49
        ],
        [
          10.1,
          49
        ]
      ]
    },
    {
      "beg_time": 1586771294,
      "step_time": 307,
      "value": [
        [
          10.5,
          48
        ],
        [
          10.8,
          48
        ]
      ]
    },
    {
      "beg_time": 1586771909,
      "step_time": 308,
      "value": [
        [
          10.9,
          47
        ],
        [
          11.1,
          45
        ]
      ]
    },
    {
      "beg_time": 1586772524,
      "step_time": 308,
      "value": [
        [
          11.1,
          45
        ],
        [
          11.1,
          44
        ]
      ]
    },
    {
      "beg_time": 1586773139,
      "step_time": 257,
      "value": [
        [
          11.1,
          43
        ],
        [
          11.3,
          44
        ]
      ]
    },
    {
      "beg_time": 1586773703,
      "step_time": 257,
      "value": [
        [
          11.4,
          43
        ],
        [
          11.5,
          42
        ]
      ]
    },
    {
      "beg_time": 1586774319,
      "step_time": 307,
      "value": [
        [
          11.7,
          42
        ],
        [
          11.9,
          43
        ]
      ]
    },
    {
      "beg_time": 1586774934,
      "step_time": 307,
      "value": [
        [
          12.2,
          41
        ],
        [
          12.3,
          41
        ]
      ]
    },
    {
      "beg_time": 1586775549,
      "step_time": 308,
      "value": [
        [
          12.2,
          41
        ],
        [
          12.2,
          41
        ]
      ]
    },
    {
      "beg_time": 1586776164,
      "step_time": 308,
      "value": [
        [
          12.5,
          41
        ],
        [
          12.8,
          41
        ]
      ]
    },
    {
      "beg_time": 1586776728,
      "step_time": 257,
      "value": [
        [
          12.9,
          40
        ],
        [
          13,
          39
        ]
      ]
    },
    {
      "beg_time": 1586777343,
      "step_time": 308,
      "value": [
        [
          13.2,
          39
        ],
        [
          13.3,
          38
        ],
        [
          13.3,
          38
        ]
      ]
    },
    {
      "beg_time": 1586778215,
      "step_time": 359,
      "value": [
        [
          13.3,
          38
        ],
        [
          13.4,
          39
        ]
      ]
    },
    {
      "beg_time": 1586778882,
      "step_time": 307,
      "value": [
        [
          13.5,
          38
        ],
        [
          13.5,
          39
        ]
      ]
    },
    {
      "beg_time": 1586779498,
      "step_time": 307,
      "value": [
        [
          13.6,
          37
        ],
        [
          13.5,
          37
        ]
      ]
    },
    {
      "beg_time": 1586780061,
      "step_time": 307,
      "value": [
        [
          13.4,
          38
        ],
        [
          13.2,
          38
        ]
      ]
    },
    {
      "beg_time": 1586780677,
      "step_time": 308,
      "value": [
        [
          13,
          38
        ],
        [
          13.1,
          37
        ]
      ]
    },
    {
      "beg_time": 1586781291,
      "step_time": 308,
      "value": [
        [
          13.2,
          38
        ],
        [
          13.3,
          40
        ]
      ]
    },
    {
      "beg_time": 1586781906,
      "step_time": 308,
      "value": [
        [
          13.4,
          49
        ],
        [
          13.4,
          41
        ],
        [
          13.5,
          40
        ]
      ]
    },
    {
      "beg_time": 1586782829,
      "step_time": 308,
      "value": [
        [
          13.6,
          40
        ],
        [
          13.6,
          39
        ]
      ]
    },
    {
      "beg_time": 1586783393,
      "step_time": 308,
      "value": [
        [
          13.6,
          39
        ],
        [
          13.4,
          39
        ]
      ]
    },
    {
      "beg_time": 1586784008,
      "step_time": 308,
      "value": [
        [
          13.4,
          39
        ],
        [
          13.7,
          38
        ],
        [
          14.3,
          36
        ]
      ]
    },
    {
      "beg_time": 1586784931,
      "step_time": 308,
      "value": [
        [
          14.4,
          37
        ],
        [
          14.7,
          36
        ],
        [
          15.4,
          35
        ]
      ]
    },
    {
      "beg_time": 1586785854,
      "step_time": 308,
      "value": [
        [
          15.8,
          34
        ],
        [
          16.1,
          34
        ]
      ]
    },
    {
      "beg_time": 1586786469,
      "step_time": 257,
      "value": [
        [
          16.5,
          33
        ],
        [
          16.8,
          33
        ]
      ]
    },
    {
      "beg_time": 1586787033,
      "step_time": 308,
      "value": [
        [
          16.9,
          33
        ],
        [
          17.3,
          32
        ],
        [
          17.3,
          31
        ],
        [
          17.5,
          30
        ],
        [
          17.1,
          31
        ]
      ]
    },
    {
      "beg_time": 1586788571,
      "step_time": 308,
      "value": [
        [
          17.4,
          31
        ],
        [
          17.5,
          31
        ],
        [
          17.8,
          30
        ]
      ]
    },
    {
      "beg_time": 1586789494,
      "step_time": 308,
      "value": [
        [
          17.8,
          30
        ],
        [
          18.1,
          29
        ]
      ]
    },
    {
      "beg_time": 1586790058,
      "step_time": 308,
      "value": [
        [
          18.5,
          29
        ],
        [
          18.4,
          29
        ],
        [
          18.5,
          29
        ],
        [
          18.7,
          28
        ],
        [
          18.5,
          28
        ]
      ]
    },
    {
      "beg_time": 1586791596,
      "step_time": 308,
      "value": [
        [
          18.5,
          29
        ],
        [
          17.5,
          30
        ]
      ]
    },
    {
      "beg_time": 1586792213,
      "step_time": 307,
      "value": [
        [
          16.5,
          32
        ],
        [
          15.6,
          33
        ],
        [
          14.9,
          34
        ]
      ]
    },
    {
      "beg_time": 1586793083,
      "step_time": 308,
      "value": [
        [
          14.6,
          35
        ],
        [
          14.2,
          36
        ]
      ]
    },
    {
      "beg_time": 1586793698,
      "step_time": 308,
      "value": [
        [
          13.9,
          37
        ],
        [
          13.5,
          37
        ],
        [
          13.1,
          37
        ]
      ]
    },
    {
      "beg_time": 1586794621,
      "step_time": 308,
      "value": [
        [
          12.8,
          38
        ],
        [
          12.5,
          39
        ]
      ]
    },
    {
      "beg_time": 1586795238,
      "step_time": 307,
      "value": [
        [
          12.3,
          38
        ],
        [
          12.1,
          39
        ]
      ]
    },
    {
      "beg_time": 1586795853,
      "step_time": 307,
      "value": [
        [
          12,
          39
        ],
        [
          11.7,
          40
        ]
      ]
    },
    {
      "beg_time": 1586796417,
      "step_time": 307,
      "value": [
        [
          11.6,
          40
        ],
        [
          11.5,
          40
        ],
        [
          11.4,
          41
        ]
      ]
    },
    {
      "beg_time": 1586797339,
      "step_time": 307,
      "value": [
        [
          11.2,
          41
        ],
        [
          11.1,
          42
        ]
      ]
    },
    {
      "beg_time": 1586797954,
      "step_time": 307,
      "value": [
        [
          11,
          41
        ],
        [
          10.9,
          41
        ]
      ]
    },
    {
      "beg_time": 1586798569,
      "step_time": 308,
      "value": [
        [
          10.8,
          42
        ],
        [
          10.7,
          42
        ]
      ]
    },
    {
      "beg_time": 1586799184,
      "step_time": 309,
      "value": [
        [
          10.6,
          42
        ],
        [
          10.5,
          42
        ]
      ]
    },
    {
      "beg_time": 1586799749,
      "step_time": 307,
      "value": [
        [
          10.4,
          42
        ],
        [
          10.3,
          42
        ],
        [
          10.2,
          44
        ]
      ]
    },
    {
      "beg_time": 1586800671,
      "step_time": 308,
      "value": [
        [
          10.1,
          44
        ],
        [
          10,
          44
        ],
        [
          9.9,
          44
        ],
        [
          9.8,
          45
        ]
      ]
    },
    {
      "beg_time": 1586801902,
      "step_time": 307,
      "value": [
        [
          9.7,
          45
        ],
        [
          9.6,
          45
        ]
      ]
    },
    {
      "beg_time": 1586802517,
      "step_time": 307,
      "value": [
        [
          9.6,
          45
        ],
        [
          9.5,
          46
        ]
      ]
    },
    {
      "beg_time": 1586803081,
      "step_time": 307,
      "value": [
        [
          9.4,
          45
        ],
        [
          9.3,
          45
        ]
      ]
    },
    {
      "beg_time": 1586803697,
      "step_time": 308,
      "value": [
        [
          9.2,
          45
        ],
        [
          9.1,
          46
        ]
      ]
    },
    {
      "beg_time": 1586804311,
      "step_time": 308,
      "value": [
        [
          9.1,
          46
        ],
        [
          9,
          46
        ],
        [
          9,
          46
        ],
        [
          8.9,
          46
        ]
      ]
    },
    {
      "beg_time": 1586805542,
      "step_time": 307,
      "value": [
        [
          8.8,
          47
        ],
        [
          8.7,
          46
        ]
      ]
    },
    {
      "beg_time": 1586806158,
      "step_time": 308,
      "value": [
        [
          8.7,
          47
        ],
        [
          8.6,
          47
        ]
      ]
    },
    {
      "beg_time": 1586806722,
      "step_time": 308,
      "value": [
        [
          8.6,
          48
        ],
        [
          8.5,
          48
        ]
      ]
    },
    {
      "beg_time": 1586807336,
      "step_time": 308,
      "value": [
        [
          8.5,
          49
        ],
        [
          8.4,
          49
        ],
        [
          8.4,
          48
        ],
        [
          8.3,
          49
        ]
      ]
    },
    {
      "beg_time": 1586808567,
      "step_time": 307,
      "value": [
        [
          8.2,
          49
        ],
        [
          8.1,
          49
        ]
      ]
    },
    {
      "beg_time": 1586809183,
      "step_time": 307,
      "value": [
        [
          8,
          48
        ],
        [
          7.9,
          48
        ]
      ]
    },
    {
      "beg_time": 1586809747,
      "step_time": 307,
      "value": [
        [
          7.8,
          49
        ],
        [
          7.7,
          49
        ],
        [
          7.7,
          50
        ]
      ]
    },
    {
      "beg_time": 1586810669,
      "step_time": 307,
      "value": [
        [
          7.6,
          50
        ],
        [
          7.5,
          50
        ]
      ]
    },
    {
      "beg_time": 1586811284,
      "step_time": 308,
      "value": [
        [
          7.5,
          51
        ],
        [
          7.5,
          50
        ]
      ]
    },
    {
      "beg_time": 1586811899,
      "step_time": 309,
      "value": [
        [
          7.5,
          50
        ],
        [
          7.5,
          51
        ]
      ]
    },
    {
      "beg_time": 1586812515,
      "step_time": 308,
      "value": [
        [
          7.5,
          50
        ],
        [
          7.5,
          50
        ]
      ]
    },
    {
      "beg_time": 1586813079,
      "step_time": 307,
      "value": [
        [
          7.5,
          51
        ],
        [
          7.5,
          51
        ]
      ]
    },
    {
      "beg_time": 1586813694,
      "step_time": 308,
      "value": [
        [
          7.5,
          51
        ],
        [
          7.5,
          51
        ],
        [
          7.5,
          51
        ]
      ]
    },
    {
      "beg_time": 1586814617,
      "step_time": 308,
      "value": [
        [
          7.5,
          51
        ],
        [
          7.4,
          51
        ],
        [
          7.4,
          51
        ]
      ]
    },
    {
      "beg_time": 1586815540,
      "step_time": 308,
      "value": [
        [
          7.5,
          52
        ],
        [
          7.5,
          51
        ]
      ]
    },
    {
      "beg_time": 1586816155,
      "step_time": 256,
      "value": [
        [
          7.5,
          51
        ],
        [
          7.5,
          51
        ]
      ]
    },
    {
      "beg_time": 1586816718,
      "step_time": 308,
      "value": [
        [
          7.4,
          51
        ],
        [
          7.5,
          51
        ],
        [
          7.4,
          50
        ],
        [
          7.3,
          51
        ],
        [
          7.3,
          50
        ],
        [
          7.3,
          51
        ]
      ]
    },
    {
      "beg_time": 1586818565,
      "step_time": 308,
      "value": [
        [
          7.3,
          51
        ],
        [
          7.3,
          51
        ]
      ]
    },
    {
      "beg_time": 1586819180,
      "step_time": 307,
      "value": [
        [
          7.2,
          51
        ],
        [
          7.2,
          51
        ]
      ]
    },
    {
      "beg_time": 1586819743,
      "step_time": 309,
      "value": [
        [
          7.1,
          51
        ],
        [
          7.1,
          51
        ]
      ]
    },
    {
      "beg_time": 1586820360,
      "step_time": 307,
      "value": [
        [
          7.1,
          51
        ],
        [
          7,
          51
        ]
      ]
    },
    {
      "beg_time": 1586820975,
      "step_time": 307,
      "value": [
        [
          6.9,
          51
        ],
        [
          6.8,
          51
        ]
      ]
    },
    {
      "beg_time": 1586821590,
      "step_time": 307,
      "value": [
        [
          6.7,
          51
        ],
        [
          6.7,
          51
        ],
        [
          6.6,
          51
        ]
      ]
    },
    {
      "beg_time": 1586822512,
      "step_time": 308,
      "value": [
        [
          6.6,
          51
        ],
        [
          6.5,
          52
        ]
      ]
    },
    {
      "beg_time": 1586823076,
      "step_time": 307,
      "value": [
        [
          6.5,
          52
        ],
        [
          6.5,
          52
        ]
      ]
    },
    {
      "beg_time": 1586823692,
      "step_time": 308,
      "value": [
        [
          6.4,
          52
        ],
        [
          6.4,
          52
        ]
      ]
    },
    {
      "beg_time": 1586824307,
      "step_time": 308,
      "value": [
        [
          6.4,
          53
        ],
        [
          6.3,
          53
        ]
      ]
    },
    {
      "beg_time": 1586824922,
      "step_time": 307,
      "value": [
        [
          6.4,
          53
        ],
        [
          6.4,
          53
        ]
      ]
    },
    {
      "beg_time": 1586825538,
      "step_time": 307,
      "value": [
        [
          6.4,
          54
        ],
        [
          6.4,
          53
        ],
        [
          6.5,
          54
        ]
      ]
    },
    {
      "beg_time": 1586826408,
      "step_time": 309,
      "value": [
        [
          6.5,
          54
        ],
        [
          6.6,
          54
        ]
      ]
    },
    {
      "beg_time": 1586827025,
      "step_time": 307,
      "value": [
        [
          6.6,
          53
        ],
        [
          6.6,
          53
        ]
      ]
    },
    {
      "beg_time": 1586827640,
      "step_time": 307,
      "value": [
        [
          6.6,
          53
        ],
        [
          6.6,
          53
        ]
      ]
    },
    {
      "beg_time": 1586828255,
      "step_time": 308,
      "value": [
        [
          6.6,
          53
        ],
        [
          6.7,
          53
        ]
      ]
    },
    {
      "beg_time": 1586828870,
      "step_time": 308,
      "value": [
        [
          6.7,
          53
        ],
        [
          6.7,
          53
        ]
      ]
    },
    {
      "beg_time": 1586829434,
      "step_time": 308,
      "value": [
        [
          6.7,
          53
        ],
        [
          6.7,
          54
        ],
        [
          6.6,
          53
        ]
      ]
    },
    {
      "beg_time": 1586830357,
      "step_time": 308,
      "value": [
        [
          6.6,
          54
        ],
        [
          6.6,
          54
        ]
      ]
    },
    {
      "beg_time": 1586830971,
      "step_time": 308,
      "value": [
        [
          6.6,
          54
        ],
        [
          6.6,
          54
        ]
      ]
    },
    {
      "beg_time": 1586831383,
      "step_time": 307,
      "value": [
        [
          6.6,
          54
        ],
        [
          6.7,
          53
        ]
      ]
    },
    {
      "beg_time": 1586831998,
      "step_time": 307,
      "value": [
        [
          6.6,
          53
        ],
        [
          6.6,
          53
        ]
      ]
    },
    {
      "beg_time": 1586832562,
      "step_time": 306,
      "value": [
        [
          6.6,
          53
        ],
        [
          6.6,
          53
        ]
      ]
    },
    {
      "beg_time": 1586833176,
      "step_time": 309,
      "value": [
        [
          6.6,
          53
        ],
        [
          6.6,
          53
        ]
      ]
    },
    {
      "beg_time": 1586833792,
      "step_time": 308,
      "value": [
        [
          6.6,
          53
        ],
        [
          6.6,
          53
        ]
      ]
    },
    {
      "beg_time": 1586834407,
      "step_time": 307,
      "value": [
        [
          6.5,
          54
        ],
        [
          6.5,
          53
        ]
      ]
    },
    {
      "beg_time": 1586835022,
      "step_time": 308,
      "value": [
        [
          6.5,
          53
        ],
        [
          6.4,
          53
        ],
        [
          6.3,
          53
        ]
      ]
    },
    {
      "beg_time": 1586835894,
      "step_time": 308,
      "value": [
        [
          6.3,
          53
        ],
        [
          6.3,
          53
        ]
      ]
    },
    {
      "beg_time": 1586836509,
      "step_time": 308,
      "value": [
        [
          6.2,
          53
        ],
        [
          6.2,
          54
        ],
        [
          6.1,
          54
        ]
      ]
    },
    {
      "beg_time": 1586837432,
      "step_time": 308,
      "value": [
        [
          6.1,
          55
        ],
        [
          6,
          55
        ],
        [
          6,
          55
        ]
      ]
    },
    {
      "beg_time": 1586838355,
      "step_time": 308,
      "value": [
        [
          6,
          55
        ],
        [
          6,
          55
        ]
      ]
    },
    {
      "beg_time": 1586838970,
      "step_time": 257,
      "value": [
        [
          5.9,
          56
        ],
        [
          5.9,
          55
        ]
      ]
    },
    {
      "beg_time": 1586839534,
      "step_time": 308,
      "value": [
        [
          5.9,
          55
        ],
        [
          5.8,
          56
        ]
      ]
    },
    {
      "beg_time": 1586840149,
      "step_time": 307,
      "value": [
        [
          5.8,
          56
        ],
        [
          5.8,
          56
        ]
      ]
    },
    {
      "beg_time": 1586840765,
      "step_time": 307,
      "value": [
        [
          5.8,
          56
        ],
        [
          5.8,
          56
        ]
      ]
    },
    {
      "beg_time": 1586841380,
      "step_time": 308,
      "value": [
        [
          5.7,
          56
        ],
        [
          5.7,
          55
        ]
      ]
    },
    {
      "beg_time": 1586841995,
      "step_time": 308,
      "value": [
        [
          5.7,
          55
        ],
        [
          5.7,
          56
        ],
        [
          5.7,
          55
        ]
      ]
    },
    {
      "beg_time": 1586842867,
      "step_time": 308,
      "value": [
        [
          5.6,
          56
        ],
        [
          5.7,
          56
        ]
      ]
    },
    {
      "beg_time": 1586843482,
      "step_time": 308,
      "value": [
        [
          5.7,
          56
        ],
        [
          5.7,
          56
        ]
      ]
    },
    {
      "beg_time": 1586844097,
      "step_time": 308,
      "value": [
        [
          5.7,
          56
        ],
        [
          5.8,
          55
        ],
        [
          5.8,
          55
        ]
      ]
    },
    {
      "beg_time": 1586845020,
      "step_time": 308,
      "value": [
        [
          5.9,
          55
        ],
        [
          6,
          55
        ]
      ]
    },
    {
      "beg_time": 1586846199,
      "step_time": 308,
      "value": [
        [
          6.4,
          54
        ],
        [
          6.6,
          54
        ],
        [
          6.7,
          53
        ]
      ]
    },
    {
      "beg_time": 1586847122,
      "step_time": 308,
      "value": [
        [
          6.9,
          53
        ],
        [
          7,
          52
        ],
        [
          7.2,
          52
        ]
      ]
    },
    {
      "beg_time": 1586848045,
      "step_time": 308,
      "value": [
        [
          7.3,
          52
        ],
        [
          7.5,
          51
        ]
      ]
    },
    {
      "beg_time": 1586848660,
      "step_time": 308,
      "value": [
        [
          7.6,
          50
        ],
        [
          7.8,
          51
        ],
        [
          7.9,
          49
        ]
      ]
    },
    {
      "beg_time": 1586849532,
      "step_time": 308,
      "value": [
        [
          7.9,
          50
        ],
        [
          8.1,
          49
        ]
      ]
    },
    {
      "beg_time": 1586850147,
      "step_time": 308,
      "value": [
        [
          8.1,
          49
        ],
        [
          8.1,
          49
        ]
      ]
    },
    {
      "beg_time": 1586850762,
      "step_time": 308,
      "value": [
        [
          8.2,
          49
        ],
        [
          8.3,
          49
        ],
        [
          8.3,
          49
        ]
      ]
    },
    {
      "beg_time": 1586851685,
      "step_time": 308,
      "value": [
        [
          8.3,
          49
        ],
        [
          8.5,
          49
        ],
        [
          8.5,
          48
        ]
      ]
    },
    {
      "beg_time": 1586852557,
      "step_time": 307,
      "value": [
        [
          8.6,
          48
        ],
        [
          8.6,
          48
        ]
      ]
    },
    {
      "beg_time": 1586853172,
      "step_time": 308,
      "value": [
        [
          8.5,
          48
        ],
        [
          8.4,
          49
        ]
      ]
    },
    {
      "beg_time": 1586853787,
      "step_time": 308,
      "value": [
        [
          8.4,
          49
        ],
        [
          8.4,
          49
        ],
        [
          8.4,
          50
        ]
      ]
    },
    {
      "beg_time": 1586854710,
      "step_time": 308,
      "value": [
        [
          8.5,
          50
        ],
        [
          8.7,
          50
        ]
      ]
    },
    {
      "beg_time": 1586855325,
      "step_time": 308,
      "value": [
        [
          8.8,
          50
        ],
        [
          9.1,
          49
        ]
      ]
    },
    {
      "beg_time": 1586855889,
      "step_time": 340,
      "value": [
        [
          9.4,
          48
        ],
        [
          9.5,
          46
        ]
      ]
    },
    {
      "beg_time": 1586856537,
      "step_time": 307,
      "value": [
        [
          9.3,
          47
        ],
        [
          9.3,
          47
        ]
      ]
    },
    {
      "beg_time": 1586857101,
      "step_time": 307,
      "value": [
        [
          9.3,
          48
        ],
        [
          9.4,
          47
        ]
      ]
    },
    {
      "beg_time": 1586857717,
      "step_time": 307,
      "value": [
        [
          9.4,
          48
        ],
        [
          9.6,
          47
        ],
        [
          9.8,
          47
        ]
      ]
    },
    {
      "beg_time": 1586858639,
      "step_time": 307,
      "value": [
        [
          9.9,
          46
        ],
        [
          9.7,
          46
        ]
      ]
    },
    {
      "beg_time": 1586859254,
      "step_time": 308,
      "value": [
        [
          9.7,
          47
        ],
        [
          9.8,
          47
        ]
      ]
    },
    {
      "beg_time": 1586859869,
      "step_time": 308,
      "value": [
        [
          10,
          46
        ],
        [
          10.3,
          47
        ]
      ]
    },
    {
      "beg_time": 1586860433,
      "step_time": 308,
      "value": [
        [
          10.4,
          45
        ],
        [
          10.6,
          46
        ]
      ]
    },
    {
      "beg_time": 1586861048,
      "step_time": 309,
      "value": [
        [
          10.8,
          45
        ],
        [
          10.9,
          44
        ]
      ]
    },
    {
      "beg_time": 1586861665,
      "step_time": 306,
      "value": [
        [
          11.2,
          43
        ],
        [
          11.3,
          43
        ]
      ]
    },
    {
      "beg_time": 1586862279,
      "step_time": 307,
      "value": [
        [
          11.6,
          43
        ],
        [
          11.8,
          42
        ]
      ]
    },
    {
      "beg_time": 1586862894,
      "step_time": 308,
      "value": [
        [
          11.8,
          41
        ],
        [
          11.9,
          41
        ]
      ]
    },
    {
      "beg_time": 1586863509,
      "step_time": 309,
      "value": [
        [
          11.9,
          41
        ],
        [
          12.1,
          41
        ]
      ]
    },
    {
      "beg_time": 1586864074,
      "step_time": 307,
      "value": [
        [
          12.2,
          40
        ],
        [
          12.3,
          40
        ]
      ]
    },
    {
      "beg_time": 1586864689,
      "step_time": 307,
      "value": [
        [
          12.2,
          40
        ],
        [
          12.2,
          40
        ]
      ]
    },
    {
      "beg_time": 1586865304,
      "step_time": 307,
      "value": [
        [
          12.3,
          41
        ],
        [
          12.6,
          39
        ]
      ]
    },
    {
      "beg_time": 1586865919,
      "step_time": 308,
      "value": [
        [
          12.6,
          39
        ],
        [
          12.7,
          40
        ]
      ]
    },
    {
      "beg_time": 1586866534,
      "step_time": 308,
      "value": [
        [
          12.8,
          39
        ],
        [
          12.9,
          39
        ]
      ]
    },
    {
      "beg_time": 1586867098,
      "step_time": 308,
      "value": [
        [
          13,
          38
        ],
        [
          13.2,
          39
        ]
      ]
    },
    {
      "beg_time": 1586867713,
      "step_time": 309,
      "value": [
        [
          13.4,
          39
        ],
        [
          13.6,
          39
        ]
      ]
    },
    {
      "beg_time": 1586868330,
      "step_time": 306,
      "value": [
        [
          13.7,
          38
        ],
        [
          14,
          39
        ]
      ]
    },
    {
      "beg_time": 1586868944,
      "step_time": 308,
      "value": [
        [
          14.4,
          37
        ],
        [
          14.3,
          37
        ]
      ]
    },
    {
      "beg_time": 1586869559,
      "step_time": 308,
      "value": [
        [
          14.4,
          36
        ],
        [
          14.3,
          37
        ]
      ]
    },
    {
      "beg_time": 1586870174,
      "step_time": 257,
      "value": [
        [
          14.4,
          37
        ],
        [
          14.7,
          37
        ]
      ]
    },
    {
      "beg_time": 1586870738,
      "step_time": 308,
      "value": [
        [
          15.2,
          37
        ],
        [
          15.7,
          35
        ],
        [
          16.1,
          34
        ],
        [
          16.6,
          34
        ],
        [
          17.1,
          33
        ]
      ]
    },
    {
      "beg_time": 1586872277,
      "step_time": 308,
      "value": [
        [
          17.6,
          32
        ],
        [
          18,
          32
        ],
        [
          18.4,
          30
        ]
      ]
    },
    {
      "beg_time": 1586873200,
      "step_time": 256,
      "value": [
        [
          18.5,
          30
        ],
        [
          18.7,
          30
        ]
      ]
    },
    {
      "beg_time": 1586873763,
      "step_time": 308,
      "value": [
        [
          19.2,
          29
        ],
        [
          19.7,
          29
        ]
      ]
    },
    {
      "beg_time": 1586874378,
      "step_time": 309,
      "value": [
        [
          20.1,
          29
        ],
        [
          20.1,
          28
        ]
      ]
    },
    {
      "beg_time": 1586874995,
      "step_time": 306,
      "value": [
        [
          20.1,
          28
        ],
        [
          20.4,
          28
        ]
      ]
    },
    {
      "beg_time": 1586875609,
      "step_time": 308,
      "value": [
        [
          20.5,
          27
        ],
        [
          20.7,
          27
        ]
      ]
    },
    {
      "beg_time": 1586876224,
      "step_time": 308,
      "value": [
        [
          20.8,
          27
        ],
        [
          21.1,
          28
        ]
      ]
    },
    {
      "beg_time": 1586876788,
      "step_time": 308,
      "value": [
        [
          21.4,
          27
        ],
        [
          21.4,
          27
        ]
      ]
    },
    {
      "beg_time": 1586877403,
      "step_time": 309,
      "value": [
        [
          21.2,
          27
        ],
        [
          21.6,
          27
        ]
      ]
    },
    {
      "beg_time": 1586878020,
      "step_time": 306,
      "value": [
        [
          20.7,
          26
        ],
        [
          19.3,
          28
        ]
      ]
    },
    {
      "beg_time": 1586878634,
      "step_time": 307,
      "value": [
        [
          18.2,
          30
        ],
        [
          17.5,
          32
        ]
      ]
    },
    {
      "beg_time": 1586879249,
      "step_time": 308,
      "value": [
        [
          16.9,
          34
        ],
        [
          16.2,
          35
        ]
      ]
    },
    {
      "beg_time": 1586879864,
      "step_time": 257,
      "value": [
        [
          15.5,
          36
        ],
        [
          15.1,
          36
        ]
      ]
    },
    {
      "beg_time": 1586880428,
      "value": [
        [
          14.7,
          38
        ]
      ]
    }
  ],
  "status": "ok",
  "time_exec": 0.23589706420898438,
  "time_server": 1682693333
}
