{
  "body": [
    {
      "beg_time": 1586259717,
      "step_time": 103,
      "value": [
        [
          21.3,
          36
        ],
        [
          21.3,
          35
        ]
      ]
    },
    {
      "beg_time": 1586259961,
      "step_time": 51,
      "value": [
        [
          21.3,
          35
        ],
        [
          21.3,
          36
        ]
      ]
    },
    {
      "beg_time": 1586260733,
      "step_time": 256,
      "value": [
        [
          20.3,
          37
        ],
        [
          19.8,
          37
        ]
      ]
    },
    {
      "beg_time": 1586261459,
      "step_time": 206,
      "value": [
        [
          19.9,
          37
        ],
        [
          20,
          38
        ]
      ]
    },
    {
      "beg_time": 1586261971,
      "step_time": 309,
      "value": [
        [
          19.7,
          38
        ],
        [
          19.6,
          39
        ]
      ]
    },
    {
      "beg_time": 1586262587,
      "step_time": 308,
      "value": [
        [
          19.8,
          39
        ],
        [
          20,
          38
        ]
      ]
    },
    {
      "beg_time": 1586263151,
      "step_time": 307,
      "value": [
        [
          20.1,
          37
        ],
        [
          20,
          39
        ]
      ]
    },
    {
      "beg_time": 1586263766,
      "step_time": 308,
      "value": [
        [
          20.1,
          38
        ],
        [
          20.1,
          38
        ],
        [
          20,
          38
        ]
      ]
    },
    {
      "beg_time": 1586264689,
      "step_time": 307,
      "value": [
        [
          20.1,
          37
        ],
        [
          20.2,
          37
        ]
      ]
    },
    {
      "beg_time": 1586265305,
      "step_time": 307,
      "value": [
        [
          20.3,
          36
        ],
        [
          20.4,
          36
        ],
        [
          20.8,
          34
        ]
      ]
    },
    {
      "beg_time": 1586266228,
      "step_time": 255,
      "value": [
        [
          21.2,
          34
        ],
        [
          21.6,
          32
        ]
      ]
    },
    {
      "beg_time": 1586266804,
      "step_time": 307,
      "value": [
        [
          22.2,
          31
        ],
        [
          22.3,
          32
        ]
      ]
    },
    {
      "beg_time": 1586267419,
      "step_time": 307,
      "value": [
        [
          22.5,
          31
        ],
        [
          22.6,
          31
        ]
      ]
    },
    {
      "beg_time": 1586268034,
      "step_time": 309,
      "value": [
        [
          22.4,
          31
        ],
        [
          22.8,
          31
        ]
      ]
    },
    {
      "beg_time": 1586268598,
      "step_time": 308,
      "value": [
        [
          23,
          30
        ],
        [
          23.4,
          30
        ]
      ]
    },
    {
      "beg_time": 1586269123,
      "step_time": 207,
      "value": [
        [
          23.5,
          30
        ],
        [
          23.6,
          30
        ]
      ]
    },
    {
      "beg_time": 1586269636,
      "step_time": 309,
      "value": [
        [
          24.1,
          30
        ],
        [
          24.2,
          31
        ]
      ]
    },
    {
      "beg_time": 1586270252,
      "step_time": 307,
      "value": [
        [
          24.6,
          31
        ],
        [
          25,
          31
        ]
      ]
    },
    {
      "beg_time": 1586270868,
      "step_time": 306,
      "value": [
        [
          25.4,
          31
        ],
        [
          25.5,
          31
        ]
      ]
    },
    {
      "beg_time": 1586271482,
      "step_time": 308,
      "value": [
        [
          25.6,
          31
        ],
        [
          24.7,
          32
        ],
        [
          23.8,
          34
        ],
        [
          23.4,
          35
        ]
      ]
    },
    {
      "beg_time": 1586272661,
      "step_time": 308,
      "value": [
        [
          23.3,
          34
        ],
        [
          23.6,
          34
        ],
        [
          23.6,
          34
        ],
        [
          23,
          35
        ]
      ]
    },
    {
      "beg_time": 1586273892,
      "step_time": 308,
      "value": [
        [
          22.5,
          35
        ],
        [
          22,
          35
        ],
        [
          21.5,
          36
        ]
      ]
    },
    {
      "beg_time": 1586274814,
      "step_time": 308,
      "value": [
        [
          21.2,
          36
        ],
        [
          20.9,
          37
        ],
        [
          20.6,
          37
        ]
      ]
    },
    {
      "beg_time": 1586275686,
      "step_time": 308,
      "value": [
        [
          20.3,
          37
        ],
        [
          20,
          37
        ],
        [
          19.8,
          38
        ],
        [
          19.7,
          38
        ]
      ]
    },
    {
      "beg_time": 1586276917,
      "step_time": 308,
      "value": [
        [
          19.5,
          38
        ],
        [
          19.3,
          38
        ],
        [
          19.2,
          38
        ]
      ]
    },
    {
      "beg_time": 1586277840,
      "step_time": 308,
      "value": [
        [
          19.1,
          38
        ],
        [
          18.9,
          38
        ]
      ]
    },
    {
      "beg_time": 1586278455,
      "step_time": 307,
      "value": [
        [
          18.8,
          38
        ],
        [
          18.7,
          38
        ]
      ]
    },
    {
      "beg_time": 1586279018,
      "step_time": 309,
      "value": [
        [
          18.7,
          38
        ],
        [
          18.5,
          38
        ]
      ]
    },
    {
      "beg_time": 1586279635,
      "step_time": 306,
      "value": [
        [
          18.4,
          37
        ],
        [
          18.4,
          37
        ]
      ]
    },
    {
      "beg_time": 1586280249,
      "step_time": 309,
      "value": [
        [
          18.3,
          36
        ],
        [
          18.1,
          36
        ]
      ]
    },
    {
      "beg_time": 1586280865,
      "step_time": 308,
      "value": [
        [
          18,
          36
        ],
        [
          18,
          36
        ]
      ]
    },
    {
      "beg_time": 1586281480,
      "step_time": 307,
      "value": [
        [
          17.9,
          36
        ],
        [
          17.7,
          36
        ]
      ]
    },
    {
      "beg_time": 1586282095,
      "step_time": 257,
      "value": [
        [
          17.6,
          36
        ],
        [
          17.5,
          35
        ]
      ]
    },
    {
      "beg_time": 1586282660,
      "step_time": 306,
      "value": [
        [
          17.4,
          37
        ],
        [
          17.3,
          38
        ]
      ]
    },
    {
      "beg_time": 1586283274,
      "step_time": 307,
      "value": [
        [
          17.2,
          39
        ],
        [
          17,
          40
        ]
      ]
    },
    {
      "beg_time": 1586283889,
      "step_time": 206,
      "value": [
        [
          16.9,
          40
        ],
        [
          16.9,
          41
        ]
      ]
    },
    {
      "beg_time": 1586284403,
      "step_time": 307,
      "value": [
        [
          16.7,
          42
        ],
        [
          16.6,
          42
        ],
        [
          16.5,
          43
        ]
      ]
    },
    {
      "beg_time": 1586285325,
      "step_time": 308,
      "value": [
        [
          16.4,
          44
        ],
        [
          16.3,
          46
        ],
        [
          16.1,
          47
        ]
      ]
    },
    {
      "beg_time": 1586286197,
      "step_time": 307,
      "value": [
        [
          16,
          48
        ],
        [
          15.9,
          49
        ]
      ]
    },
    {
      "beg_time": 1586286658,
      "step_time": 308,
      "value": [
        [
          15.9,
          49
        ],
        [
          15.7,
          50
        ],
        [
          15.6,
          51
        ]
      ]
    },
    {
      "beg_time": 1586287581,
      "step_time": 308,
      "value": [
        [
          15.5,
          51
        ],
        [
          15.4,
          53
        ]
      ]
    },
    {
      "beg_time": 1586288196,
      "step_time": 256,
      "value": [
        [
          15.4,
          54
        ],
        [
          15.3,
          54
        ]
      ]
    },
    {
      "beg_time": 1586288761,
      "step_time": 102,
      "value": [
        [
          15.2,
          54
        ],
        [
          15.2,
          54
        ]
      ]
    },
    {
      "beg_time": 1586289171,
      "step_time": 307,
      "value": [
        [
          15.1,
          55
        ],
        [
          15,
          56
        ]
      ]
    },
    {
      "beg_time": 1586289786,
      "step_time": 308,
      "value": [
        [
          14.9,
          57
        ],
        [
          14.8,
          57
        ]
      ]
    },
    {
      "beg_time": 1586290401,
      "step_time": 205,
      "value": [
        [
          14.7,
          58
        ],
        [
          14.6,
          58
        ]
      ]
    },
    {
      "beg_time": 1586290914,
      "step_time": 308,
      "value": [
        [
          14.5,
          58
        ],
        [
          14.4,
          59
        ]
      ]
    },
    {
      "beg_time": 1586291324,
      "step_time": 307,
      "value": [
        [
          14.4,
          58
        ],
        [
          14.3,
          59
        ],
        [
          14.3,
          60
        ]
      ]
    },
    {
      "beg_time": 1586292247,
      "step_time": 308,
      "value": [
        [
          14.2,
          60
        ],
        [
          14.1,
          60
        ]
      ]
    },
    {
      "beg_time": 1586292862,
      "step_time": 257,
      "value": [
        [
          14,
          61
        ],
        [
          14,
          61
        ]
      ]
    },
    {
      "beg_time": 1586293426,
      "step_time": 308,
      "value": [
        [
          13.9,
          61
        ],
        [
          13.8,
          62
        ]
      ]
    },
    {
      "beg_time": 1586294041,
      "step_time": 308,
      "value": [
        [
          13.7,
          62
        ],
        [
          13.6,
          62
        ],
        [
          13.6,
          62
        ]
      ]
    },
    {
      "beg_time": 1586294964,
      "step_time": 308,
      "value": [
        [
          13.5,
          63
        ],
        [
          13.5,
          63
        ],
        [
          13.4,
          63
        ]
      ]
    },
    {
      "beg_time": 1586295887,
      "step_time": 308,
      "value": [
        [
          13.4,
          63
        ],
        [
          13.3,
          63
        ]
      ]
    },
    {
      "beg_time": 1586296451,
      "step_time": 308,
      "value": [
        [
          13.3,
          63
        ],
        [
          13.2,
          63
        ]
      ]
    },
    {
      "beg_time": 1586297066,
      "step_time": 308,
      "value": [
        [
          13.2,
          63
        ],
        [
          13.1,
          64
        ],
        [
          13.1,
          64
        ]
      ]
    },
    {
      "beg_time": 1586297989,
      "step_time": 308,
      "value": [
        [
          13,
          64
        ],
        [
          13,
          64
        ]
      ]
    },
    {
      "beg_time": 1586298604,
      "step_time": 308,
      "value": [
        [
          12.9,
          64
        ],
        [
          12.9,
          64
        ],
        [
          12.9,
          64
        ]
      ]
    },
    {
      "beg_time": 1586299527,
      "step_time": 257,
      "value": [
        [
          12.8,
          64
        ],
        [
          12.8,
          64
        ]
      ]
    },
    {
      "beg_time": 1586300091,
      "step_time": 308,
      "value": [
        [
          12.8,
          64
        ],
        [
          12.8,
          64
        ]
      ]
    },
    {
      "beg_time": 1586300706,
      "step_time": 308,
      "value": [
        [
          12.7,
          64
        ],
        [
          12.7,
          64
        ],
        [
          12.7,
          64
        ]
      ]
    },
    {
      "beg_time": 1586301629,
      "step_time": 308,
      "value": [
        [
          12.6,
          63
        ],
        [
          12.6,
          63
        ],
        [
          12.5,
          64
        ]
      ]
    },
    {
      "beg_time": 1586302552,
      "step_time": 257,
      "value": [
        [
          12.4,
          64
        ],
        [
          12.4,
          64
        ]
      ]
    },
    {
      "beg_time": 1586303116,
      "step_time": 308,
      "value": [
        [
          12.4,
          64
        ],
        [
          12.3,
          64
        ]
      ]
    },
    {
      "beg_time": 1586303731,
      "step_time": 308,
      "value": [
        [
          12.3,
          64
        ],
        [
          12.3,
          65
        ],
        [
          12.3,
          65
        ]
      ]
    },
    {
      "beg_time": 1586304654,
      "step_time": 308,
      "value": [
        [
          12.3,
          65
        ],
        [
          12.3,
          65
        ]
      ]
    },
    {
      "beg_time": 1586305269,
      "step_time": 308,
      "value": [
        [
          12.3,
          65
        ],
        [
          12.3,
          65
        ],
        [
          12.3,
          65
        ]
      ]
    },
    {
      "beg_time": 1586306141,
      "step_time": 308,
      "value": [
        [
          12.3,
          65
        ],
        [
          12.3,
          65
        ]
      ]
    },
    {
      "beg_time": 1586306756,
      "step_time": 308,
      "value": [
        [
          12.3,
          65
        ],
        [
          12.3,
          65
        ],
        [
          12.3,
          64
        ]
      ]
    },
    {
      "beg_time": 1586307679,
      "step_time": 308,
      "value": [
        [
          12.3,
          65
        ],
        [
          12.2,
          65
        ]
      ]
    },
    {
      "beg_time": 1586308294,
      "step_time": 308,
      "value": [
        [
          12.2,
          65
        ],
        [
          12.2,
          65
        ],
        [
          12.2,
          65
        ]
      ]
    },
    {
      "beg_time": 1586309217,
      "step_time": 257,
      "value": [
        [
          12.1,
          65
        ],
        [
          12.2,
          65
        ]
      ]
    },
    {
      "beg_time": 1586309781,
      "step_time": 308,
      "value": [
        [
          12.1,
          65
        ],
        [
          12.1,
          65
        ]
      ]
    },
    {
      "beg_time": 1586310396,
      "step_time": 308,
      "value": [
        [
          12.1,
          65
        ],
        [
          12.1,
          65
        ]
      ]
    },
    {
      "beg_time": 1586311013,
      "step_time": 307,
      "value": [
        [
          12.1,
          65
        ],
        [
          12.1,
          65
        ],
        [
          12.2,
          65
        ],
        [
          12.2,
          65
        ]
      ]
    },
    {
      "beg_time": 1586312242,
      "step_time": 308,
      "value": [
        [
          12.2,
          65
        ],
        [
          12.2,
          65
        ]
      ]
    },
    {
      "beg_time": 1586312807,
      "step_time": 308,
      "value": [
        [
          12.2,
          65
        ],
        [
          12.2,
          65
        ]
      ]
    },
    {
      "beg_time": 1586313421,
      "step_time": 308,
      "value": [
        [
          12.2,
          65
        ],
        [
          12.2,
          64
        ],
        [
          12.2,
          64
        ]
      ]
    },
    {
      "beg_time": 1586314344,
      "step_time": 308,
      "value": [
        [
          12.2,
          64
        ],
        [
          12.2,
          64
        ]
      ]
    },
    {
      "beg_time": 1586314959,
      "step_time": 308,
      "value": [
        [
          12.2,
          64
        ],
        [
          12.2,
          64
        ],
        [
          12.2,
          64
        ]
      ]
    },
    {
      "beg_time": 1586315832,
      "step_time": 308,
      "value": [
        [
          12.2,
          63
        ],
        [
          12.2,
          63
        ]
      ]
    },
    {
      "beg_time": 1586316446,
      "step_time": 308,
      "value": [
        [
          12.2,
          63
        ],
        [
          12.2,
          63
        ]
      ]
    },
    {
      "beg_time": 1586317061,
      "step_time": 308,
      "value": [
        [
          12.2,
          63
        ],
        [
          12.2,
          63
        ],
        [
          12.1,
          63
        ]
      ]
    },
    {
      "beg_time": 1586317984,
      "step_time": 308,
      "value": [
        [
          12.1,
          63
        ],
        [
          12.1,
          63
        ],
        [
          12.1,
          63
        ],
        [
          12.1,
          64
        ]
      ]
    },
    {
      "beg_time": 1586319165,
      "step_time": 306,
      "value": [
        [
          12,
          64
        ],
        [
          12,
          64
        ]
      ]
    },
    {
      "beg_time": 1586319779,
      "step_time": 307,
      "value": [
        [
          12,
          64
        ],
        [
          12,
          64
        ]
      ]
    },
    {
      "beg_time": 1586320394,
      "step_time": 309,
      "value": [
        [
          11.9,
          64
        ],
        [
          11.9,
          64
        ]
      ]
    },
    {
      "beg_time": 1586321010,
      "step_time": 307,
      "value": [
        [
          11.9,
          64
        ],
        [
          11.9,
          64
        ],
        [
          11.9,
          64
        ]
      ]
    },
    {
      "beg_time": 1586321932,
      "step_time": 256,
      "value": [
        [
          11.8,
          64
        ],
        [
          11.8,
          64
        ]
      ]
    },
    {
      "beg_time": 1586322496,
      "step_time": 308,
      "value": [
        [
          11.8,
          64
        ],
        [
          11.8,
          65
        ]
      ]
    },
    {
      "beg_time": 1586323111,
      "step_time": 308,
      "value": [
        [
          11.7,
          64
        ],
        [
          11.8,
          64
        ],
        [
          11.8,
          65
        ],
        [
          11.8,
          64
        ]
      ]
    },
    {
      "beg_time": 1586324342,
      "step_time": 307,
      "value": [
        [
          11.8,
          64
        ],
        [
          11.7,
          64
        ]
      ]
    },
    {
      "beg_time": 1586324958,
      "step_time": 308,
      "value": [
        [
          11.7,
          65
        ],
        [
          11.7,
          65
        ]
      ]
    },
    {
      "beg_time": 1586325522,
      "step_time": 308,
      "value": [
        [
          11.7,
          65
        ],
        [
          11.7,
          65
        ]
      ]
    },
    {
      "beg_time": 1586326136,
      "step_time": 308,
      "value": [
        [
          11.7,
          65
        ],
        [
          11.6,
          65
        ]
      ]
    },
    {
      "beg_time": 1586326751,
      "step_time": 308,
      "value": [
        [
          11.7,
          65
        ],
        [
          11.7,
          65
        ],
        [
          11.7,
          65
        ]
      ]
    },
    {
      "beg_time": 1586327674,
      "step_time": 309,
      "value": [
        [
          11.8,
          65
        ],
        [
          11.9,
          65
        ]
      ]
    },
    {
      "beg_time": 1586328290,
      "step_time": 307,
      "value": [
        [
          11.9,
          64
        ],
        [
          12,
          64
        ]
      ]
    },
    {
      "beg_time": 1586328853,
      "step_time": 308,
      "value": [
        [
          12.1,
          64
        ],
        [
          12.2,
          64
        ],
        [
          12.3,
          64
        ]
      ]
    },
    {
      "beg_time": 1586329776,
      "step_time": 257,
      "value": [
        [
          12.5,
          63
        ],
        [
          12.6,
          63
        ]
      ]
    },
    {
      "beg_time": 1586330339,
      "step_time": 309,
      "value": [
        [
          12.7,
          62
        ],
        [
          12.8,
          62
        ]
      ]
    },
    {
      "beg_time": 1586330955,
      "step_time": 308,
      "value": [
        [
          12.9,
          62
        ],
        [
          13,
          62
        ],
        [
          13.2,
          61
        ],
        [
          13.3,
          62
        ],
        [
          13.6,
          61
        ]
      ]
    },
    {
      "beg_time": 1586332494,
      "step_time": 256,
      "value": [
        [
          13.9,
          60
        ],
        [
          14.1,
          59
        ]
      ]
    },
    {
      "beg_time": 1586333058,
      "step_time": 307,
      "value": [
        [
          14.3,
          59
        ],
        [
          14.5,
          58
        ]
      ]
    },
    {
      "beg_time": 1586333673,
      "step_time": 308,
      "value": [
        [
          14.7,
          58
        ],
        [
          15,
          56
        ],
        [
          15.2,
          56
        ]
      ]
    },
    {
      "beg_time": 1586334596,
      "step_time": 307,
      "value": [
        [
          15.5,
          55
        ],
        [
          15.8,
          54
        ]
      ]
    },
    {
      "beg_time": 1586335211,
      "step_time": 307,
      "value": [
        [
          16.1,
          53
        ],
        [
          16.4,
          52
        ]
      ]
    },
    {
      "beg_time": 1586335827,
      "step_time": 256,
      "value": [
        [
          16.6,
          52
        ],
        [
          16.9,
          52
        ]
      ]
    },
    {
      "beg_time": 1586336391,
      "step_time": 308,
      "value": [
        [
          17.2,
          51
        ],
        [
          17.4,
          50
        ]
      ]
    },
    {
      "beg_time": 1586337006,
      "step_time": 308,
      "value": [
        [
          17.5,
          49
        ],
        [
          17.6,
          50
        ],
        [
          17.9,
          49
        ]
      ]
    },
    {
      "beg_time": 1586337929,
      "step_time": 308,
      "value": [
        [
          18.2,
          49
        ],
        [
          18.5,
          48
        ]
      ]
    },
    {
      "beg_time": 1586338544,
      "step_time": 307,
      "value": [
        [
          18.8,
          47
        ],
        [
          18.9,
          47
        ]
      ]
    },
    {
      "beg_time": 1586339159,
      "step_time": 308,
      "value": [
        [
          19.2,
          46
        ],
        [
          19.4,
          46
        ]
      ]
    },
    {
      "beg_time": 1586339724,
      "step_time": 307,
      "value": [
        [
          19.5,
          45
        ],
        [
          19.5,
          45
        ]
      ]
    },
    {
      "beg_time": 1586340339,
      "step_time": 307,
      "value": [
        [
          19.4,
          44
        ],
        [
          19.4,
          44
        ]
      ]
    },
    {
      "beg_time": 1586340954,
      "step_time": 307,
      "value": [
        [
          19.3,
          45
        ],
        [
          19.3,
          45
        ],
        [
          19.3,
          45
        ]
      ]
    },
    {
      "beg_time": 1586341876,
      "step_time": 308,
      "value": [
        [
          19.3,
          46
        ],
        [
          19.3,
          46
        ],
        [
          19.5,
          46
        ],
        [
          19.5,
          46
        ]
      ]
    },
    {
      "beg_time": 1586343106,
      "step_time": 308,
      "value": [
        [
          19.5,
          46
        ],
        [
          19.6,
          46
        ],
        [
          19.8,
          47
        ]
      ]
    },
    {
      "beg_time": 1586343978,
      "step_time": 308,
      "value": [
        [
          19.9,
          47
        ],
        [
          20,
          47
        ]
      ]
    },
    {
      "beg_time": 1586344593,
      "step_time": 308,
      "value": [
        [
          20.3,
          46
        ],
        [
          20.4,
          46
        ]
      ]
    },
    {
      "beg_time": 1586345208,
      "step_time": 309,
      "value": [
        [
          20.6,
          46
        ],
        [
          20.8,
          45
        ]
      ]
    },
    {
      "beg_time": 1586345825,
      "step_time": 306,
      "value": [
        [
          21.1,
          45
        ],
        [
          21.2,
          44
        ]
      ]
    },
    {
      "beg_time": 1586346439,
      "step_time": 308,
      "value": [
        [
          21.2,
          44
        ],
        [
          21.1,
          45
        ]
      ]
    },
    {
      "beg_time": 1586347096,
      "step_time": 307,
      "value": [
        [
          21.1,
          45
        ],
        [
          21,
          45
        ]
      ]
    },
    {
      "beg_time": 1586347661,
      "step_time": 306,
      "value": [
        [
          20.9,
          44
        ],
        [
          20.9,
          45
        ]
      ]
    },
    {
      "beg_time": 1586348275,
      "step_time": 307,
      "value": [
        [
          21,
          45
        ],
        [
          20.9,
          44
        ]
      ]
    },
    {
      "beg_time": 1586348890,
      "step_time": 308,
      "value": [
        [
          20.8,
          45
        ],
        [
          20.8,
          45
        ]
      ]
    },
    {
      "beg_time": 1586349505,
      "step_time": 308,
      "value": [
        [
          20.7,
          44
        ],
        [
          20.6,
          43
        ]
      ]
    },
    {
      "beg_time": 1586350122,
      "step_time": 306,
      "value": [
        [
          20.6,
          43
        ],
        [
          20.6,
          43
        ]
      ]
    },
    {
      "beg_time": 1586350737,
      "step_time": 306,
      "value": [
        [
          20.6,
          42
        ],
        [
          20.6,
          42
        ]
      ]
    },
    {
      "beg_time": 1586351300,
      "step_time": 307,
      "value": [
        [
          20.6,
          42
        ],
        [
          20.7,
          42
        ]
      ]
    },
    {
      "beg_time": 1586351915,
      "step_time": 308,
      "value": [
        [
          20.9,
          43
        ],
        [
          21.1,
          41
        ]
      ]
    },
    {
      "beg_time": 1586352530,
      "step_time": 308,
      "value": [
        [
          21.3,
          41
        ],
        [
          21.4,
          41
        ]
      ]
    },
    {
      "beg_time": 1586353145,
      "step_time": 308,
      "value": [
        [
          21.4,
          41
        ],
        [
          21.4,
          41
        ],
        [
          21.4,
          41
        ],
        [
          21.3,
          41
        ],
        [
          21.3,
          41
        ],
        [
          21.2,
          41
        ]
      ]
    },
    {
      "beg_time": 1586354940,
      "step_time": 307,
      "value": [
        [
          21.3,
          41
        ],
        [
          21.3,
          41
        ]
      ]
    },
    {
      "beg_time": 1586355555,
      "step_time": 308,
      "value": [
        [
          21.3,
          42
        ],
        [
          21.2,
          42
        ],
        [
          21.2,
          42
        ],
        [
          21.2,
          42
        ]
      ]
    },
    {
      "beg_time": 1586356786,
      "step_time": 307,
      "value": [
        [
          21.2,
          42
        ],
        [
          21.1,
          42
        ]
      ]
    },
    {
      "beg_time": 1586357401,
      "step_time": 307,
      "value": [
        [
          21.1,
          43
        ],
        [
          21.1,
          43
        ]
      ]
    },
    {
      "beg_time": 1586357966,
      "step_time": 307,
      "value": [
        [
          21.1,
          43
        ],
        [
          21.2,
          43
        ],
        [
          21.2,
          44
        ]
      ]
    },
    {
      "beg_time": 1586358888,
      "step_time": 307,
      "value": [
        [
          21.3,
          43
        ],
        [
          21.4,
          43
        ]
      ]
    },
    {
      "beg_time": 1586359503,
      "step_time": 308,
      "value": [
        [
          21.5,
          43
        ],
        [
          21.5,
          43
        ],
        [
          21.6,
          43
        ],
        [
          21.5,
          43
        ]
      ]
    },
    {
      "beg_time": 1586360734,
      "step_time": 256,
      "value": [
        [
          21.4,
          43
        ],
        [
          21.3,
          44
        ]
      ]
    },
    {
      "beg_time": 1586361297,
      "step_time": 309,
      "value": [
        [
          21.2,
          44
        ],
        [
          21.1,
          44
        ]
      ]
    },
    {
      "beg_time": 1586361914,
      "step_time": 307,
      "value": [
        [
          21.1,
          44
        ],
        [
          21,
          44
        ]
      ]
    },
    {
      "beg_time": 1586362529,
      "step_time": 306,
      "value": [
        [
          20.9,
          44
        ],
        [
          20.8,
          44
        ]
      ]
    },
    {
      "beg_time": 1586363143,
      "step_time": 308,
      "value": [
        [
          20.7,
          45
        ],
        [
          20.7,
          45
        ]
      ]
    },
    {
      "beg_time": 1586363604,
      "step_time": 308,
      "value": [
        [
          20.6,
          45
        ],
        [
          20.6,
          45
        ],
        [
          20.5,
          45
        ]
      ]
    },
    {
      "beg_time": 1586364527,
      "step_time": 257,
      "value": [
        [
          20.4,
          45
        ],
        [
          20.3,
          45
        ]
      ]
    },
    {
      "beg_time": 1586365091,
      "step_time": 308,
      "value": [
        [
          20.2,
          46
        ],
        [
          20.1,
          46
        ],
        [
          20,
          46
        ],
        [
          19.8,
          47
        ]
      ]
    },
    {
      "beg_time": 1586366322,
      "step_time": 307,
      "value": [
        [
          19.7,
          47
        ],
        [
          19.6,
          47
        ]
      ]
    },
    {
      "beg_time": 1586366938,
      "step_time": 308,
      "value": [
        [
          19.4,
          48
        ],
        [
          19.2,
          48
        ]
      ]
    },
    {
      "beg_time": 1586367553,
      "step_time": 308,
      "value": [
        [
          19.1,
          48
        ],
        [
          18.9,
          49
        ]
      ]
    },
    {
      "beg_time": 1586368167,
      "step_time": 257,
      "value": [
        [
          18.8,
          49
        ],
        [
          18.7,
          49
        ]
      ]
    },
    {
      "beg_time": 1586368731,
      "step_time": 308,
      "value": [
        [
          18.5,
          50
        ],
        [
          18.4,
          50
        ]
      ]
    },
    {
      "beg_time": 1586369348,
      "step_time": 307,
      "value": [
        [
          18.2,
          51
        ],
        [
          18.1,
          51
        ]
      ]
    },
    {
      "beg_time": 1586369963,
      "step_time": 307,
      "value": [
        [
          18,
          51
        ],
        [
          17.9,
          51
        ]
      ]
    },
    {
      "beg_time": 1586370578,
      "step_time": 308,
      "value": [
        [
          17.8,
          51
        ],
        [
          17.7,
          52
        ]
      ]
    },
    {
      "beg_time": 1586371193,
      "step_time": 308,
      "value": [
        [
          17.5,
          52
        ],
        [
          17.4,
          52
        ],
        [
          17.3,
          53
        ]
      ]
    },
    {
      "beg_time": 1586372065,
      "step_time": 307,
      "value": [
        [
          17.2,
          53
        ],
        [
          17.1,
          53
        ],
        [
          17,
          53
        ]
      ]
    },
    {
      "beg_time": 1586372987,
      "step_time": 307,
      "value": [
        [
          16.9,
          54
        ],
        [
          16.8,
          54
        ]
      ]
    },
    {
      "beg_time": 1586373603,
      "step_time": 308,
      "value": [
        [
          16.7,
          54
        ],
        [
          16.6,
          54
        ]
      ]
    },
    {
      "beg_time": 1586374218,
      "step_time": 308,
      "value": [
        [
          16.5,
          55
        ],
        [
          16.4,
          55
        ]
      ]
    },
    {
      "beg_time": 1586374833,
      "step_time": 257,
      "value": [
        [
          16.3,
          55
        ],
        [
          16.3,
          55
        ]
      ]
    },
    {
      "beg_time": 1586375397,
      "step_time": 308,
      "value": [
        [
          16.2,
          55
        ],
        [
          16.1,
          56
        ],
        [
          16,
          56
        ]
      ]
    },
    {
      "beg_time": 1586376320,
      "step_time": 307,
      "value": [
        [
          15.9,
          56
        ],
        [
          15.8,
          56
        ]
      ]
    },
    {
      "beg_time": 1586376935,
      "step_time": 308,
      "value": [
        [
          15.8,
          57
        ],
        [
          15.7,
          57
        ],
        [
          15.6,
          57
        ]
      ]
    },
    {
      "beg_time": 1586377858,
      "step_time": 308,
      "value": [
        [
          15.5,
          57
        ],
        [
          15.5,
          57
        ]
      ]
    },
    {
      "beg_time": 1586378422,
      "step_time": 308,
      "value": [
        [
          15.4,
          58
        ],
        [
          15.3,
          58
        ],
        [
          15.2,
          58
        ]
      ]
    },
    {
      "beg_time": 1586379345,
      "step_time": 308,
      "value": [
        [
          15.1,
          58
        ],
        [
          15.1,
          58
        ]
      ]
    },
    {
      "beg_time": 1586379960,
      "step_time": 308,
      "value": [
        [
          15,
          58
        ],
        [
          14.9,
          59
        ]
      ]
    },
    {
      "beg_time": 1586380487,
      "step_time": 257,
      "value": [
        [
          14.9,
          59
        ],
        [
          14.8,
          59
        ]
      ]
    },
    {
      "beg_time": 1586381051,
      "step_time": 308,
      "value": [
        [
          14.8,
          59
        ],
        [
          14.7,
          59
        ]
      ]
    },
    {
      "beg_time": 1586381665,
      "step_time": 309,
      "value": [
        [
          14.7,
          60
        ],
        [
          14.6,
          60
        ]
      ]
    },
    {
      "beg_time": 1586382282,
      "step_time": 307,
      "value": [
        [
          14.6,
          60
        ],
        [
          14.6,
          60
        ],
        [
          14.5,
          60
        ]
      ]
    },
    {
      "beg_time": 1586383205,
      "step_time": 256,
      "value": [
        [
          14.5,
          60
        ],
        [
          14.4,
          61
        ]
      ]
    },
    {
      "beg_time": 1586383767,
      "step_time": 309,
      "value": [
        [
          14.3,
          61
        ],
        [
          14.3,
          61
        ]
      ]
    },
    {
      "beg_time": 1586384384,
      "step_time": 307,
      "value": [
        [
          14.2,
          61
        ],
        [
          14.2,
          61
        ]
      ]
    },
    {
      "beg_time": 1586384999,
      "step_time": 307,
      "value": [
        [
          14.1,
          62
        ],
        [
          14,
          62
        ]
      ]
    },
    {
      "beg_time": 1586385614,
      "step_time": 257,
      "value": [
        [
          14,
          62
        ],
        [
          14,
          62
        ]
      ]
    },
    {
      "beg_time": 1586386178,
      "step_time": 308,
      "value": [
        [
          13.9,
          62
        ],
        [
          13.9,
          63
        ]
      ]
    },
    {
      "beg_time": 1586386793,
      "step_time": 308,
      "value": [
        [
          13.8,
          63
        ],
        [
          13.8,
          63
        ],
        [
          13.7,
          63
        ]
      ]
    },
    {
      "beg_time": 1586387715,
      "step_time": 308,
      "value": [
        [
          13.7,
          63
        ],
        [
          13.6,
          64
        ],
        [
          13.6,
          64
        ],
        [
          13.5,
          64
        ],
        [
          13.5,
          64
        ]
      ]
    },
    {
      "beg_time": 1586389203,
      "step_time": 308,
      "value": [
        [
          13.4,
          65
        ],
        [
          13.4,
          65
        ]
      ]
    },
    {
      "beg_time": 1586389818,
      "step_time": 308,
      "value": [
        [
          13.4,
          65
        ],
        [
          13.3,
          65
        ],
        [
          13.3,
          66
        ]
      ]
    },
    {
      "beg_time": 1586390741,
      "step_time": 308,
      "value": [
        [
          13.2,
          66
        ],
        [
          13.2,
          66
        ]
      ]
    },
    {
      "beg_time": 1586391356,
      "step_time": 308,
      "value": [
        [
          13.2,
          67
        ],
        [
          13.1,
          67
        ],
        [
          13.1,
          66
        ]
      ]
    },
    {
      "beg_time": 1586392228,
      "step_time": 308,
      "value": [
        [
          13.1,
          66
        ],
        [
          13,
          66
        ]
      ]
    },
    {
      "beg_time": 1586392843,
      "step_time": 308,
      "value": [
        [
          13,
          67
        ],
        [
          12.9,
          67
        ]
      ]
    },
    {
      "beg_time": 1586393458,
      "step_time": 308,
      "value": [
        [
          12.9,
          67
        ],
        [
          12.8,
          67
        ],
        [
          12.7,
          67
        ]
      ]
    },
    {
      "beg_time": 1586394381,
      "step_time": 308,
      "value": [
        [
          12.7,
          68
        ],
        [
          12.7,
          68
        ],
        [
          12.6,
          68
        ]
      ]
    },
    {
      "beg_time": 1586395304,
      "step_time": 256,
      "value": [
        [
          12.6,
          68
        ],
        [
          12.6,
          68
        ]
      ]
    },
    {
      "beg_time": 1586395868,
      "step_time": 308,
      "value": [
        [
          12.5,
          69
        ],
        [
          12.5,
          69
        ]
      ]
    },
    {
      "beg_time": 1586396483,
      "step_time": 308,
      "value": [
        [
          12.4,
          69
        ],
        [
          12.4,
          69
        ],
        [
          12.4,
          69
        ]
      ]
    },
    {
      "beg_time": 1586397406,
      "step_time": 308,
      "value": [
        [
          12.3,
          69
        ],
        [
          12.3,
          69
        ]
      ]
    },
    {
      "beg_time": 1586398021,
      "step_time": 308,
      "value": [
        [
          12.2,
          69
        ],
        [
          12.2,
          69
        ],
        [
          12.1,
          70
        ]
      ]
    },
    {
      "beg_time": 1586398893,
      "step_time": 308,
      "value": [
        [
          12.1,
          70
        ],
        [
          12.1,
          70
        ]
      ]
    },
    {
      "beg_time": 1586399508,
      "step_time": 308,
      "value": [
        [
          12,
          70
        ],
        [
          12,
          70
        ]
      ]
    },
    {
      "beg_time": 1586400123,
      "step_time": 308,
      "value": [
        [
          11.9,
          70
        ],
        [
          11.9,
          70
        ],
        [
          11.8,
          71
        ]
      ]
    },
    {
      "beg_time": 1586401046,
      "step_time": 308,
      "value": [
        [
          11.8,
          71
        ],
        [
          11.8,
          70
        ],
        [
          11.7,
          70
        ]
      ]
    },
    {
      "beg_time": 1586401918,
      "step_time": 308,
      "value": [
        [
          11.7,
          70
        ],
        [
          11.6,
          70
        ]
      ]
    },
    {
      "beg_time": 1586402533,
      "step_time": 308,
      "value": [
        [
          11.6,
          71
        ],
        [
          11.6,
          71
        ]
      ]
    },
    {
      "beg_time": 1586403148,
      "step_time": 308,
      "value": [
        [
          11.5,
          71
        ],
        [
          11.5,
          71
        ],
        [
          11.5,
          71
        ]
      ]
    },
    {
      "beg_time": 1586404071,
      "step_time": 308,
      "value": [
        [
          11.4,
          71
        ],
        [
          11.4,
          71
        ]
      ]
    },
    {
      "beg_time": 1586404686,
      "step_time": 257,
      "value": [
        [
          11.4,
          71
        ],
        [
          11.3,
          72
        ]
      ]
    },
    {
      "beg_time": 1586405251,
      "step_time": 308,
      "value": [
        [
          11.3,
          72
        ],
        [
          11.3,
          72
        ]
      ]
    },
    {
      "beg_time": 1586405866,
      "step_time": 307,
      "value": [
        [
          11.2,
          72
        ],
        [
          11.2,
          72
        ]
      ]
    },
    {
      "beg_time": 1586406481,
      "step_time": 308,
      "value": [
        [
          11.2,
          72
        ],
        [
          11.2,
          72
        ]
      ]
    },
    {
      "beg_time": 1586407096,
      "step_time": 308,
      "value": [
        [
          11.2,
          73
        ],
        [
          11.2,
          73
        ]
      ]
    },
    {
      "beg_time": 1586407711,
      "step_time": 257,
      "value": [
        [
          11.2,
          73
        ],
        [
          11.2,
          73
        ]
      ]
    },
    {
      "beg_time": 1586408276,
      "step_time": 308,
      "value": [
        [
          11.3,
          73
        ],
        [
          11.3,
          73
        ]
      ]
    },
    {
      "beg_time": 1586408891,
      "step_time": 307,
      "value": [
        [
          11.3,
          72
        ],
        [
          11.2,
          72
        ]
      ]
    },
    {
      "beg_time": 1586409506,
      "step_time": 307,
      "value": [
        [
          11.2,
          73
        ],
        [
          11.2,
          73
        ]
      ]
    },
    {
      "beg_time": 1586410122,
      "step_time": 308,
      "value": [
        [
          11.1,
          73
        ],
        [
          11.1,
          73
        ]
      ]
    },
    {
      "beg_time": 1586410736,
      "step_time": 308,
      "value": [
        [
          11.1,
          73
        ],
        [
          11.1,
          73
        ]
      ]
    },
    {
      "beg_time": 1586411300,
      "step_time": 308,
      "value": [
        [
          11,
          74
        ],
        [
          11,
          74
        ]
      ]
    },
    {
      "beg_time": 1586411659,
      "step_time": 308,
      "value": [
        [
          11,
          74
        ],
        [
          11,
          74
        ]
      ]
    },
    {
      "beg_time": 1586412274,
      "step_time": 308,
      "value": [
        [
          11,
          74
        ],
        [
          11,
          74
        ]
      ]
    },
    {
      "beg_time": 1586412838,
      "step_time": 308,
      "value": [
        [
          11.1,
          75
        ],
        [
          11.1,
          74
        ],
        [
          11.2,
          74
        ]
      ]
    },
    {
      "beg_time": 1586413761,
      "step_time": 308,
      "value": [
        [
          11.3,
          74
        ],
        [
          11.4,
          74
        ]
      ]
    },
    {
      "beg_time": 1586414376,
      "step_time": 308,
      "value": [
        [
          11.5,
          74
        ],
        [
          11.6,
          73
        ],
        [
          11.7,
          73
        ]
      ]
    },
    {
      "beg_time": 1586415299,
      "step_time": 309,
      "value": [
        [
          11.8,
          73
        ],
        [
          11.9,
          73
        ]
      ]
    },
    {
      "beg_time": 1586415915,
      "step_time": 257,
      "value": [
        [
          12.1,
          72
        ],
        [
          12.2,
          72
        ]
      ]
    },
    {
      "beg_time": 1586416479,
      "step_time": 307,
      "value": [
        [
          12.4,
          71
        ],
        [
          12.5,
          71
        ]
      ]
    },
    {
      "beg_time": 1586417094,
      "step_time": 307,
      "value": [
        [
          12.6,
          70
        ],
        [
          12.8,
          70
        ]
      ]
    },
    {
      "beg_time": 1586417709,
      "step_time": 308,
      "value": [
        [
          13,
          69
        ],
        [
          13.2,
          68
        ]
      ]
    },
    {
      "beg_time": 1586418324,
      "step_time": 309,
      "value": [
        [
          13.3,
          68
        ],
        [
          13.4,
          68
        ]
      ]
    },
    {
      "beg_time": 1586418940,
      "step_time": 308,
      "value": [
        [
          13.5,
          67
        ],
        [
          13.6,
          67
        ]
      ]
    },
    {
      "beg_time": 1586419504,
      "step_time": 307,
      "value": [
        [
          13.7,
          67
        ],
        [
          14,
          67
        ]
      ]
    },
    {
      "beg_time": 1586420119,
      "step_time": 308,
      "value": [
        [
          14.2,
          65
        ],
        [
          14.4,
          65
        ],
        [
          14.6,
          64
        ]
      ]
    },
    {
      "beg_time": 1586421042,
      "step_time": 308,
      "value": [
        [
          14.8,
          64
        ],
        [
          15.1,
          62
        ]
      ]
    },
    {
      "beg_time": 1586421657,
      "step_time": 307,
      "value": [
        [
          15.3,
          61
        ],
        [
          15.5,
          61
        ]
      ]
    },
    {
      "beg_time": 1586422272,
      "step_time": 102,
      "value": [
        [
          15.7,
          60
        ],
        [
          15.8,
          60
        ]
      ]
    },
    {
      "beg_time": 1586424138,
      "step_time": 256,
      "value": [
        [
          17,
          57
        ],
        [
          17.1,
          57
        ]
      ]
    },
    {
      "beg_time": 1586424702,
      "step_time": 256,
      "value": [
        [
          17.3,
          57
        ],
        [
          17.5,
          55
        ]
      ]
    },
    {
      "beg_time": 1586425317,
      "step_time": 52,
      "value": [
        [
          17.7,
          56
        ],
        [
          17.8,
          55
        ]
      ]
    },
    {
      "beg_time": 1586425727,
      "step_time": 1686,
      "value": [
        [
          18,
          54
        ],
        [
          18.8,
          51
        ]
      ]
    },
    {
      "beg_time": 1586427720,
      "step_time": 257,
      "value": [
        [
          18.9,
          51
        ],
        [
          19.1,
          51
        ]
      ]
    },
    {
      "beg_time": 1586428336,
      "step_time": 307,
      "value": [
        [
          19.3,
          50
        ],
        [
          19.5,
          49
        ]
      ]
    },
    {
      "beg_time": 1586428951,
      "step_time": 257,
      "value": [
        [
          19.7,
          49
        ],
        [
          19.9,
          48
        ]
      ]
    },
    {
      "beg_time": 1586429566,
      "step_time": 256,
      "value": [
        [
          20.1,
          46
        ],
        [
          20.2,
          45
        ]
      ]
    },
    {
      "beg_time": 1586430130,
      "step_time": 308,
      "value": [
        [
          20.2,
          46
        ],
        [
          20.4,
          46
        ]
      ]
    },
    {
      "beg_time": 1586430745,
      "step_time": 308,
      "value": [
        [
          20.5,
          46
        ],
        [
          20.6,
          45
        ]
      ]
    },
    {
      "beg_time": 1586431360,
      "step_time": 308,
      "value": [
        [
          20.6,
          46
        ],
        [
          20.7,
          45
        ],
        [
          20.9,
          45
        ]
      ]
    },
    {
      "beg_time": 1586432283,
      "step_time": 308,
      "value": [
        [
          21.1,
          45
        ],
        [
          21.3,
          45
        ],
        [
          21.5,
          44
        ]
      ]
    },
    {
      "beg_time": 1586433206,
      "step_time": 308,
      "value": [
        [
          21.6,
          43
        ],
        [
          21.7,
          44
        ]
      ]
    },
    {
      "beg_time": 1586433821,
      "step_time": 257,
      "value": [
        [
          21.9,
          43
        ],
        [
          21.9,
          44
        ]
      ]
    },
    {
      "beg_time": 1586434385,
      "step_time": 308,
      "value": [
        [
          22,
          43
        ],
        [
          22.1,
          43
        ],
        [
          22.3,
          43
        ]
      ]
    },
    {
      "beg_time": 1586435308,
      "step_time": 308,
      "value": [
        [
          22.3,
          43
        ],
        [
          22.4,
          42
        ]
      ]
    },
    {
      "beg_time": 1586435923,
      "step_time": 308,
      "value": [
        [
          22.4,
          42
        ],
        [
          22.4,
          42
        ],
        [
          22.6,
          42
        ]
      ]
    },
    {
      "beg_time": 1586436846,
      "step_time": 308,
      "value": [
        [
          22.7,
          41
        ],
        [
          22.9,
          42
        ]
      ]
    },
    {
      "beg_time": 1586437410,
      "step_time": 308,
      "value": [
        [
          23,
          41
        ],
        [
          23.1,
          41
        ]
      ]
    },
    {
      "beg_time": 1586438025,
      "step_time": 308,
      "value": [
        [
          23.3,
          40
        ],
        [
          23.5,
          41
        ],
        [
          23.8,
          40
        ]
      ]
    },
    {
      "beg_time": 1586438948,
      "step_time": 309,
      "value": [
        [
          24,
          40
        ],
        [
          24.5,
          39
        ]
      ]
    },
    {
      "beg_time": 1586439565,
      "step_time": 306,
      "value": [
        [
          25,
          39
        ],
        [
          25.3,
          37
        ]
      ]
    },
    {
      "beg_time": 1586440179,
      "step_time": 307,
      "value": [
        [
          25.4,
          37
        ],
        [
          25.6,
          36
        ]
      ]
    },
    {
      "beg_time": 1586440743,
      "step_time": 308,
      "value": [
        [
          25.9,
          36
        ],
        [
          26,
          36
        ],
        [
          26.2,
          34
        ]
      ]
    },
    {
      "beg_time": 1586441666,
      "step_time": 307,
      "value": [
        [
          26.4,
          35
        ],
        [
          26.6,
          34
        ]
      ]
    },
    {
      "beg_time": 1586442281,
      "step_time": 307,
      "value": [
        [
          26.8,
          33
        ],
        [
          26.7,
          34
        ]
      ]
    },
    {
      "beg_time": 1586442896,
      "step_time": 308,
      "value": [
        [
          26.8,
          33
        ],
        [
          27,
          33
        ]
      ]
    },
    {
      "beg_time": 1586443511,
      "step_time": 257,
      "value": [
        [
          27.1,
          31
        ],
        [
          27.2,
          33
        ]
      ]
    },
    {
      "beg_time": 1586444076,
      "step_time": 308,
      "value": [
        [
          27.4,
          32
        ],
        [
          27.5,
          32
        ]
      ]
    },
    {
      "beg_time": 1586444691,
      "step_time": 307,
      "value": [
        [
          27.7,
          31
        ],
        [
          27.6,
          31
        ]
      ]
    },
    {
      "beg_time": 1586445306,
      "step_time": 307,
      "value": [
        [
          27.6,
          30
        ],
        [
          27.5,
          30
        ]
      ]
    },
    {
      "beg_time": 1586445921,
      "step_time": 308,
      "value": [
        [
          27.4,
          31
        ],
        [
          27.3,
          30
        ],
        [
          26.2,
          31
        ],
        [
          25.3,
          32
        ]
      ]
    },
    {
      "beg_time": 1586447151,
      "step_time": 308,
      "value": [
        [
          24.5,
          33
        ],
        [
          23.8,
          34
        ]
      ]
    },
    {
      "beg_time": 1586447715,
      "step_time": 308,
      "value": [
        [
          23.4,
          34
        ],
        [
          22.9,
          35
        ],
        [
          22.5,
          35
        ]
      ]
    },
    {
      "beg_time": 1586448638,
      "step_time": 309,
      "value": [
        [
          22.1,
          36
        ],
        [
          21.7,
          36
        ]
      ]
    },
    {
      "beg_time": 1586449255,
      "step_time": 306,
      "value": [
        [
          21.5,
          37
        ],
        [
          21.3,
          38
        ]
      ]
    },
    {
      "beg_time": 1586449869,
      "step_time": 307,
      "value": [
        [
          21,
          39
        ],
        [
          20.7,
          39
        ]
      ]
    },
    {
      "beg_time": 1586450484,
      "step_time": 308,
      "value": [
        [
          20.5,
          39
        ],
        [
          20.3,
          39
        ]
      ]
    },
    {
      "beg_time": 1586451048,
      "step_time": 308,
      "value": [
        [
          20.1,
          40
        ],
        [
          20,
          40
        ]
      ]
    },
    {
      "beg_time": 1586451663,
      "step_time": 308,
      "value": [
        [
          19.9,
          39
        ],
        [
          19.7,
          39
        ]
      ]
    },
    {
      "beg_time": 1586452278,
      "step_time": 308,
      "value": [
        [
          19.6,
          39
        ],
        [
          19.4,
          39
        ],
        [
          19.2,
          39
        ],
        [
          19,
          39
        ],
        [
          18.9,
          39
        ],
        [
          18.7,
          40
        ]
      ]
    },
    {
      "beg_time": 1586454074,
      "step_time": 306,
      "value": [
        [
          18.5,
          41
        ],
        [
          18.3,
          41
        ]
      ]
    },
    {
      "beg_time": 1586454688,
      "step_time": 308,
      "value": [
        [
          18.1,
          42
        ],
        [
          18,
          43
        ]
      ]
    },
    {
      "beg_time": 1586455303,
      "step_time": 308,
      "value": [
        [
          17.8,
          43
        ],
        [
          17.6,
          44
        ],
        [
          17.4,
          44
        ]
      ]
    },
    {
      "beg_time": 1586456226,
      "step_time": 308,
      "value": [
        [
          17.2,
          45
        ],
        [
          17.1,
          45
        ]
      ]
    },
    {
      "beg_time": 1586456841,
      "step_time": 308,
      "value": [
        [
          17,
          46
        ],
        [
          16.8,
          47
        ]
      ]
    },
    {
      "beg_time": 1586457405,
      "step_time": 308,
      "value": [
        [
          16.7,
          47
        ],
        [
          16.5,
          47
        ]
      ]
    },
    {
      "beg_time": 1586458022,
      "step_time": 307,
      "value": [
        [
          16.4,
          48
        ],
        [
          16.3,
          48
        ]
      ]
    },
    {
      "beg_time": 1586458643,
      "step_time": 257,
      "value": [
        [
          16.1,
          49
        ],
        [
          16.1,
          49
        ]
      ]
    },
    {
      "beg_time": 1586459208,
      "step_time": 307,
      "value": [
        [
          15.9,
          50
        ],
        [
          15.8,
          50
        ],
        [
          15.7,
          51
        ]
      ]
    },
    {
      "beg_time": 1586460131,
      "step_time": 308,
      "value": [
        [
          15.6,
          51
        ],
        [
          15.4,
          51
        ]
      ]
    },
    {
      "beg_time": 1586460745,
      "step_time": 309,
      "value": [
        [
          15.3,
          52
        ],
        [
          15.2,
          52
        ]
      ]
    },
    {
      "beg_time": 1586461361,
      "step_time": 307,
      "value": [
        [
          15.1,
          53
        ],
        [
          15,
          53
        ]
      ]
    },
    {
      "beg_time": 1586461924,
      "step_time": 309,
      "value": [
        [
          14.9,
          53
        ],
        [
          14.8,
          53
        ]
      ]
    },
    {
      "beg_time": 1586462541,
      "step_time": 306,
      "value": [
        [
          14.6,
          53
        ],
        [
          14.6,
          53
        ]
      ]
    },
    {
      "beg_time": 1586463155,
      "step_time": 154,
      "value": [
        [
          14.4,
          53
        ],
        [
          14.4,
          54
        ]
      ]
    },
    {
      "beg_time": 1586463566,
      "step_time": 307,
      "value": [
        [
          14.3,
          54
        ],
        [
          14.3,
          54
        ],
        [
          14.2,
          54
        ]
      ]
    },
    {
      "beg_time": 1586464488,
      "step_time": 308,
      "value": [
        [
          14.1,
          54
        ],
        [
          14,
          55
        ]
      ]
    },
    {
      "beg_time": 1586465103,
      "step_time": 309,
      "value": [
        [
          13.9,
          55
        ],
        [
          13.9,
          55
        ]
      ]
    },
    {
      "beg_time": 1586465718,
      "step_time": 308,
      "value": [
        [
          13.8,
          55
        ],
        [
          13.7,
          56
        ],
        [
          13.7,
          56
        ]
      ]
    },
    {
      "beg_time": 1586466590,
      "step_time": 308,
      "value": [
        [
          13.6,
          56
        ],
        [
          13.5,
          56
        ]
      ]
    },
    {
      "beg_time": 1586467205,
      "step_time": 309,
      "value": [
        [
          13.5,
          57
        ],
        [
          13.4,
          57
        ]
      ]
    },
    {
      "beg_time": 1586467821,
      "step_time": 307,
      "value": [
        [
          13.3,
          57
        ],
        [
          13.3,
          57
        ]
      ]
    },
    {
      "beg_time": 1586468436,
      "step_time": 308,
      "value": [
        [
          13.2,
          58
        ],
        [
          13.2,
          58
        ],
        [
          13.2,
          58
        ],
        [
          13.1,
          58
        ]
      ]
    },
    {
      "beg_time": 1586469616,
      "step_time": 306,
      "value": [
        [
          13.1,
          58
        ],
        [
          13,
          58
        ]
      ]
    },
    {
      "beg_time": 1586470230,
      "step_time": 309,
      "value": [
        [
          13,
          59
        ],
        [
          12.9,
          59
        ]
      ]
    },
    {
      "beg_time": 1586470846,
      "step_time": 307,
      "value": [
        [
          12.8,
          59
        ],
        [
          12.8,
          60
        ]
      ]
    },
    {
      "beg_time": 1586471461,
      "step_time": 307,
      "value": [
        [
          12.7,
          60
        ],
        [
          12.7,
          61
        ]
      ]
    },
    {
      "beg_time": 1586472076,
      "step_time": 308,
      "value": [
        [
          12.6,
          61
        ],
        [
          12.6,
          61
        ],
        [
          12.5,
          62
        ]
      ]
    },
    {
      "beg_time": 1586472947,
      "step_time": 308,
      "value": [
        [
          12.4,
          62
        ],
        [
          12.4,
          62
        ]
      ]
    },
    {
      "beg_time": 1586473564,
      "step_time": 307,
      "value": [
        [
          12.4,
          62
        ],
        [
          12.3,
          63
        ]
      ]
    },
    {
      "beg_time": 1586474179,
      "step_time": 334,
      "value": [
        [
          12.3,
          63
        ],
        [
          12.2,
          63
        ]
      ]
    },
    {
      "beg_time": 1586474918,
      "step_time": 257,
      "value": [
        [
          12.2,
          64
        ],
        [
          12.1,
          64
        ]
      ]
    },
    {
      "beg_time": 1586475482,
      "step_time": 308,
      "value": [
        [
          12.1,
          64
        ],
        [
          12,
          64
        ]
      ]
    },
    {
      "beg_time": 1586476097,
      "step_time": 309,
      "value": [
        [
          12,
          65
        ],
        [
          11.9,
          65
        ]
      ]
    },
    {
      "beg_time": 1586476766,
      "step_time": 255,
      "value": [
        [
          11.9,
          65
        ],
        [
          11.8,
          66
        ]
      ]
    },
    {
      "beg_time": 1586477330,
      "step_time": 307,
      "value": [
        [
          11.8,
          66
        ],
        [
          11.7,
          66
        ]
      ]
    },
    {
      "beg_time": 1586477945,
      "step_time": 308,
      "value": [
        [
          11.7,
          67
        ],
        [
          11.6,
          67
        ]
      ]
    },
    {
      "beg_time": 1586478559,
      "step_time": 309,
      "value": [
        [
          11.6,
          67
        ],
        [
          11.6,
          68
        ]
      ]
    },
    {
      "beg_time": 1586479175,
      "step_time": 308,
      "value": [
        [
          11.5,
          68
        ],
        [
          11.5,
          69
        ]
      ]
    },
    {
      "beg_time": 1586479739,
      "step_time": 308,
      "value": [
        [
          11.4,
          69
        ],
        [
          11.4,
          69
        ],
        [
          11.3,
          69
        ]
      ]
    },
    {
      "beg_time": 1586480662,
      "step_time": 308,
      "value": [
        [
          11.3,
          70
        ],
        [
          11.3,
          70
        ]
      ]
    },
    {
      "beg_time": 1586481277,
      "step_time": 307,
      "value": [
        [
          11.3,
          70
        ],
        [
          11.2,
          71
        ]
      ]
    },
    {
      "beg_time": 1586481893,
      "step_time": 307,
      "value": [
        [
          11.2,
          71
        ],
        [
          11.2,
          72
        ]
      ]
    },
    {
      "beg_time": 1586482457,
      "step_time": 307,
      "value": [
        [
          11.1,
          72
        ],
        [
          11.1,
          72
        ]
      ]
    },
    {
      "beg_time": 1586483072,
      "step_time": 308,
      "value": [
        [
          11,
          72
        ],
        [
          11,
          72
        ]
      ]
    },
    {
      "beg_time": 1586483687,
      "step_time": 308,
      "value": [
        [
          11,
          74
        ],
        [
          10.9,
          74
        ]
      ]
    },
    {
      "beg_time": 1586484302,
      "step_time": 308,
      "value": [
        [
          10.9,
          74
        ],
        [
          10.9,
          75
        ],
        [
          10.9,
          75
        ]
      ]
    },
    {
      "beg_time": 1586485225,
      "step_time": 257,
      "value": [
        [
          10.8,
          75
        ],
        [
          10.8,
          75
        ]
      ]
    },
    {
      "beg_time": 1586485789,
      "step_time": 308,
      "value": [
        [
          10.8,
          75
        ],
        [
          10.8,
          75
        ]
      ]
    },
    {
      "beg_time": 1586486404,
      "step_time": 308,
      "value": [
        [
          10.8,
          75
        ],
        [
          10.7,
          75
        ],
        [
          10.7,
          76
        ]
      ]
    },
    {
      "beg_time": 1586487327,
      "step_time": 308,
      "value": [
        [
          10.7,
          76
        ],
        [
          10.7,
          76
        ],
        [
          10.6,
          76
        ]
      ]
    },
    {
      "beg_time": 1586488250,
      "step_time": 256,
      "value": [
        [
          10.6,
          76
        ],
        [
          10.5,
          77
        ]
      ]
    },
    {
      "beg_time": 1586488814,
      "step_time": 308,
      "value": [
        [
          10.5,
          77
        ],
        [
          10.5,
          77
        ]
      ]
    },
    {
      "beg_time": 1586489429,
      "step_time": 308,
      "value": [
        [
          10.5,
          76
        ],
        [
          10.5,
          77
        ],
        [
          10.4,
          77
        ]
      ]
    },
    {
      "beg_time": 1586490352,
      "step_time": 308,
      "value": [
        [
          10.4,
          77
        ],
        [
          10.4,
          77
        ]
      ]
    },
    {
      "beg_time": 1586490967,
      "step_time": 308,
      "value": [
        [
          10.3,
          78
        ],
        [
          10.3,
          78
        ],
        [
          10.3,
          78
        ]
      ]
    },
    {
      "beg_time": 1586491839,
      "step_time": 308,
      "value": [
        [
          10.3,
          78
        ],
        [
          10.2,
          78
        ]
      ]
    },
    {
      "beg_time": 1586492454,
      "step_time": 308,
      "value": [
        [
          10.2,
          78
        ],
        [
          10.2,
          79
        ]
      ]
    },
    {
      "beg_time": 1586493069,
      "step_time": 308,
      "value": [
        [
          10.2,
          79
        ],
        [
          10.1,
          79
        ],
        [
          10.1,
          79
        ]
      ]
    },
    {
      "beg_time": 1586493992,
      "step_time": 309,
      "value": [
        [
          10,
          80
        ],
        [
          10,
          80
        ]
      ]
    },
    {
      "beg_time": 1586494609,
      "step_time": 306,
      "value": [
        [
          10,
          80
        ],
        [
          10,
          80
        ]
      ]
    },
    {
      "beg_time": 1586495172,
      "step_time": 307,
      "value": [
        [
          10,
          80
        ],
        [
          10,
          80
        ]
      ]
    },
    {
      "beg_time": 1586495787,
      "step_time": 307,
      "value": [
        [
          10,
          81
        ],
        [
          9.9,
          80
        ]
      ]
    },
    {
      "beg_time": 1586496402,
      "step_time": 308,
      "value": [
        [
          9.9,
          80
        ],
        [
          9.9,
          80
        ]
      ]
    },
    {
      "beg_time": 1586497017,
      "step_time": 308,
      "value": [
        [
          9.9,
          80
        ],
        [
          9.9,
          81
        ]
      ]
    },
    {
      "beg_time": 1586497632,
      "step_time": 308,
      "value": [
        [
          9.9,
          81
        ],
        [
          9.9,
          81
        ],
        [
          9.9,
          81
        ]
      ]
    },
    {
      "beg_time": 1586498504,
      "step_time": 308,
      "value": [
        [
          10,
          81
        ],
        [
          10,
          81
        ]
      ]
    },
    {
      "beg_time": 1586499119,
      "step_time": 308,
      "value": [
        [
          10,
          81
        ],
        [
          10.1,
          81
        ],
        [
          10.2,
          82
        ]
      ]
    },
    {
      "beg_time": 1586500042,
      "step_time": 308,
      "value": [
        [
          10.2,
          81
        ],
        [
          10.3,
          81
        ]
      ]
    },
    {
      "beg_time": 1586500657,
      "step_time": 308,
      "value": [
        [
          10.4,
          81
        ],
        [
          10.5,
          80
        ],
        [
          10.6,
          80
        ]
      ]
    },
    {
      "beg_time": 1586501580,
      "step_time": 257,
      "value": [
        [
          10.7,
          80
        ],
        [
          10.8,
          79
        ]
      ]
    },
    {
      "beg_time": 1586502145,
      "step_time": 308,
      "value": [
        [
          10.9,
          79
        ],
        [
          11,
          78
        ]
      ]
    },
    {
      "beg_time": 1586502759,
      "step_time": 308,
      "value": [
        [
          11.2,
          78
        ],
        [
          11.4,
          77
        ]
      ]
    },
    {
      "beg_time": 1586503376,
      "step_time": 307,
      "value": [
        [
          11.5,
          77
        ],
        [
          11.7,
          76
        ]
      ]
    },
    {
      "beg_time": 1586503991,
      "step_time": 308,
      "value": [
        [
          12,
          75
        ],
        [
          12.2,
          74
        ]
      ]
    },
    {
      "beg_time": 1586504605,
      "step_time": 308,
      "value": [
        [
          12.3,
          74
        ],
        [
          12.5,
          73
        ]
      ]
    },
    {
      "beg_time": 1586505169,
      "step_time": 308,
      "value": [
        [
          12.6,
          72
        ],
        [
          12.8,
          72
        ]
      ]
    },
    {
      "beg_time": 1586505784,
      "step_time": 308,
      "value": [
        [
          13,
          71
        ],
        [
          13.1,
          71
        ]
      ]
    },
    {
      "beg_time": 1586506401,
      "step_time": 307,
      "value": [
        [
          13.4,
          70
        ],
        [
          13.6,
          69
        ]
      ]
    },
    {
      "beg_time": 1586507016,
      "step_time": 307,
      "value": [
        [
          13.8,
          69
        ],
        [
          14,
          69
        ],
        [
          14.3,
          67
        ]
      ]
    },
    {
      "beg_time": 1586507938,
      "step_time": 307,
      "value": [
        [
          14.6,
          67
        ],
        [
          14.9,
          65
        ]
      ]
    },
    {
      "beg_time": 1586508502,
      "step_time": 308,
      "value": [
        [
          15.1,
          65
        ],
        [
          15.4,
          64
        ],
        [
          15.5,
          62
        ]
      ]
    },
    {
      "beg_time": 1586509424,
      "step_time": 308,
      "value": [
        [
          15.7,
          62
        ],
        [
          16,
          62
        ],
        [
          16.3,
          60
        ]
      ]
    },
    {
      "beg_time": 1586510347,
      "step_time": 308,
      "value": [
        [
          16.5,
          59
        ],
        [
          16.7,
          59
        ],
        [
          17,
          58
        ]
      ]
    },
    {
      "beg_time": 1586511270,
      "step_time": 257,
      "value": [
        [
          17.3,
          57
        ],
        [
          17.4,
          56
        ]
      ]
    },
    {
      "beg_time": 1586511835,
      "step_time": 308,
      "value": [
        [
          17.6,
          55
        ],
        [
          17.8,
          55
        ]
      ]
    },
    {
      "beg_time": 1586512449,
      "step_time": 308,
      "value": [
        [
          18,
          54
        ],
        [
          18.2,
          53
        ]
      ]
    },
    {
      "beg_time": 1586513066,
      "step_time": 307,
      "value": [
        [
          18.5,
          53
        ],
        [
          18.8,
          52
        ]
      ]
    },
    {
      "beg_time": 1586513681,
      "step_time": 307,
      "value": [
        [
          19,
          52
        ],
        [
          19.3,
          51
        ],
        [
          19.5,
          51
        ]
      ]
    },
    {
      "beg_time": 1586514603,
      "step_time": 257,
      "value": [
        [
          19.7,
          51
        ],
        [
          19.8,
          51
        ]
      ]
    },
    {
      "beg_time": 1586515168,
      "step_time": 306,
      "value": [
        [
          20,
          50
        ],
        [
          20.2,
          50
        ]
      ]
    },
    {
      "beg_time": 1586515782,
      "step_time": 308,
      "value": [
        [
          20.3,
          49
        ],
        [
          20.5,
          48
        ]
      ]
    },
    {
      "beg_time": 1586516397,
      "step_time": 309,
      "value": [
        [
          20.7,
          48
        ],
        [
          20.9,
          48
        ]
      ]
    },
    {
      "beg_time": 1586517013,
      "step_time": 307,
      "value": [
        [
          21,
          48
        ],
        [
          21.2,
          48
        ]
      ]
    },
    {
      "beg_time": 1586517628,
      "step_time": 308,
      "value": [
        [
          21.4,
          47
        ],
        [
          21.4,
          47
        ]
      ]
    },
    {
      "beg_time": 1586518193,
      "step_time": 307,
      "value": [
        [
          21.5,
          46
        ],
        [
          21.7,
          46
        ]
      ]
    },
    {
      "beg_time": 1586518808,
      "step_time": 306,
      "value": [
        [
          21.8,
          47
        ],
        [
          22,
          45
        ]
      ]
    },
    {
      "beg_time": 1586519422,
      "step_time": 308,
      "value": [
        [
          22.1,
          45
        ],
        [
          22.2,
          44
        ]
      ]
    },
    {
      "beg_time": 1586520037,
      "step_time": 308,
      "value": [
        [
          22.3,
          44
        ],
        [
          22.3,
          45
        ]
      ]
    },
    {
      "beg_time": 1586520652,
      "step_time": 308,
      "value": [
        [
          22.4,
          44
        ],
        [
          22.5,
          44
        ]
      ]
    },
    {
      "beg_time": 1586521216,
      "step_time": 309,
      "value": [
        [
          22.6,
          44
        ],
        [
          22.7,
          43
        ]
      ]
    },
    {
      "beg_time": 1586521778,
      "step_time": 255,
      "value": [
        [
          22.7,
          43
        ],
        [
          22.8,
          42
        ]
      ]
    },
    {
      "beg_time": 1586522342,
      "step_time": 308,
      "value": [
        [
          22.9,
          43
        ],
        [
          23,
          43
        ]
      ]
    },
    {
      "beg_time": 1586522957,
      "step_time": 308,
      "value": [
        [
          23,
          42
        ],
        [
          23,
          43
        ]
      ]
    },
    {
      "beg_time": 1586523572,
      "step_time": 308,
      "value": [
        [
          23.1,
          43
        ],
        [
          23.3,
          43
        ]
      ]
    },
    {
      "beg_time": 1586524187,
      "step_time": 308,
      "value": [
        [
          23.5,
          42
        ],
        [
          23.6,
          41
        ]
      ]
    },
    {
      "beg_time": 1586524751,
      "step_time": 308,
      "value": [
        [
          23.5,
          42
        ],
        [
          23.8,
          42
        ],
        [
          24.1,
          40
        ]
      ]
    },
    {
      "beg_time": 1586525674,
      "step_time": 308,
      "value": [
        [
          24.3,
          41
        ],
        [
          24.8,
          39
        ],
        [
          25.2,
          37
        ]
      ]
    },
    {
      "beg_time": 1586526596,
      "step_time": 309,
      "value": [
        [
          25.5,
          36
        ],
        [
          25.7,
          36
        ]
      ]
    },
    {
      "beg_time": 1586527161,
      "step_time": 359,
      "value": [
        [
          25.8,
          35
        ],
        [
          26,
          35
        ]
      ]
    },
    {
      "beg_time": 1586527776,
      "step_time": 308,
      "value": [
        [
          26.4,
          35
        ],
        [
          26.6,
          34
        ],
        [
          26.5,
          34
        ]
      ]
    },
    {
      "beg_time": 1586528698,
      "step_time": 309,
      "value": [
        [
          26.8,
          33
        ],
        [
          26.6,
          32
        ]
      ]
    },
    {
      "beg_time": 1586529315,
      "step_time": 307,
      "value": [
        [
          26.7,
          33
        ],
        [
          26.9,
          33
        ]
      ]
    },
    {
      "beg_time": 1586529930,
      "step_time": 307,
      "value": [
        [
          27,
          32
        ],
        [
          26.9,
          31
        ]
      ]
    },
    {
      "beg_time": 1586530494,
      "step_time": 307,
      "value": [
        [
          26.9,
          32
        ],
        [
          27.1,
          31
        ]
      ]
    },
    {
      "beg_time": 1586531109,
      "step_time": 308,
      "value": [
        [
          27.2,
          31
        ],
        [
          27.1,
          31
        ]
      ]
    },
    {
      "beg_time": 1586531724,
      "step_time": 256,
      "value": [
        [
          27.2,
          31
        ],
        [
          27.2,
          31
        ]
      ]
    },
    {
      "beg_time": 1586532338,
      "step_time": 309,
      "value": [
        [
          27.3,
          31
        ],
        [
          27.1,
          31
        ]
      ]
    },
    {
      "beg_time": 1586532955,
      "step_time": 307,
      "value": [
        [
          25.9,
          32
        ],
        [
          24.8,
          34
        ]
      ]
    },
    {
      "beg_time": 1586533570,
      "step_time": 256,
      "value": [
        [
          24,
          35
        ],
        [
          23.4,
          36
        ]
      ]
    },
    {
      "beg_time": 1586534134,
      "step_time": 307,
      "value": [
        [
          22.8,
          37
        ],
        [
          22.4,
          38
        ]
      ]
    },
    {
      "beg_time": 1586534749,
      "step_time": 482,
      "value": [
        [
          21.9,
          38
        ],
        [
          21.3,
          40
        ]
      ]
    },
    {
      "beg_time": 1586535488,
      "step_time": 307,
      "value": [
        [
          21.1,
          40
        ],
        [
          20.9,
          40
        ]
      ]
    },
    {
      "beg_time": 1586536103,
      "step_time": 308,
      "value": [
        [
          20.7,
          41
        ],
        [
          20.5,
          41
        ]
      ]
    },
    {
      "beg_time": 1586536718,
      "step_time": 307,
      "value": [
        [
          20.2,
          41
        ],
        [
          20,
          42
        ]
      ]
    },
    {
      "beg_time": 1586537334,
      "step_time": 307,
      "value": [
        [
          19.9,
          42
        ],
        [
          19.7,
          43
        ],
        [
          19.6,
          43
        ]
      ]
    },
    {
      "beg_time": 1586538257,
      "step_time": 255,
      "value": [
        [
          19.5,
          43
        ],
        [
          19.4,
          43
        ]
      ]
    },
    {
      "beg_time": 1586538820,
      "step_time": 307,
      "value": [
        [
          19.3,
          44
        ],
        [
          19.2,
          44
        ]
      ]
    },
    {
      "beg_time": 1586539436,
      "step_time": 306,
      "value": [
        [
          19,
          45
        ],
        [
          18.9,
          45
        ]
      ]
    },
    {
      "beg_time": 1586540051,
      "step_time": 308,
      "value": [
        [
          18.8,
          45
        ],
        [
          18.7,
          45
        ]
      ]
    },
    {
      "beg_time": 1586540665,
      "step_time": 308,
      "value": [
        [
          18.6,
          46
        ],
        [
          18.5,
          46
        ]
      ]
    },
    {
      "beg_time": 1586541280,
      "step_time": 258,
      "value": [
        [
          18.4,
          46
        ],
        [
          18.4,
          46
        ]
      ]
    },
    {
      "beg_time": 1586541845,
      "step_time": 308,
      "value": [
        [
          18.2,
          46
        ],
        [
          18.1,
          46
        ],
        [
          18,
          46
        ]
      ]
    },
    {
      "beg_time": 1586542768,
      "step_time": 307,
      "value": [
        [
          17.9,
          47
        ],
        [
          17.7,
          47
        ]
      ]
    },
    {
      "beg_time": 1586543383,
      "step_time": 307,
      "value": [
        [
          17.5,
          47
        ],
        [
          17.4,
          48
        ]
      ]
    },
    {
      "beg_time": 1586543998,
      "step_time": 307,
      "value": [
        [
          17.3,
          48
        ],
        [
          17.2,
          49
        ]
      ]
    },
    {
      "beg_time": 1586544562,
      "step_time": 308,
      "value": [
        [
          17.1,
          49
        ],
        [
          17,
          49
        ],
        [
          16.9,
          50
        ],
        [
          16.7,
          50
        ]
      ]
    },
    {
      "beg_time": 1586545793,
      "step_time": 308,
      "value": [
        [
          16.6,
          50
        ],
        [
          16.5,
          51
        ]
      ]
    },
    {
      "beg_time": 1586546408,
      "step_time": 307,
      "value": [
        [
          16.4,
          52
        ],
        [
          16.2,
          52
        ]
      ]
    },
    {
      "beg_time": 1586547023,
      "step_time": 308,
      "value": [
        [
          16.1,
          53
        ],
        [
          16,
          53
        ]
      ]
    },
    {
      "beg_time": 1586547588,
      "step_time": 307,
      "value": [
        [
          15.9,
          54
        ],
        [
          15.7,
          54
        ]
      ]
    },
    {
      "beg_time": 1586548203,
      "step_time": 306,
      "value": [
        [
          15.7,
          55
        ],
        [
          15.5,
          55
        ]
      ]
    },
    {
      "beg_time": 1586548817,
      "step_time": 309,
      "value": [
        [
          15.4,
          56
        ],
        [
          15.3,
          57
        ]
      ]
    },
    {
      "beg_time": 1586549433,
      "step_time": 308,
      "value": [
        [
          15.1,
          57
        ],
        [
          15,
          57
        ],
        [
          14.9,
          58
        ]
      ]
    },
    {
      "beg_time": 1586550355,
      "step_time": 308,
      "value": [
        [
          14.8,
          58
        ],
        [
          14.7,
          59
        ],
        [
          14.6,
          60
        ]
      ]
    },
    {
      "beg_time": 1586551228,
      "step_time": 307,
      "value": [
        [
          14.5,
          60
        ],
        [
          14.4,
          60
        ]
      ]
    },
    {
      "beg_time": 1586551843,
      "step_time": 308,
      "value": [
        [
          14.3,
          61
        ],
        [
          14.3,
          61
        ]
      ]
    },
    {
      "beg_time": 1586552458,
      "step_time": 308,
      "value": [
        [
          14.2,
          62
        ],
        [
          14.1,
          62
        ]
      ]
    },
    {
      "beg_time": 1586553073,
      "step_time": 308,
      "value": [
        [
          14,
          62
        ],
        [
          14,
          63
        ],
        [
          13.9,
          63
        ]
      ]
    },
    {
      "beg_time": 1586553996,
      "step_time": 257,
      "value": [
        [
          13.8,
          64
        ],
        [
          13.7,
          64
        ]
      ]
    },
    {
      "beg_time": 1586554560,
      "step_time": 308,
      "value": [
        [
          13.7,
          64
        ],
        [
          13.6,
          65
        ],
        [
          13.6,
          65
        ]
      ]
    },
    {
      "beg_time": 1586555483,
      "step_time": 307,
      "value": [
        [
          13.5,
          65
        ],
        [
          13.5,
          65
        ],
        [
          13.4,
          65
        ]
      ]
    },
    {
      "beg_time": 1586556406,
      "step_time": 308,
      "value": [
        [
          13.4,
          66
        ],
        [
          13.4,
          66
        ]
      ]
    },
    {
      "beg_time": 1586557021,
      "step_time": 308,
      "value": [
        [
          13.3,
          66
        ],
        [
          13.3,
          67
        ]
      ]
    },
    {
      "beg_time": 1586557584,
      "step_time": 308,
      "value": [
        [
          13.2,
          67
        ],
        [
          13.2,
          67
        ],
        [
          13.2,
          68
        ],
        [
          13.1,
          68
        ]
      ]
    },
    {
      "beg_time": 1586558764,
      "step_time": 257,
      "value": [
        [
          13.1,
          68
        ],
        [
          13,
          68
        ]
      ]
    },
    {
      "beg_time": 1586559328,
      "step_time": 307,
      "value": [
        [
          13,
          68
        ],
        [
          13,
          68
        ]
      ]
    },
    {
      "beg_time": 1586559943,
      "step_time": 308,
      "value": [
        [
          12.9,
          69
        ],
        [
          12.9,
          68
        ],
        [
          12.8,
          69
        ]
      ]
    },
    {
      "beg_time": 1586560866,
      "step_time": 308,
      "value": [
        [
          12.7,
          69
        ],
        [
          12.7,
          69
        ]
      ]
    },
    {
      "beg_time": 1586561481,
      "step_time": 307,
      "value": [
        [
          12.7,
          70
        ],
        [
          12.7,
          69
        ]
      ]
    },
    {
      "beg_time": 1586562046,
      "step_time": 307,
      "value": [
        [
          12.6,
          69
        ],
        [
          12.6,
          70
        ],
        [
          12.5,
          70
        ]
      ]
    },
    {
      "beg_time": 1586562968,
      "step_time": 308,
      "value": [
        [
          12.5,
          70
        ],
        [
          12.5,
          70
        ],
        [
          12.5,
          70
        ]
      ]
    },
    {
      "beg_time": 1586563891,
      "step_time": 308,
      "value": [
        [
          12.4,
          70
        ],
        [
          12.4,
          71
        ],
        [
          12.4,
          71
        ]
      ]
    },
    {
      "beg_time": 1586564814,
      "step_time": 308,
      "value": [
        [
          12.4,
          71
        ],
        [
          12.3,
          71
        ]
      ]
    },
    {
      "beg_time": 1586565378,
      "step_time": 308,
      "value": [
        [
          12.3,
          71
        ],
        [
          12.3,
          71
        ]
      ]
    },
    {
      "beg_time": 1586565993,
      "step_time": 308,
      "value": [
        [
          12.2,
          71
        ],
        [
          12.2,
          71
        ],
        [
          12.1,
          72
        ]
      ]
    },
    {
      "beg_time": 1586566916,
      "step_time": 308,
      "value": [
        [
          12.1,
          72
        ],
        [
          12.1,
          72
        ]
      ]
    },
    {
      "beg_time": 1586567531,
      "step_time": 308,
      "value": [
        [
          12,
          72
        ],
        [
          12,
          73
        ],
        [
          11.9,
          73
        ]
      ]
    },
    {
      "beg_time": 1586568403,
      "step_time": 307,
      "value": [
        [
          11.9,
          73
        ],
        [
          11.9,
          73
        ],
        [
          11.9,
          73
        ]
      ]
    },
    {
      "beg_time": 1586569325,
      "step_time": 308,
      "value": [
        [
          11.8,
          73
        ],
        [
          11.8,
          73
        ],
        [
          11.8,
          73
        ],
        [
          11.8,
          73
        ]
      ]
    }
  ],
  "status": "ok",
  "time_exec": 0.36078691482543945,
  "time_server": 1682668963
}
