{
  "body": [
    {
      "beg_time": 1586709578,
      "step_time": 408,
      "value": [
        [
          0
        ],
        [
          0.202
        ]
      ]
    },
    {
      "beg_time": 1586710281,
      "step_time": 307,
      "value": [
        [
          0
        ],
        [
          0
        ]
      ]
    },
    {
      "beg_time": 1586710768,
      "step_time": 1038,
      "value": [
        [
          0
        ],
        [
          0
        ]
      ]
    },
    {
      "beg_time": 1586712075,
      "step_time": 244,
      "value": [
        [
          0
        ],
        [
          0
        ]
      ]
    },
    {
      "beg_time": 1586712665,
      "step_time": 141,
      "value": [
        [
          0
        ],
        [
          0
        ]
      ]
    },
    {
      "beg_time": 1586713921,
      "step_time": 256,
      "value": [
        [
          0
        ],
        [
          0
        ]
      ]
    },
    {
      "beg_time": 1586714485,
      "step_time": 308,
      "value": [
        [
          0
        ],
        [
          0
        ]
      ]
    },
    {
      "beg_time": 1586715087,
      "step_time": 308,
      "value": [
        [
          0
        ],
        [
          0
        ],
        [
          0
        ]
      ]
    },
    {
      "beg_time": 1586715997,
      "step_time": 308,
      "value": [
        [
          0
        ],
        [
          0
        ],
        [
          0
        ]
      ]
    },
    {
      "beg_time": 1586716907,
      "step_time": 308,
      "value": [
        [
          0
        ],
        [
          0
        ]
      ]
    },
    {
      "beg_time": 1586717516,
      "step_time": 308,
      "value": [
        [
          0
        ],
        [
          0
        ]
      ]
    },
    {
      "beg_time": 1586718119,
      "step_time": 294,
      "value": [
        [
          0
        ],
        [
          0
        ]
      ]
    },
    {
      "beg_time": 1586718728,
      "step_time": 294,
      "value": [
        [
          0
        ],
        [
          0
        ]
      ]
    },
    {
      "beg_time": 1586719330,
      "step_time": 308,
      "value": [
        [
          0
        ],
        [
          0
        ]
      ]
    },
    {
      "beg_time": 1586719932,
      "step_time": 308,
      "value": [
        [
          0
        ],
        [
          0
        ],
        [
          0
        ]
      ]
    },
    {
      "beg_time": 1586720842,
      "step_time": 308,
      "value": [
        [
          0
        ],
        [
          0
        ]
      ]
    },
    {
      "beg_time": 1586721445,
      "step_time": 307,
      "value": [
        [
          0
        ],
        [
          0
        ]
      ]
    },
    {
      "beg_time": 1586722060,
      "step_time": 295,
      "value": [
        [
          0
        ],
        [
          0
        ]
      ]
    },
    {
      "beg_time": 1586722662,
      "step_time": 295,
      "value": [
        [
          0
        ],
        [
          0
        ]
      ]
    },
    {
      "beg_time": 1586723265,
      "step_time": 307,
      "value": [
        [
          0
        ],
        [
          0
        ]
      ]
    },
    {
      "beg_time": 1586723867,
      "step_time": 308,
      "value": [
        [
          0
        ],
        [
          0
        ]
      ]
    },
    {
      "beg_time": 1586724470,
      "step_time": 307,
      "value": [
        [
          0
        ],
        [
          0
        ]
      ]
    },
    {
      "beg_time": 1586725085,
      "step_time": 295,
      "value": [
        [
          0
        ],
        [
          0
        ]
      ]
    },
    {
      "beg_time": 1586725687,
      "step_time": 308,
      "value": [
        [
          0
        ],
        [
          0
        ]
      ]
    },
    {
      "beg_time": 1586726290,
      "step_time": 307,
      "value": [
        [
          0
        ],
        [
          0
        ]
      ]
    },
    {
      "beg_time": 1586726905,
      "step_time": 295,
      "value": [
        [
          0
        ],
        [
          0
        ]
      ]
    },
    {
      "beg_time": 1586727507,
      "step_time": 308,
      "value": [
        [
          0
        ],
        [
          0
        ]
      ]
    },
    {
      "beg_time": 1586728110,
      "step_time": 307,
      "value": [
        [
          0
        ],
        [
          0
        ]
      ]
    },
    {
      "beg_time": 1586728712,
      "step_time": 308,
      "value": [
        [
          0
        ],
        [
          0
        ]
      ]
    },
    {
      "beg_time": 1586729327,
      "step_time": 295,
      "value": [
        [
          0
        ],
        [
          0
        ]
      ]
    },
    {
      "beg_time": 1586729930,
      "step_time": 308,
      "value": [
        [
          0
        ],
        [
          0
        ]
      ]
    },
    {
      "beg_time": 1586730532,
      "step_time": 309,
      "value": [
        [
          0
        ],
        [
          0
        ]
      ]
    },
    {
      "beg_time": 1586731136,
      "step_time": 306,
      "value": [
        [
          0
        ],
        [
          0
        ]
      ]
    },
    {
      "beg_time": 1586731750,
      "step_time": 295,
      "value": [
        [
          0
        ],
        [
          0
        ]
      ]
    },
    {
      "beg_time": 1586732352,
      "step_time": 308,
      "value": [
        [
          0
        ],
        [
          0
        ]
      ]
    },
    {
      "beg_time": 1586732955,
      "step_time": 307,
      "value": [
        [
          0
        ],
        [
          0
        ]
      ]
    },
    {
      "beg_time": 1586733557,
      "step_time": 309,
      "value": [
        [
          0
        ],
        [
          0
        ]
      ]
    },
    {
      "beg_time": 1586734173,
      "step_time": 294,
      "value": [
        [
          0
        ],
        [
          0
        ]
      ]
    },
    {
      "beg_time": 1586734775,
      "step_time": 308,
      "value": [
        [
          0
        ],
        [
          0
        ]
      ]
    },
    {
      "beg_time": 1586735377,
      "step_time": 308,
      "value": [
        [
          0
        ],
        [
          0
        ]
      ]
    },
    {
      "beg_time": 1586735980,
      "step_time": 307,
      "value": [
        [
          0
        ],
        [
          0
        ]
      ]
    },
    {
      "beg_time": 1586736595,
      "step_time": 295,
      "value": [
        [
          0
        ],
        [
          0
        ]
      ]
    },
    {
      "beg_time": 1586737197,
      "step_time": 308,
      "value": [
        [
          0
        ],
        [
          0
        ]
      ]
    },
    {
      "beg_time": 1586737800,
      "step_time": 307,
      "value": [
        [
          0
        ],
        [
          0
        ]
      ]
    },
    {
      "beg_time": 1586738402,
      "step_time": 309,
      "value": [
        [
          0
        ],
        [
          0
        ]
      ]
    },
    {
      "beg_time": 1586739018,
      "step_time": 294,
      "value": [
        [
          0
        ],
        [
          0
        ]
      ]
    },
    {
      "beg_time": 1586739620,
      "step_time": 307,
      "value": [
        [
          0
        ],
        [
          0
        ]
      ]
    },
    {
      "beg_time": 1586740128,
      "step_time": 39,
      "value": [
        [
          0
        ],
        [
          0
        ]
      ]
    },
    {
      "beg_time": 1586740462,
      "step_time": 306,
      "value": [
        [
          0
        ],
        [
          0
        ]
      ]
    },
    {
      "beg_time": 1586741063,
      "step_time": 309,
      "value": [
        [
          0
        ],
        [
          0
        ]
      ]
    },
    {
      "beg_time": 1586741666,
      "step_time": 307,
      "value": [
        [
          0
        ],
        [
          0
        ]
      ]
    },
    {
      "beg_time": 1586742268,
      "step_time": 308,
      "value": [
        [
          0
        ],
        [
          0
        ]
      ]
    },
    {
      "beg_time": 1586742871,
      "step_time": 308,
      "value": [
        [
          0
        ],
        [
          0
        ]
      ]
    },
    {
      "beg_time": 1586743473,
      "step_time": 307,
      "value": [
        [
          0
        ],
        [
          0
        ]
      ]
    },
    {
      "beg_time": 1586744076,
      "step_time": 308,
      "value": [
        [
          0
        ],
        [
          0
        ]
      ]
    },
    {
      "beg_time": 1586744678,
      "step_time": 307,
      "value": [
        [
          0
        ],
        [
          0
        ]
      ]
    },
    {
      "beg_time": 1586745280,
      "step_time": 309,
      "value": [
        [
          0
        ],
        [
          0
        ]
      ]
    },
    {
      "beg_time": 1586745883,
      "step_time": 308,
      "value": [
        [
          0
        ],
        [
          0
        ],
        [
          0
        ]
      ]
    },
    {
      "beg_time": 1586746793,
      "step_time": 308,
      "value": [
        [
          0
        ],
        [
          0
        ]
      ]
    },
    {
      "beg_time": 1586747395,
      "step_time": 307,
      "value": [
        [
          0
        ],
        [
          0
        ]
      ]
    },
    {
      "beg_time": 1586748011,
      "step_time": 295,
      "value": [
        [
          0
        ],
        [
          0
        ]
      ]
    },
    {
      "beg_time": 1586748613,
      "step_time": 295,
      "value": [
        [
          0
        ],
        [
          0
        ]
      ]
    },
    {
      "beg_time": 1586749216,
      "step_time": 307,
      "value": [
        [
          0
        ],
        [
          0
        ]
      ]
    },
    {
      "beg_time": 1586749818,
      "step_time": 308,
      "value": [
        [
          0
        ],
        [
          0
        ]
      ]
    },
    {
      "beg_time": 1586750432,
      "step_time": 295,
      "value": [
        [
          0
        ],
        [
          0
        ]
      ]
    },
    {
      "beg_time": 1586751036,
      "step_time": 295,
      "value": [
        [
          0
        ],
        [
          0
        ]
      ]
    },
    {
      "beg_time": 1586751638,
      "step_time": 308,
      "value": [
        [
          0
        ],
        [
          0
        ]
      ]
    },
    {
      "beg_time": 1586752240,
      "step_time": 307,
      "value": [
        [
          0
        ],
        [
          0
        ]
      ]
    },
    {
      "beg_time": 1586752856,
      "step_time": 295,
      "value": [
        [
          0
        ],
        [
          0
        ]
      ]
    },
    {
      "beg_time": 1586753458,
      "step_time": 308,
      "value": [
        [
          0
        ],
        [
          0
        ]
      ]
    },
    {
      "beg_time": 1586754060,
      "step_time": 307,
      "value": [
        [
          0
        ],
        [
          0
        ]
      ]
    },
    {
      "beg_time": 1586754676,
      "step_time": 295,
      "value": [
        [
          0
        ],
        [
          0
        ]
      ]
    },
    {
      "beg_time": 1586755277,
      "step_time": 295,
      "value": [
        [
          0
        ],
        [
          0
        ]
      ]
    },
    {
      "beg_time": 1586755881,
      "step_time": 307,
      "value": [
        [
          0
        ],
        [
          0
        ]
      ]
    },
    {
      "beg_time": 1586756483,
      "step_time": 308,
      "value": [
        [
          0
        ],
        [
          0
        ]
      ]
    },
    {
      "beg_time": 1586757085,
      "step_time": 307,
      "value": [
        [
          0
        ],
        [
          0
        ]
      ]
    },
    {
      "beg_time": 1586757701,
      "step_time": 295,
      "value": [
        [
          0
        ],
        [
          0
        ]
      ]
    },
    {
      "beg_time": 1586758303,
      "step_time": 308,
      "value": [
        [
          0
        ],
        [
          0
        ]
      ]
    },
    {
      "beg_time": 1586758905,
      "step_time": 307,
      "value": [
        [
          0
        ],
        [
          0
        ]
      ]
    },
    {
      "beg_time": 1586759508,
      "step_time": 308,
      "value": [
        [
          0
        ],
        [
          0
        ]
      ]
    },
    {
      "beg_time": 1586760123,
      "step_time": 295,
      "value": [
        [
          0
        ],
        [
          0
        ]
      ]
    },
    {
      "beg_time": 1586760726,
      "step_time": 307,
      "value": [
        [
          0
        ],
        [
          0
        ]
      ]
    },
    {
      "beg_time": 1586761328,
      "step_time": 308,
      "value": [
        [
          0
        ],
        [
          0
        ]
      ]
    },
    {
      "beg_time": 1586761930,
      "step_time": 307,
      "value": [
        [
          0
        ],
        [
          0
        ]
      ]
    },
    {
      "beg_time": 1586762546,
      "step_time": 295,
      "value": [
        [
          0
        ],
        [
          0
        ]
      ]
    },
    {
      "beg_time": 1586763148,
      "step_time": 295,
      "value": [
        [
          0
        ],
        [
          0
        ]
      ]
    },
    {
      "beg_time": 1586763751,
      "step_time": 307,
      "value": [
        [
          0
        ],
        [
          0
        ]
      ]
    },
    {
      "beg_time": 1586764353,
      "step_time": 308,
      "value": [
        [
          0
        ],
        [
          0
        ]
      ]
    },
    {
      "beg_time": 1586764956,
      "step_time": 307,
      "value": [
        [
          0
        ],
        [
          0
        ]
      ]
    },
    {
      "beg_time": 1586765571,
      "step_time": 295,
      "value": [
        [
          0
        ],
        [
          0
        ]
      ]
    },
    {
      "beg_time": 1586766173,
      "step_time": 308,
      "value": [
        [
          0
        ],
        [
          0
        ]
      ]
    },
    {
      "beg_time": 1586766776,
      "step_time": 307,
      "value": [
        [
          0
        ],
        [
          0
        ]
      ]
    },
    {
      "beg_time": 1586767378,
      "step_time": 308,
      "value": [
        [
          0
        ],
        [
          0
        ]
      ]
    },
    {
      "beg_time": 1586767993,
      "step_time": 295,
      "value": [
        [
          0
        ],
        [
          0
        ]
      ]
    },
    {
      "beg_time": 1586768596,
      "step_time": 307,
      "value": [
        [
          0
        ],
        [
          0
        ]
      ]
    },
    {
      "beg_time": 1586769198,
      "step_time": 308,
      "value": [
        [
          0
        ],
        [
          0
        ]
      ]
    },
    {
      "beg_time": 1586769813,
      "step_time": 295,
      "value": [
        [
          0
        ],
        [
          0
        ]
      ]
    },
    {
      "beg_time": 1586770416,
      "step_time": 295,
      "value": [
        [
          0
        ],
        [
          0
        ]
      ]
    },
    {
      "beg_time": 1586771005,
      "step_time": 321,
      "value": [
        [
          0
        ],
        [
          0
        ]
      ]
    },
    {
      "beg_time": 1586771621,
      "step_time": 307,
      "value": [
        [
          0
        ],
        [
          0
        ]
      ]
    },
    {
      "beg_time": 1586772236,
      "step_time": 295,
      "value": [
        [
          0
        ],
        [
          0
        ]
      ]
    },
    {
      "beg_time": 1586772838,
      "step_time": 295,
      "value": [
        [
          0
        ],
        [
          0
        ]
      ]
    },
    {
      "beg_time": 1586773441,
      "step_time": 307,
      "value": [
        [
          0
        ],
        [
          0
        ]
      ]
    },
    {
      "beg_time": 1586774043,
      "step_time": 308,
      "value": [
        [
          0
        ],
        [
          0
        ]
      ]
    },
    {
      "beg_time": 1586774658,
      "step_time": 295,
      "value": [
        [
          0
        ],
        [
          0
        ]
      ]
    },
    {
      "beg_time": 1586775261,
      "step_time": 295,
      "value": [
        [
          0
        ],
        [
          0
        ]
      ]
    },
    {
      "beg_time": 1586775863,
      "step_time": 308,
      "value": [
        [
          0
        ],
        [
          0
        ]
      ]
    },
    {
      "beg_time": 1586776466,
      "step_time": 307,
      "value": [
        [
          0
        ],
        [
          0
        ]
      ]
    },
    {
      "beg_time": 1586777081,
      "step_time": 295,
      "value": [
        [
          0
        ],
        [
          0
        ]
      ]
    },
    {
      "beg_time": 1586777683,
      "step_time": 308,
      "value": [
        [
          0
        ],
        [
          0
        ]
      ]
    },
    {
      "beg_time": 1586778286,
      "step_time": 307,
      "value": [
        [
          0
        ],
        [
          0
        ]
      ]
    },
    {
      "beg_time": 1586778888,
      "step_time": 308,
      "value": [
        [
          0
        ],
        [
          0
        ],
        [
          0
        ]
      ]
    },
    {
      "beg_time": 1586779799,
      "step_time": 307,
      "value": [
        [
          0
        ],
        [
          0
        ],
        [
          0
        ]
      ]
    },
    {
      "beg_time": 1586780709,
      "step_time": 308,
      "value": [
        [
          0
        ],
        [
          0
        ]
      ]
    },
    {
      "beg_time": 1586781323,
      "step_time": 295,
      "value": [
        [
          0
        ],
        [
          0
        ]
      ]
    },
    {
      "beg_time": 1586781926,
      "step_time": 295,
      "value": [
        [
          0
        ],
        [
          0
        ]
      ]
    },
    {
      "beg_time": 1586782528,
      "step_time": 308,
      "value": [
        [
          0
        ],
        [
          0
        ]
      ]
    },
    {
      "beg_time": 1586783131,
      "step_time": 307,
      "value": [
        [
          0
        ],
        [
          0
        ]
      ]
    },
    {
      "beg_time": 1586783746,
      "step_time": 295,
      "value": [
        [
          0
        ],
        [
          0
        ]
      ]
    },
    {
      "beg_time": 1586784348,
      "step_time": 295,
      "value": [
        [
          0
        ],
        [
          0
        ]
      ]
    },
    {
      "beg_time": 1586784951,
      "step_time": 307,
      "value": [
        [
          0
        ],
        [
          0
        ]
      ]
    },
    {
      "beg_time": 1586785553,
      "step_time": 308,
      "value": [
        [
          0
        ],
        [
          0
        ]
      ]
    },
    {
      "beg_time": 1586786168,
      "step_time": 295,
      "value": [
        [
          0
        ],
        [
          0
        ]
      ]
    },
    {
      "beg_time": 1586786771,
      "step_time": 307,
      "value": [
        [
          0
        ],
        [
          0
        ]
      ]
    },
    {
      "beg_time": 1586787373,
      "step_time": 308,
      "value": [
        [
          0
        ],
        [
          0
        ]
      ]
    },
    {
      "beg_time": 1586787977,
      "step_time": 307,
      "value": [
        [
          0
        ],
        [
          0
        ],
        [
          0
        ]
      ]
    },
    {
      "beg_time": 1586788886,
      "step_time": 307,
      "value": [
        [
          0
        ],
        [
          0
        ]
      ]
    },
    {
      "beg_time": 1586789488,
      "step_time": 308,
      "value": [
        [
          0
        ],
        [
          0
        ]
      ]
    },
    {
      "beg_time": 1586790103,
      "step_time": 295,
      "value": [
        [
          0
        ],
        [
          0
        ]
      ]
    },
    {
      "beg_time": 1586790706,
      "step_time": 308,
      "value": [
        [
          0
        ],
        [
          0
        ]
      ]
    },
    {
      "beg_time": 1586791309,
      "step_time": 307,
      "value": [
        [
          0
        ],
        [
          0
        ]
      ]
    },
    {
      "beg_time": 1586791911,
      "step_time": 308,
      "value": [
        [
          0
        ],
        [
          0
        ],
        [
          0
        ]
      ]
    },
    {
      "beg_time": 1586792821,
      "step_time": 307,
      "value": [
        [
          0
        ],
        [
          0
        ]
      ]
    },
    {
      "beg_time": 1586793423,
      "step_time": 308,
      "value": [
        [
          0
        ],
        [
          0
        ]
      ]
    },
    {
      "beg_time": 1586794038,
      "step_time": 295,
      "value": [
        [
          0
        ],
        [
          0
        ]
      ]
    },
    {
      "beg_time": 1586794641,
      "step_time": 307,
      "value": [
        [
          0
        ],
        [
          0
        ]
      ]
    },
    {
      "beg_time": 1586795244,
      "step_time": 308,
      "value": [
        [
          0
        ],
        [
          0
        ]
      ]
    },
    {
      "beg_time": 1586795859,
      "step_time": 295,
      "value": [
        [
          0
        ],
        [
          0
        ]
      ]
    },
    {
      "beg_time": 1586796462,
      "step_time": 307,
      "value": [
        [
          0
        ],
        [
          0
        ]
      ]
    },
    {
      "beg_time": 1586797063,
      "step_time": 308,
      "value": [
        [
          0
        ],
        [
          0
        ]
      ]
    },
    {
      "beg_time": 1586797666,
      "step_time": 307,
      "value": [
        [
          0
        ],
        [
          0
        ]
      ]
    },
    {
      "beg_time": 1586798281,
      "step_time": 295,
      "value": [
        [
          0
        ],
        [
          0
        ]
      ]
    },
    {
      "beg_time": 1586798883,
      "step_time": 308,
      "value": [
        [
          0
        ],
        [
          0
        ]
      ]
    },
    {
      "beg_time": 1586799487,
      "step_time": 307,
      "value": [
        [
          0
        ],
        [
          0
        ],
        [
          0
        ]
      ]
    },
    {
      "beg_time": 1586800396,
      "step_time": 307,
      "value": [
        [
          0
        ],
        [
          0
        ]
      ]
    },
    {
      "beg_time": 1586800998,
      "step_time": 309,
      "value": [
        [
          0
        ],
        [
          0
        ]
      ]
    },
    {
      "beg_time": 1586801614,
      "step_time": 294,
      "value": [
        [
          0
        ],
        [
          0
        ]
      ]
    },
    {
      "beg_time": 1586802216,
      "step_time": 307,
      "value": [
        [
          0
        ],
        [
          0
        ]
      ]
    },
    {
      "beg_time": 1586802818,
      "step_time": 308,
      "value": [
        [
          0
        ],
        [
          0
        ]
      ]
    },
    {
      "beg_time": 1586803421,
      "step_time": 308,
      "value": [
        [
          0
        ],
        [
          0
        ],
        [
          0
        ]
      ]
    },
    {
      "beg_time": 1586804331,
      "step_time": 307,
      "value": [
        [
          0
        ],
        [
          0
        ]
      ]
    },
    {
      "beg_time": 1586804947,
      "step_time": 295,
      "value": [
        [
          0
        ],
        [
          0
        ]
      ]
    },
    {
      "beg_time": 1586805548,
      "step_time": 308,
      "value": [
        [
          0
        ],
        [
          0
        ]
      ]
    },
    {
      "beg_time": 1586806152,
      "step_time": 307,
      "value": [
        [
          0
        ],
        [
          0
        ]
      ]
    },
    {
      "beg_time": 1586806767,
      "step_time": 295,
      "value": [
        [
          0
        ],
        [
          0
        ]
      ]
    },
    {
      "beg_time": 1586807368,
      "step_time": 295,
      "value": [
        [
          0
        ],
        [
          0
        ]
      ]
    },
    {
      "beg_time": 1586807972,
      "step_time": 307,
      "value": [
        [
          0
        ],
        [
          0
        ]
      ]
    },
    {
      "beg_time": 1586808573,
      "step_time": 308,
      "value": [
        [
          0
        ],
        [
          0
        ],
        [
          0
        ]
      ]
    },
    {
      "beg_time": 1586809484,
      "step_time": 308,
      "value": [
        [
          0
        ],
        [
          0
        ]
      ]
    },
    {
      "beg_time": 1586810087,
      "step_time": 306,
      "value": [
        [
          0
        ],
        [
          0
        ]
      ]
    },
    {
      "beg_time": 1586810701,
      "step_time": 295,
      "value": [
        [
          0
        ],
        [
          0
        ]
      ]
    },
    {
      "beg_time": 1586811303,
      "step_time": 295,
      "value": [
        [
          0
        ],
        [
          0
        ]
      ]
    },
    {
      "beg_time": 1586811906,
      "step_time": 308,
      "value": [
        [
          0
        ],
        [
          0
        ]
      ]
    },
    {
      "beg_time": 1586812509,
      "step_time": 308,
      "value": [
        [
          0
        ],
        [
          0
        ]
      ]
    },
    {
      "beg_time": 1586813124,
      "step_time": 294,
      "value": [
        [
          0
        ],
        [
          0
        ]
      ]
    },
    {
      "beg_time": 1586813726,
      "step_time": 308,
      "value": [
        [
          0
        ],
        [
          0
        ]
      ]
    },
    {
      "beg_time": 1586814329,
      "step_time": 308,
      "value": [
        [
          0
        ],
        [
          0
        ]
      ]
    },
    {
      "beg_time": 1586814944,
      "step_time": 295,
      "value": [
        [
          0
        ],
        [
          0
        ]
      ]
    },
    {
      "beg_time": 1586815547,
      "step_time": 307,
      "value": [
        [
          0
        ],
        [
          0
        ]
      ]
    },
    {
      "beg_time": 1586816149,
      "step_time": 307,
      "value": [
        [
          0
        ],
        [
          0
        ],
        [
          0
        ]
      ]
    },
    {
      "beg_time": 1586817058,
      "step_time": 308,
      "value": [
        [
          0
        ],
        [
          0
        ]
      ]
    },
    {
      "beg_time": 1586817662,
      "step_time": 307,
      "value": [
        [
          0
        ],
        [
          0
        ]
      ]
    },
    {
      "beg_time": 1586818277,
      "step_time": 295,
      "value": [
        [
          0
        ],
        [
          0
        ]
      ]
    },
    {
      "beg_time": 1586818879,
      "step_time": 308,
      "value": [
        [
          0
        ],
        [
          0
        ]
      ]
    },
    {
      "beg_time": 1586819481,
      "step_time": 307,
      "value": [
        [
          0
        ],
        [
          0
        ]
      ]
    },
    {
      "beg_time": 1586820084,
      "step_time": 308,
      "value": [
        [
          0
        ],
        [
          0
        ]
      ]
    },
    {
      "beg_time": 1586820699,
      "step_time": 295,
      "value": [
        [
          0
        ],
        [
          0
        ]
      ]
    },
    {
      "beg_time": 1586821302,
      "step_time": 295,
      "value": [
        [
          0
        ],
        [
          0
        ]
      ]
    },
    {
      "beg_time": 1586821903,
      "step_time": 308,
      "value": [
        [
          0
        ],
        [
          0
        ]
      ]
    },
    {
      "beg_time": 1586822506,
      "step_time": 307,
      "value": [
        [
          0
        ],
        [
          0
        ]
      ]
    },
    {
      "beg_time": 1586823121,
      "step_time": 295,
      "value": [
        [
          0
        ],
        [
          0
        ]
      ]
    },
    {
      "beg_time": 1586823724,
      "step_time": 308,
      "value": [
        [
          0
        ],
        [
          0
        ]
      ]
    },
    {
      "beg_time": 1586824327,
      "step_time": 307,
      "value": [
        [
          0
        ],
        [
          0
        ],
        [
          0
        ]
      ]
    },
    {
      "beg_time": 1586825236,
      "step_time": 308,
      "value": [
        [
          0
        ],
        [
          0
        ]
      ]
    },
    {
      "beg_time": 1586825839,
      "step_time": 307,
      "value": [
        [
          0
        ],
        [
          0
        ],
        [
          0
        ]
      ]
    },
    {
      "beg_time": 1586826749,
      "step_time": 308,
      "value": [
        [
          0
        ],
        [
          0
        ]
      ]
    },
    {
      "beg_time": 1586827364,
      "step_time": 295,
      "value": [
        [
          0
        ],
        [
          0
        ]
      ]
    },
    {
      "beg_time": 1586827967,
      "step_time": 295,
      "value": [
        [
          0
        ],
        [
          0
        ]
      ]
    },
    {
      "beg_time": 1586828569,
      "step_time": 308,
      "value": [
        [
          0
        ],
        [
          0
        ]
      ]
    },
    {
      "beg_time": 1586829172,
      "step_time": 307,
      "value": [
        [
          0
        ],
        [
          0
        ]
      ]
    },
    {
      "beg_time": 1586829787,
      "step_time": 295,
      "value": [
        [
          0
        ],
        [
          0
        ]
      ]
    },
    {
      "beg_time": 1586830389,
      "step_time": 295,
      "value": [
        [
          0
        ],
        [
          0
        ]
      ]
    },
    {
      "beg_time": 1586830991,
      "step_time": 307,
      "value": [
        [
          0
        ],
        [
          0
        ]
      ]
    },
    {
      "beg_time": 1586831389,
      "step_time": 308,
      "value": [
        [
          0
        ],
        [
          0
        ]
      ]
    },
    {
      "beg_time": 1586832004,
      "step_time": 295,
      "value": [
        [
          0
        ],
        [
          0
        ]
      ]
    },
    {
      "beg_time": 1586832607,
      "step_time": 294,
      "value": [
        [
          0
        ],
        [
          0
        ]
      ]
    },
    {
      "beg_time": 1586833208,
      "step_time": 309,
      "value": [
        [
          0
        ],
        [
          0
        ]
      ]
    },
    {
      "beg_time": 1586833812,
      "step_time": 307,
      "value": [
        [
          0
        ],
        [
          0
        ]
      ]
    },
    {
      "beg_time": 1586834427,
      "step_time": 294,
      "value": [
        [
          0
        ],
        [
          0
        ]
      ]
    },
    {
      "beg_time": 1586835028,
      "step_time": 309,
      "value": [
        [
          0
        ],
        [
          0
        ]
      ]
    },
    {
      "beg_time": 1586835632,
      "step_time": 307,
      "value": [
        [
          0
        ],
        [
          0
        ]
      ]
    },
    {
      "beg_time": 1586836234,
      "step_time": 308,
      "value": [
        [
          0
        ],
        [
          0
        ]
      ]
    },
    {
      "beg_time": 1586836849,
      "step_time": 295,
      "value": [
        [
          0
        ],
        [
          0
        ]
      ]
    },
    {
      "beg_time": 1586837452,
      "step_time": 307,
      "value": [
        [
          0
        ],
        [
          0
        ]
      ]
    },
    {
      "beg_time": 1586838054,
      "step_time": 308,
      "value": [
        [
          0
        ],
        [
          0
        ]
      ]
    },
    {
      "beg_time": 1586838657,
      "step_time": 307,
      "value": [
        [
          0
        ],
        [
          0
        ]
      ]
    },
    {
      "beg_time": 1586839272,
      "step_time": 295,
      "value": [
        [
          0
        ],
        [
          0
        ]
      ]
    },
    {
      "beg_time": 1586839874,
      "step_time": 307,
      "value": [
        [
          0
        ],
        [
          0
        ]
      ]
    },
    {
      "beg_time": 1586840476,
      "step_time": 308,
      "value": [
        [
          0
        ],
        [
          0
        ],
        [
          0
        ]
      ]
    },
    {
      "beg_time": 1586841387,
      "step_time": 307,
      "value": [
        [
          0
        ],
        [
          0
        ]
      ]
    },
    {
      "beg_time": 1586842002,
      "step_time": 295,
      "value": [
        [
          0
        ],
        [
          0
        ]
      ]
    },
    {
      "beg_time": 1586842604,
      "step_time": 308,
      "value": [
        [
          0
        ],
        [
          0
        ]
      ]
    },
    {
      "beg_time": 1586843207,
      "step_time": 307,
      "value": [
        [
          0
        ],
        [
          0
        ]
      ]
    },
    {
      "beg_time": 1586843822,
      "step_time": 295,
      "value": [
        [
          0
        ],
        [
          0
        ]
      ]
    },
    {
      "beg_time": 1586844424,
      "step_time": 308,
      "value": [
        [
          0
        ],
        [
          0
        ]
      ]
    },
    {
      "beg_time": 1586845027,
      "step_time": 307,
      "value": [
        [
          0
        ],
        [
          0
        ]
      ]
    },
    {
      "beg_time": 1586846244,
      "step_time": 295,
      "value": [
        [
          0
        ],
        [
          0
        ]
      ]
    },
    {
      "beg_time": 1586846847,
      "step_time": 307,
      "value": [
        [
          0
        ],
        [
          0
        ]
      ]
    },
    {
      "beg_time": 1586847449,
      "step_time": 308,
      "value": [
        [
          0
        ],
        [
          0
        ]
      ]
    },
    {
      "beg_time": 1586848064,
      "step_time": 295,
      "value": [
        [
          0
        ],
        [
          0
        ]
      ]
    },
    {
      "beg_time": 1586848667,
      "step_time": 295,
      "value": [
        [
          0
        ],
        [
          0
        ]
      ]
    },
    {
      "beg_time": 1586849269,
      "step_time": 308,
      "value": [
        [
          0
        ],
        [
          0
        ]
      ]
    },
    {
      "beg_time": 1586849872,
      "step_time": 307,
      "value": [
        [
          0
        ],
        [
          0
        ]
      ]
    },
    {
      "beg_time": 1586850487,
      "step_time": 295,
      "value": [
        [
          0
        ],
        [
          0
        ]
      ]
    },
    {
      "beg_time": 1586851089,
      "step_time": 308,
      "value": [
        [
          0
        ],
        [
          0
        ]
      ]
    },
    {
      "beg_time": 1586851692,
      "step_time": 307,
      "value": [
        [
          0
        ],
        [
          0
        ]
      ]
    },
    {
      "beg_time": 1586852294,
      "step_time": 308,
      "value": [
        [
          0
        ],
        [
          0
        ]
      ]
    },
    {
      "beg_time": 1586852909,
      "step_time": 295,
      "value": [
        [
          0
        ],
        [
          0
        ]
      ]
    },
    {
      "beg_time": 1586853512,
      "step_time": 295,
      "value": [
        [
          0
        ],
        [
          0
        ]
      ]
    },
    {
      "beg_time": 1586854114,
      "step_time": 308,
      "value": [
        [
          0
        ],
        [
          0
        ]
      ]
    },
    {
      "beg_time": 1586854717,
      "step_time": 307,
      "value": [
        [
          0
        ],
        [
          0
        ]
      ]
    },
    {
      "beg_time": 1586855332,
      "step_time": 295,
      "value": [
        [
          0
        ],
        [
          0
        ]
      ]
    },
    {
      "beg_time": 1586855934,
      "step_time": 308,
      "value": [
        [
          0
        ],
        [
          0
        ]
      ]
    },
    {
      "beg_time": 1586856537,
      "step_time": 307,
      "value": [
        [
          0
        ],
        [
          0
        ]
      ]
    },
    {
      "beg_time": 1586857139,
      "step_time": 308,
      "value": [
        [
          0
        ],
        [
          0
        ],
        [
          0
        ]
      ]
    },
    {
      "beg_time": 1586858050,
      "step_time": 307,
      "value": [
        [
          0
        ],
        [
          0
        ],
        [
          0
        ]
      ]
    },
    {
      "beg_time": 1586858959,
      "step_time": 308,
      "value": [
        [
          0
        ],
        [
          0
        ],
        [
          0
        ]
      ]
    },
    {
      "beg_time": 1586859869,
      "step_time": 308,
      "value": [
        [
          0
        ],
        [
          0
        ]
      ]
    },
    {
      "beg_time": 1586860472,
      "step_time": 307,
      "value": [
        [
          0
        ],
        [
          0
        ]
      ]
    },
    {
      "beg_time": 1586861087,
      "step_time": 296,
      "value": [
        [
          0
        ],
        [
          0
        ]
      ]
    },
    {
      "beg_time": 1586861690,
      "step_time": 307,
      "value": [
        [
          0
        ],
        [
          0
        ]
      ]
    },
    {
      "beg_time": 1586862292,
      "step_time": 307,
      "value": [
        [
          0
        ],
        [
          0
        ]
      ]
    },
    {
      "beg_time": 1586862907,
      "step_time": 295,
      "value": [
        [
          0
        ],
        [
          0
        ]
      ]
    },
    {
      "beg_time": 1586863509,
      "step_time": 296,
      "value": [
        [
          0
        ],
        [
          0
        ]
      ]
    },
    {
      "beg_time": 1586864113,
      "step_time": 306,
      "value": [
        [
          0
        ],
        [
          0
        ]
      ]
    },
    {
      "beg_time": 1586864714,
      "step_time": 308,
      "value": [
        [
          0
        ],
        [
          0
        ],
        [
          0
        ]
      ]
    },
    {
      "beg_time": 1586865624,
      "step_time": 308,
      "value": [
        [
          0
        ],
        [
          0
        ]
      ]
    },
    {
      "beg_time": 1586866227,
      "step_time": 307,
      "value": [
        [
          0
        ],
        [
          0
        ]
      ]
    },
    {
      "beg_time": 1586866842,
      "step_time": 295,
      "value": [
        [
          0
        ],
        [
          0
        ]
      ]
    },
    {
      "beg_time": 1586867444,
      "step_time": 308,
      "value": [
        [
          0
        ],
        [
          0
        ]
      ]
    },
    {
      "beg_time": 1586868048,
      "step_time": 307,
      "value": [
        [
          0
        ],
        [
          0
        ]
      ]
    },
    {
      "beg_time": 1586868649,
      "step_time": 308,
      "value": [
        [
          0
        ],
        [
          0
        ]
      ]
    },
    {
      "beg_time": 1586869264,
      "step_time": 295,
      "value": [
        [
          0
        ],
        [
          0
        ]
      ]
    },
    {
      "beg_time": 1586869867,
      "step_time": 307,
      "value": [
        [
          0
        ],
        [
          0
        ]
      ]
    },
    {
      "beg_time": 1586870469,
      "step_time": 308,
      "value": [
        [
          0
        ],
        [
          0
        ]
      ]
    },
    {
      "beg_time": 1586871072,
      "step_time": 307,
      "value": [
        [
          0
        ],
        [
          0
        ]
      ]
    },
    {
      "beg_time": 1586871675,
      "step_time": 308,
      "value": [
        [
          0
        ],
        [
          0
        ]
      ]
    },
    {
      "beg_time": 1586872290,
      "step_time": 295,
      "value": [
        [
          0
        ],
        [
          0
        ]
      ]
    },
    {
      "beg_time": 1586872893,
      "step_time": 307,
      "value": [
        [
          0
        ],
        [
          0
        ]
      ]
    },
    {
      "beg_time": 1586873494,
      "step_time": 308,
      "value": [
        [
          0
        ],
        [
          0
        ]
      ]
    },
    {
      "beg_time": 1586874109,
      "step_time": 295,
      "value": [
        [
          0
        ],
        [
          0
        ]
      ]
    },
    {
      "beg_time": 1586874713,
      "step_time": 295,
      "value": [
        [
          0
        ],
        [
          0
        ]
      ]
    },
    {
      "beg_time": 1586875314,
      "step_time": 308,
      "value": [
        [
          0
        ],
        [
          0
        ]
      ]
    },
    {
      "beg_time": 1586875917,
      "step_time": 307,
      "value": [
        [
          0
        ],
        [
          0
        ]
      ]
    },
    {
      "beg_time": 1586876532,
      "step_time": 295,
      "value": [
        [
          0
        ],
        [
          0
        ]
      ]
    },
    {
      "beg_time": 1586877134,
      "step_time": 295,
      "value": [
        [
          0
        ],
        [
          0
        ]
      ]
    },
    {
      "beg_time": 1586877738,
      "step_time": 307,
      "value": [
        [
          0
        ],
        [
          0
        ]
      ]
    },
    {
      "beg_time": 1586878339,
      "step_time": 308,
      "value": [
        [
          0
        ],
        [
          0
        ]
      ]
    },
    {
      "beg_time": 1586878954,
      "step_time": 295,
      "value": [
        [
          0
        ],
        [
          0
        ]
      ]
    },
    {
      "beg_time": 1586879557,
      "step_time": 295,
      "value": [
        [
          0
        ],
        [
          0
        ]
      ]
    },
    {
      "beg_time": 1586880159,
      "step_time": 308,
      "value": [
        [
          0
        ],
        [
          0
        ]
      ]
    },
    {
      "beg_time": 1586880762,
      "step_time": 307,
      "value": [
        [
          0
        ],
        [
          0
        ]
      ]
    },
    {
      "beg_time": 1586881378,
      "step_time": 295,
      "value": [
        [
          0
        ],
        [
          0
        ]
      ]
    },
    {
      "beg_time": 1586881979,
      "step_time": 308,
      "value": [
        [
          0
        ],
        [
          0
        ]
      ]
    },
    {
      "beg_time": 1586882582,
      "step_time": 307,
      "value": [
        [
          0
        ],
        [
          0
        ]
      ]
    },
    {
      "beg_time": 1586883197,
      "step_time": 295,
      "value": [
        [
          0
        ],
        [
          0
        ]
      ]
    },
    {
      "beg_time": 1586883799,
      "step_time": 308,
      "value": [
        [
          0
        ],
        [
          0
        ]
      ]
    },
    {
      "beg_time": 1586884402,
      "step_time": 307,
      "value": [
        [
          0
        ],
        [
          0
        ]
      ]
    },
    {
      "beg_time": 1586885005,
      "step_time": 308,
      "value": [
        [
          0.202
        ],
        [
          0
        ]
      ]
    },
    {
      "beg_time": 1586885620,
      "step_time": 295,
      "value": [
        [
          0
        ],
        [
          0
        ]
      ]
    },
    {
      "beg_time": 1586886042,
      "step_time": 295,
      "value": [
        [
          0.101
        ],
        [
          0.101
        ]
      ]
    },
    {
      "beg_time": 1586886645,
      "step_time": 308,
      "value": [
        [
          0
        ],
        [
          0
        ]
      ]
    },
    {
      "beg_time": 1586887248,
      "step_time": 307,
      "value": [
        [
          0
        ],
        [
          0
        ],
        [
          0
        ]
      ]
    },
    {
      "beg_time": 1586888157,
      "step_time": 308,
      "value": [
        [
          0
        ],
        [
          0
        ]
      ]
    },
    {
      "beg_time": 1586888761,
      "step_time": 307,
      "value": [
        [
          0
        ],
        [
          0
        ]
      ]
    },
    {
      "beg_time": 1586889376,
      "step_time": 295,
      "value": [
        [
          0
        ],
        [
          0
        ]
      ]
    },
    {
      "beg_time": 1586889978,
      "step_time": 308,
      "value": [
        [
          0
        ],
        [
          0
        ]
      ]
    },
    {
      "beg_time": 1586890580,
      "step_time": 307,
      "value": [
        [
          0
        ],
        [
          0
        ]
      ]
    },
    {
      "beg_time": 1586891195,
      "step_time": 295,
      "value": [
        [
          0
        ],
        [
          0
        ]
      ]
    },
    {
      "beg_time": 1586891797,
      "step_time": 295,
      "value": [
        [
          0
        ],
        [
          0
        ]
      ]
    },
    {
      "beg_time": 1586892401,
      "step_time": 307,
      "value": [
        [
          0
        ],
        [
          0
        ]
      ]
    },
    {
      "beg_time": 1586893003,
      "step_time": 308,
      "value": [
        [
          0
        ],
        [
          0
        ]
      ]
    },
    {
      "beg_time": 1586893617,
      "step_time": 295,
      "value": [
        [
          0
        ],
        [
          0
        ]
      ]
    },
    {
      "beg_time": 1586894221,
      "step_time": 295,
      "value": [
        [
          0
        ],
        [
          0
        ]
      ]
    },
    {
      "beg_time": 1586894822,
      "step_time": 308,
      "value": [
        [
          0
        ],
        [
          0
        ]
      ]
    },
    {
      "beg_time": 1586895425,
      "step_time": 307,
      "value": [
        [
          0
        ],
        [
          0
        ]
      ]
    },
    {
      "beg_time": 1586896041,
      "step_time": 295,
      "value": [
        [
          0
        ],
        [
          0
        ]
      ]
    },
    {
      "beg_time": 1586896642,
      "step_time": 308,
      "value": [
        [
          0
        ],
        [
          0
        ]
      ]
    },
    {
      "beg_time": 1586897245,
      "step_time": 307,
      "value": [
        [
          0
        ],
        [
          0
        ]
      ]
    },
    {
      "beg_time": 1586897861,
      "step_time": 295,
      "value": [
        [
          0
        ],
        [
          0
        ]
      ]
    },
    {
      "beg_time": 1586898463,
      "step_time": 295,
      "value": [
        [
          0
        ],
        [
          0
        ]
      ]
    },
    {
      "beg_time": 1586899066,
      "step_time": 307,
      "value": [
        [
          0
        ],
        [
          0
        ]
      ]
    },
    {
      "beg_time": 1586899667,
      "step_time": 308,
      "value": [
        [
          0
        ],
        [
          0
        ]
      ]
    },
    {
      "beg_time": 1586900271,
      "step_time": 307,
      "value": [
        [
          0
        ],
        [
          0
        ]
      ]
    },
    {
      "beg_time": 1586900886,
      "step_time": 295,
      "value": [
        [
          0
        ],
        [
          0
        ]
      ]
    },
    {
      "beg_time": 1586901488,
      "step_time": 295,
      "value": [
        [
          0
        ],
        [
          0
        ]
      ]
    },
    {
      "beg_time": 1586902091,
      "step_time": 307,
      "value": [
        [
          0
        ],
        [
          0
        ]
      ]
    },
    {
      "beg_time": 1586902692,
      "step_time": 308,
      "value": [
        [
          0
        ],
        [
          0
        ],
        [
          0
        ]
      ]
    },
    {
      "beg_time": 1586903603,
      "step_time": 308,
      "value": [
        [
          0
        ],
        [
          0
        ]
      ]
    },
    {
      "beg_time": 1586904218,
      "step_time": 294,
      "value": [
        [
          0
        ],
        [
          0
        ]
      ]
    },
    {
      "beg_time": 1586904820,
      "step_time": 308,
      "value": [
        [
          0
        ],
        [
          0
        ]
      ]
    },
    {
      "beg_time": 1586905423,
      "step_time": 308,
      "value": [
        [
          0
        ],
        [
          0
        ]
      ]
    },
    {
      "beg_time": 1586906026,
      "step_time": 307,
      "value": [
        [
          0
        ],
        [
          0
        ]
      ]
    },
    {
      "beg_time": 1586906641,
      "step_time": 295,
      "value": [
        [
          0
        ],
        [
          0
        ]
      ]
    },
    {
      "beg_time": 1586907243,
      "step_time": 308,
      "value": [
        [
          0
        ],
        [
          0
        ]
      ]
    },
    {
      "beg_time": 1586907846,
      "step_time": 307,
      "value": [
        [
          0
        ],
        [
          0
        ]
      ]
    },
    {
      "beg_time": 1586908448,
      "step_time": 308,
      "value": [
        [
          0
        ],
        [
          0
        ]
      ]
    },
    {
      "beg_time": 1586909063,
      "step_time": 295,
      "value": [
        [
          0
        ],
        [
          0
        ]
      ]
    },
    {
      "beg_time": 1586909666,
      "step_time": 307,
      "value": [
        [
          0
        ],
        [
          0
        ]
      ]
    },
    {
      "beg_time": 1586910268,
      "step_time": 308,
      "value": [
        [
          0
        ],
        [
          0
        ]
      ]
    },
    {
      "beg_time": 1586910883,
      "step_time": 295,
      "value": [
        [
          0
        ],
        [
          0
        ]
      ]
    },
    {
      "beg_time": 1586911486,
      "step_time": 308,
      "value": [
        [
          0
        ],
        [
          0
        ]
      ]
    },
    {
      "beg_time": 1586912088,
      "step_time": 308,
      "value": [
        [
          0
        ],
        [
          0
        ]
      ]
    },
    {
      "beg_time": 1586912691,
      "step_time": 307,
      "value": [
        [
          0
        ],
        [
          0
        ]
      ]
    },
    {
      "beg_time": 1586913306,
      "step_time": 295,
      "value": [
        [
          0
        ],
        [
          0
        ]
      ]
    },
    {
      "beg_time": 1586913908,
      "step_time": 308,
      "value": [
        [
          0
        ],
        [
          0
        ]
      ]
    },
    {
      "beg_time": 1586914511,
      "step_time": 307,
      "value": [
        [
          0
        ],
        [
          0
        ]
      ]
    },
    {
      "beg_time": 1586915126,
      "step_time": 295,
      "value": [
        [
          0
        ],
        [
          0
        ]
      ]
    },
    {
      "beg_time": 1586915728,
      "step_time": 308,
      "value": [
        [
          0
        ],
        [
          0
        ]
      ]
    },
    {
      "beg_time": 1586916331,
      "step_time": 307,
      "value": [
        [
          0
        ],
        [
          0
        ]
      ]
    },
    {
      "beg_time": 1586916933,
      "step_time": 308,
      "value": [
        [
          0
        ],
        [
          0
        ],
        [
          0
        ]
      ]
    },
    {
      "beg_time": 1586917843,
      "step_time": 308,
      "value": [
        [
          0
        ],
        [
          0
        ],
        [
          0
        ]
      ]
    },
    {
      "beg_time": 1586918753,
      "step_time": 308,
      "value": [
        [
          0
        ],
        [
          0
        ],
        [
          0
        ]
      ]
    },
    {
      "beg_time": 1586919663,
      "step_time": 308,
      "value": [
        [
          0
        ],
        [
          0
        ]
      ]
    },
    {
      "beg_time": 1586920266,
      "step_time": 307,
      "value": [
        [
          0
        ],
        [
          0
        ]
      ]
    },
    {
      "beg_time": 1586920881,
      "step_time": 295,
      "value": [
        [
          0
        ],
        [
          0
        ]
      ]
    },
    {
      "beg_time": 1586921483,
      "step_time": 308,
      "value": [
        [
          0
        ],
        [
          0
        ]
      ]
    },
    {
      "beg_time": 1586922086,
      "step_time": 307,
      "value": [
        [
          0
        ],
        [
          0
        ]
      ]
    },
    {
      "beg_time": 1586922701,
      "step_time": 295,
      "value": [
        [
          0
        ],
        [
          0
        ]
      ]
    },
    {
      "beg_time": 1586923304,
      "step_time": 307,
      "value": [
        [
          0
        ],
        [
          0
        ]
      ]
    },
    {
      "beg_time": 1586923906,
      "step_time": 308,
      "value": [
        [
          0
        ],
        [
          0
        ]
      ]
    },
    {
      "beg_time": 1586924521,
      "step_time": 295,
      "value": [
        [
          0
        ],
        [
          0
        ]
      ]
    },
    {
      "beg_time": 1586925124,
      "step_time": 307,
      "value": [
        [
          0
        ],
        [
          0
        ]
      ]
    },
    {
      "beg_time": 1586925726,
      "step_time": 308,
      "value": [
        [
          0
        ],
        [
          0
        ]
      ]
    },
    {
      "beg_time": 1586926341,
      "step_time": 295,
      "value": [
        [
          0
        ],
        [
          0
        ]
      ]
    },
    {
      "beg_time": 1586926944,
      "step_time": 307,
      "value": [
        [
          0
        ],
        [
          0
        ]
      ]
    },
    {
      "beg_time": 1586927546,
      "step_time": 308,
      "value": [
        [
          0
        ],
        [
          0
        ]
      ]
    },
    {
      "beg_time": 1586928149,
      "step_time": 307,
      "value": [
        [
          0
        ],
        [
          0
        ]
      ]
    },
    {
      "beg_time": 1586928764,
      "step_time": 295,
      "value": [
        [
          0
        ],
        [
          0
        ]
      ]
    },
    {
      "beg_time": 1586929366,
      "step_time": 308,
      "value": [
        [
          0
        ],
        [
          0
        ]
      ]
    },
    {
      "beg_time": 1586929969,
      "step_time": 307,
      "value": [
        [
          0
        ],
        [
          0
        ]
      ]
    },
    {
      "beg_time": 1586930584,
      "step_time": 295,
      "value": [
        [
          0
        ],
        [
          0
        ]
      ]
    },
    {
      "beg_time": 1586931173,
      "step_time": 321,
      "value": [
        [
          0
        ],
        [
          0
        ]
      ]
    },
    {
      "beg_time": 1586931789,
      "step_time": 307,
      "value": [
        [
          0
        ],
        [
          0
        ]
      ]
    },
    {
      "beg_time": 1586932404,
      "step_time": 282,
      "value": [
        [
          0
        ],
        [
          0
        ]
      ]
    },
    {
      "beg_time": 1586933006,
      "step_time": 295,
      "value": [
        [
          0
        ],
        [
          0
        ]
      ]
    },
    {
      "beg_time": 1586933609,
      "step_time": 307,
      "value": [
        [
          0
        ],
        [
          0
        ]
      ]
    },
    {
      "beg_time": 1586934211,
      "step_time": 308,
      "value": [
        [
          0
        ],
        [
          0
        ]
      ]
    },
    {
      "beg_time": 1586934814,
      "step_time": 307,
      "value": [
        [
          0
        ],
        [
          0
        ]
      ]
    },
    {
      "beg_time": 1586935429,
      "step_time": 295,
      "value": [
        [
          0
        ],
        [
          0
        ]
      ]
    },
    {
      "beg_time": 1586936031,
      "step_time": 308,
      "value": [
        [
          0
        ],
        [
          0
        ]
      ]
    },
    {
      "beg_time": 1586936635,
      "step_time": 307,
      "value": [
        [
          0
        ],
        [
          0
        ]
      ]
    },
    {
      "beg_time": 1586937250,
      "step_time": 295,
      "value": [
        [
          0
        ],
        [
          0
        ]
      ]
    },
    {
      "beg_time": 1586937851,
      "step_time": 295,
      "value": [
        [
          0
        ],
        [
          0
        ]
      ]
    },
    {
      "beg_time": 1586938454,
      "step_time": 294,
      "value": [
        [
          0
        ],
        [
          0
        ]
      ]
    },
    {
      "beg_time": 1586939056,
      "step_time": 308,
      "value": [
        [
          0
        ],
        [
          0
        ]
      ]
    },
    {
      "beg_time": 1586939659,
      "step_time": 307,
      "value": [
        [
          0
        ],
        [
          0
        ]
      ]
    },
    {
      "beg_time": 1586940275,
      "step_time": 295,
      "value": [
        [
          0
        ],
        [
          0
        ]
      ]
    },
    {
      "beg_time": 1586940876,
      "step_time": 308,
      "value": [
        [
          0
        ],
        [
          0
        ]
      ]
    },
    {
      "beg_time": 1586941479,
      "step_time": 307,
      "value": [
        [
          0
        ],
        [
          0
        ]
      ]
    },
    {
      "beg_time": 1586942094,
      "step_time": 295,
      "value": [
        [
          0
        ],
        [
          0
        ]
      ]
    },
    {
      "beg_time": 1586942594,
      "step_time": 403,
      "value": [
        [
          0
        ],
        [
          0
        ]
      ]
    },
    {
      "beg_time": 1586943279,
      "step_time": 295,
      "value": [
        [
          0
        ],
        [
          0
        ]
      ]
    },
    {
      "beg_time": 1586943907,
      "step_time": 295,
      "value": [
        [
          0
        ],
        [
          0
        ]
      ]
    },
    {
      "beg_time": 1586944511,
      "step_time": 308,
      "value": [
        [
          0
        ],
        [
          0
        ]
      ]
    },
    {
      "beg_time": 1586945203,
      "step_time": 39,
      "value": [
        [
          0
        ],
        [
          0
        ]
      ]
    },
    {
      "beg_time": 1586945537,
      "step_time": 307,
      "value": [
        [
          0
        ],
        [
          0
        ]
      ]
    },
    {
      "beg_time": 1586946139,
      "step_time": 308,
      "value": [
        [
          0
        ],
        [
          0
        ],
        [
          0
        ]
      ]
    },
    {
      "beg_time": 1586947049,
      "step_time": 309,
      "value": [
        [
          0
        ],
        [
          0
        ]
      ]
    },
    {
      "beg_time": 1586947664,
      "step_time": 295,
      "value": [
        [
          0
        ],
        [
          0
        ]
      ]
    },
    {
      "beg_time": 1586948268,
      "step_time": 128,
      "value": [
        [
          0
        ],
        [
          0
        ]
      ]
    },
    {
      "beg_time": 1586949319,
      "step_time": 460,
      "value": [
        [
          0
        ],
        [
          0
        ]
      ]
    },
    {
      "beg_time": 1586950087,
      "step_time": 296,
      "value": [
        [
          0
        ],
        [
          0
        ]
      ]
    },
    {
      "beg_time": 1586950689,
      "step_time": 308,
      "value": [
        [
          0
        ],
        [
          0
        ]
      ]
    },
    {
      "beg_time": 1586951292,
      "step_time": 308,
      "value": [
        [
          0
        ],
        [
          0
        ],
        [
          0
        ]
      ]
    },
    {
      "beg_time": 1586952202,
      "step_time": 307,
      "value": [
        [
          0
        ],
        [
          0
        ]
      ]
    },
    {
      "beg_time": 1586952817,
      "step_time": 295,
      "value": [
        [
          0
        ],
        [
          0
        ]
      ]
    },
    {
      "beg_time": 1586953419,
      "step_time": 270,
      "value": [
        [
          0
        ],
        [
          0
        ]
      ]
    },
    {
      "beg_time": 1586954022,
      "step_time": 307,
      "value": [
        [
          0
        ],
        [
          0
        ]
      ]
    },
    {
      "beg_time": 1586954624,
      "step_time": 308,
      "value": [
        [
          0
        ],
        [
          0
        ]
      ]
    },
    {
      "beg_time": 1586955227,
      "step_time": 294,
      "value": [
        [
          0
        ],
        [
          0
        ]
      ]
    },
    {
      "beg_time": 1586955842,
      "step_time": 14,
      "value": [
        [
          0
        ],
        [
          0
        ]
      ]
    },
    {
      "beg_time": 1586956445,
      "step_time": 308,
      "value": [
        [
          0
        ],
        [
          0
        ],
        [
          0
        ]
      ]
    },
    {
      "beg_time": 1586957355,
      "step_time": 308,
      "value": [
        [
          0
        ],
        [
          0
        ]
      ]
    },
    {
      "beg_time": 1586957944,
      "step_time": 320,
      "value": [
        [
          0
        ],
        [
          0
        ]
      ]
    },
    {
      "beg_time": 1586958522,
      "step_time": 352,
      "value": [
        [
          0
        ],
        [
          0
        ]
      ]
    },
    {
      "beg_time": 1586959156,
      "step_time": 321,
      "value": [
        [
          0
        ],
        [
          0
        ]
      ]
    },
    {
      "beg_time": 1586959771,
      "step_time": 218,
      "value": [
        [
          0
        ],
        [
          0
        ]
      ]
    },
    {
      "beg_time": 1586960315,
      "step_time": 1243,
      "value": [
        [
          0
        ],
        [
          0
        ]
      ]
    },
    {
      "beg_time": 1586962494,
      "step_time": 309,
      "value": [
        [
          0
        ],
        [
          0
        ]
      ]
    },
    {
      "beg_time": 1586963110,
      "step_time": 294,
      "value": [
        [
          0
        ],
        [
          0
        ]
      ]
    },
    {
      "beg_time": 1586963712,
      "step_time": 295,
      "value": [
        [
          0
        ],
        [
          0
        ]
      ]
    },
    {
      "beg_time": 1586964314,
      "step_time": 309,
      "value": [
        [
          0
        ],
        [
          0
        ]
      ]
    },
    {
      "beg_time": 1586964905,
      "step_time": 114,
      "value": [
        [
          0
        ],
        [
          0
        ]
      ]
    },
    {
      "beg_time": 1586966129,
      "step_time": 306,
      "value": [
        [
          0
        ],
        [
          0
        ]
      ]
    },
    {
      "beg_time": 1586966679,
      "step_time": 2454,
      "value": [
        [
          0
        ],
        [
          0
        ]
      ]
    },
    {
      "beg_time": 1586969416,
      "step_time": 270,
      "value": [
        [
          0
        ],
        [
          0
        ]
      ]
    },
    {
      "beg_time": 1586970044,
      "step_time": 173,
      "value": [
        [
          0
        ],
        [
          0
        ]
      ]
    },
    {
      "beg_time": 1586970492,
      "step_time": 449,
      "value": [
        [
          0
        ],
        [
          0
        ]
      ]
    },
    {
      "beg_time": 1586971223,
      "step_time": 1135,
      "value": [
        [
          0
        ],
        [
          0
        ]
      ]
    },
    {
      "beg_time": 1586972614,
      "step_time": 877,
      "value": [
        [
          0
        ],
        [
          0
        ]
      ]
    },
    {
      "beg_time": 1586974588,
      "step_time": 308,
      "value": [
        [
          0
        ],
        [
          0
        ]
      ]
    },
    {
      "beg_time": 1586975191,
      "step_time": 306,
      "value": [
        [
          0
        ],
        [
          0
        ]
      ]
    },
    {
      "beg_time": 1586975792,
      "step_time": 309,
      "value": [
        [
          0
        ],
        [
          0
        ]
      ]
    },
    {
      "beg_time": 1586976408,
      "step_time": 295,
      "value": [
        [
          0
        ],
        [
          0
        ]
      ]
    },
    {
      "beg_time": 1586977011,
      "step_time": 295,
      "value": [
        [
          0
        ],
        [
          0
        ]
      ]
    },
    {
      "beg_time": 1586977613,
      "step_time": 308,
      "value": [
        [
          0
        ],
        [
          0
        ]
      ]
    },
    {
      "beg_time": 1586978216,
      "step_time": 306,
      "value": [
        [
          0
        ],
        [
          0
        ]
      ]
    },
    {
      "beg_time": 1586978830,
      "step_time": 296,
      "value": [
        [
          0
        ],
        [
          0
        ]
      ]
    },
    {
      "beg_time": 1586979433,
      "step_time": 308,
      "value": [
        [
          0
        ],
        [
          0
        ]
      ]
    },
    {
      "beg_time": 1586980036,
      "step_time": 307,
      "value": [
        [
          0
        ],
        [
          0
        ]
      ]
    },
    {
      "beg_time": 1586980638,
      "step_time": 307,
      "value": [
        [
          0
        ],
        [
          0
        ],
        [
          0
        ]
      ]
    },
    {
      "beg_time": 1586981548,
      "step_time": 308,
      "value": [
        [
          0
        ],
        [
          0
        ]
      ]
    },
    {
      "beg_time": 1586982163,
      "step_time": 295,
      "value": [
        [
          0
        ],
        [
          0
        ]
      ]
    },
    {
      "beg_time": 1586982765,
      "step_time": 295,
      "value": [
        [
          0
        ],
        [
          0
        ]
      ]
    },
    {
      "beg_time": 1586983368,
      "step_time": 308,
      "value": [
        [
          0
        ],
        [
          0
        ]
      ]
    },
    {
      "beg_time": 1586983971,
      "step_time": 307,
      "value": [
        [
          0
        ],
        [
          0
        ]
      ]
    },
    {
      "beg_time": 1586984586,
      "step_time": 295,
      "value": [
        [
          0
        ],
        [
          0
        ]
      ]
    },
    {
      "beg_time": 1586985187,
      "step_time": 295,
      "value": [
        [
          0
        ],
        [
          0
        ]
      ]
    },
    {
      "beg_time": 1586985791,
      "step_time": 307,
      "value": [
        [
          0
        ],
        [
          0
        ]
      ]
    },
    {
      "beg_time": 1586986393,
      "step_time": 308,
      "value": [
        [
          0
        ],
        [
          0
        ]
      ]
    },
    {
      "beg_time": 1586987007,
      "step_time": 295,
      "value": [
        [
          0
        ],
        [
          0
        ]
      ]
    },
    {
      "beg_time": 1586987610,
      "step_time": 307,
      "value": [
        [
          0
        ],
        [
          0
        ]
      ]
    },
    {
      "beg_time": 1586988213,
      "step_time": 308,
      "value": [
        [
          0
        ],
        [
          0
        ]
      ]
    },
    {
      "beg_time": 1586988828,
      "step_time": 295,
      "value": [
        [
          0
        ],
        [
          0
        ]
      ]
    },
    {
      "beg_time": 1586989430,
      "step_time": 295,
      "value": [
        [
          0
        ],
        [
          0
        ]
      ]
    },
    {
      "beg_time": 1586990033,
      "step_time": 308,
      "value": [
        [
          0
        ],
        [
          0
        ]
      ]
    },
    {
      "beg_time": 1586990636,
      "step_time": 307,
      "value": [
        [
          0
        ],
        [
          0
        ]
      ]
    },
    {
      "beg_time": 1586991251,
      "step_time": 295,
      "value": [
        [
          0
        ],
        [
          0
        ]
      ]
    },
    {
      "beg_time": 1586991853,
      "step_time": 308,
      "value": [
        [
          0
        ],
        [
          0
        ]
      ]
    },
    {
      "beg_time": 1586992456,
      "step_time": 307,
      "value": [
        [
          0
        ],
        [
          0
        ]
      ]
    },
    {
      "beg_time": 1586993071,
      "step_time": 295,
      "value": [
        [
          0
        ],
        [
          0
        ]
      ]
    },
    {
      "beg_time": 1586993673,
      "step_time": 295,
      "value": [
        [
          0
        ],
        [
          0
        ]
      ]
    },
    {
      "beg_time": 1586994276,
      "step_time": 307,
      "value": [
        [
          0
        ],
        [
          0
        ]
      ]
    },
    {
      "beg_time": 1586994878,
      "step_time": 308,
      "value": [
        [
          0
        ],
        [
          0
        ]
      ]
    },
    {
      "beg_time": 1586995493,
      "step_time": 295,
      "value": [
        [
          0
        ],
        [
          0
        ]
      ]
    },
    {
      "beg_time": 1586996096,
      "step_time": 307,
      "value": [
        [
          0
        ],
        [
          0
        ]
      ]
    },
    {
      "beg_time": 1586996698,
      "step_time": 308,
      "value": [
        [
          0
        ],
        [
          0
        ],
        [
          0
        ]
      ]
    },
    {
      "beg_time": 1586997608,
      "step_time": 308,
      "value": [
        [
          0
        ],
        [
          0
        ],
        [
          0
        ]
      ]
    },
    {
      "beg_time": 1586998518,
      "step_time": 308,
      "value": [
        [
          0
        ],
        [
          0
        ],
        [
          0
        ]
      ]
    },
    {
      "beg_time": 1586999428,
      "step_time": 308,
      "value": [
        [
          0
        ],
        [
          0
        ],
        [
          0
        ]
      ]
    },
    {
      "beg_time": 1587000338,
      "step_time": 308,
      "value": [
        [
          0
        ],
        [
          0
        ]
      ]
    },
    {
      "beg_time": 1587000941,
      "step_time": 307,
      "value": [
        [
          0
        ],
        [
          0
        ]
      ]
    },
    {
      "beg_time": 1587001556,
      "step_time": 295,
      "value": [
        [
          0
        ],
        [
          0
        ]
      ]
    },
    {
      "beg_time": 1587002158,
      "step_time": 308,
      "value": [
        [
          0
        ],
        [
          0
        ]
      ]
    },
    {
      "beg_time": 1587002761,
      "step_time": 308,
      "value": [
        [
          0
        ],
        [
          0
        ]
      ]
    },
    {
      "beg_time": 1587003376,
      "step_time": 295,
      "value": [
        [
          0
        ],
        [
          0
        ]
      ]
    },
    {
      "beg_time": 1587003979,
      "step_time": 294,
      "value": [
        [
          0
        ],
        [
          0
        ]
      ]
    },
    {
      "beg_time": 1587004581,
      "step_time": 308,
      "value": [
        [
          0
        ],
        [
          0
        ]
      ]
    },
    {
      "beg_time": 1587005183,
      "step_time": 308,
      "value": [
        [
          0
        ],
        [
          0
        ],
        [
          0
        ]
      ]
    },
    {
      "beg_time": 1587006093,
      "step_time": 309,
      "value": [
        [
          0
        ],
        [
          0
        ]
      ]
    },
    {
      "beg_time": 1587006710,
      "step_time": 293,
      "value": [
        [
          0
        ],
        [
          0
        ]
      ]
    },
    {
      "beg_time": 1587007311,
      "step_time": 308,
      "value": [
        [
          0
        ],
        [
          0
        ]
      ]
    },
    {
      "beg_time": 1587007913,
      "step_time": 308,
      "value": [
        [
          0
        ],
        [
          0
        ]
      ]
    },
    {
      "beg_time": 1587008516,
      "step_time": 308,
      "value": [
        [
          0
        ],
        [
          0
        ]
      ]
    },
    {
      "beg_time": 1587009131,
      "step_time": 295,
      "value": [
        [
          0
        ],
        [
          0
        ]
      ]
    },
    {
      "beg_time": 1587009734,
      "step_time": 307,
      "value": [
        [
          0
        ],
        [
          0
        ]
      ]
    },
    {
      "beg_time": 1587010336,
      "step_time": 308,
      "value": [
        [
          0
        ],
        [
          0
        ]
      ]
    },
    {
      "beg_time": 1587010951,
      "step_time": 295,
      "value": [
        [
          0
        ],
        [
          0
        ]
      ]
    },
    {
      "beg_time": 1587011554,
      "step_time": 308,
      "value": [
        [
          0
        ],
        [
          0
        ]
      ]
    },
    {
      "beg_time": 1587012157,
      "step_time": 307,
      "value": [
        [
          0
        ],
        [
          0
        ],
        [
          0
        ]
      ]
    },
    {
      "beg_time": 1587013067,
      "step_time": 308,
      "value": [
        [
          0
        ],
        [
          0
        ]
      ]
    },
    {
      "beg_time": 1587013669,
      "step_time": 308,
      "value": [
        [
          0
        ],
        [
          0
        ]
      ]
    },
    {
      "beg_time": 1587014284,
      "step_time": 295,
      "value": [
        [
          0
        ],
        [
          0
        ]
      ]
    },
    {
      "beg_time": 1587014886,
      "step_time": 308,
      "value": [
        [
          0
        ],
        [
          0
        ]
      ]
    },
    {
      "beg_time": 1587015490,
      "step_time": 307,
      "value": [
        [
          0
        ],
        [
          0
        ],
        [
          0
        ]
      ]
    },
    {
      "beg_time": 1587016399,
      "step_time": 308,
      "value": [
        [
          0
        ],
        [
          0
        ]
      ]
    },
    {
      "beg_time": 1587017002,
      "step_time": 307,
      "value": [
        [
          0
        ],
        [
          0
        ],
        [
          0
        ]
      ]
    },
    {
      "beg_time": 1587017912,
      "step_time": 308,
      "value": [
        [
          0
        ],
        [
          0
        ]
      ]
    },
    {
      "beg_time": 1587018526,
      "step_time": 295,
      "value": [
        [
          0
        ],
        [
          0
        ]
      ]
    },
    {
      "beg_time": 1587019129,
      "step_time": 294,
      "value": [
        [
          0
        ],
        [
          0
        ]
      ]
    },
    {
      "beg_time": 1587019731,
      "step_time": 308,
      "value": [
        [
          0
        ],
        [
          0
        ]
      ]
    },
    {
      "beg_time": 1587020334,
      "step_time": 307,
      "value": [
        [
          0
        ],
        [
          0
        ]
      ]
    },
    {
      "beg_time": 1587020949,
      "step_time": 295,
      "value": [
        [
          0
        ],
        [
          0
        ]
      ]
    },
    {
      "beg_time": 1587021552,
      "step_time": 308,
      "value": [
        [
          0
        ],
        [
          0
        ]
      ]
    },
    {
      "beg_time": 1587022154,
      "step_time": 307,
      "value": [
        [
          0
        ],
        [
          0
        ]
      ]
    },
    {
      "beg_time": 1587022756,
      "step_time": 308,
      "value": [
        [
          0
        ],
        [
          0
        ]
      ]
    },
    {
      "beg_time": 1587023371,
      "step_time": 295,
      "value": [
        [
          0
        ],
        [
          0
        ]
      ]
    },
    {
      "beg_time": 1587023975,
      "step_time": 307,
      "value": [
        [
          0
        ],
        [
          0
        ]
      ]
    },
    {
      "beg_time": 1587024577,
      "step_time": 308,
      "value": [
        [
          0
        ],
        [
          0
        ]
      ]
    },
    {
      "beg_time": 1587025191,
      "step_time": 295,
      "value": [
        [
          0
        ],
        [
          0
        ]
      ]
    },
    {
      "beg_time": 1587025795,
      "step_time": 307,
      "value": [
        [
          0
        ],
        [
          0
        ]
      ]
    },
    {
      "beg_time": 1587026396,
      "step_time": 308,
      "value": [
        [
          0
        ],
        [
          0
        ]
      ]
    },
    {
      "beg_time": 1587027000,
      "step_time": 307,
      "value": [
        [
          0
        ],
        [
          0
        ]
      ]
    }
  ],
  "status": "ok",
  "time_exec": 0.35265493392944336,
  "time_server": 1682668963
}
